AWSTATS DATA FILE 7.0 (build 1.971)
# If you remove this file, all statistics for date 201801 will be lost/reset.
# Last config file used to build this data file was /etc/awstats/awstats.autoopora.com.conf.

# Position (offset in bytes) in this file for beginning of each section for
# direct I/O access. If you made changes somewhere in this file, you should
# also remove completely the MAP section (AWStats will rewrite it at next
# update).
BEGIN_MAP 27
POS_GENERAL 1993                
POS_TIME 2676                
POS_VISITOR 29469               
POS_DAY 36340               
POS_DOMAIN 3569                
POS_LOGIN 3802                
POS_ROBOT 3957                
POS_WORMS 4743                
POS_EMAILSENDER 4874                
POS_EMAILRECEIVER 5017                
POS_SESSION 36727               
POS_SIDER 36935               
POS_FILETYPES 5152                
POS_DOWNLOADS 5460                
POS_OS 5533                
POS_BROWSER 5710                
POS_SCREENSIZE 6764                
POS_UNKNOWNREFERER 6838                
POS_UNKNOWNREFERERBROWSER 7456                
POS_ORIGIN 7629                
POS_SEREFERRALS 7770                
POS_PAGEREFS 7940                
POS_SEARCHWORDS 8206                
POS_KEYWORDS 8358                
POS_MISC 2339                
POS_ERRORS 8417                
POS_CLUSTER 3658                
POS_SIDER_404 8568                
END_MAP

# LastLine    = Date of last record processed - Last record line number in last log - Last record offset in last log - Last record signature value
# FirstTime   = Date of first visit for history file
# LastTime    = Date of last visit for history file
# LastUpdate  = Date of last update - Nb of parsed records - Nb of parsed old records - Nb of parsed new records - Nb of parsed corrupted - Nb of parsed dropped
# TotalVisits = Number of visits
# TotalUnique = Number of unique visitors
# MonthHostsKnown   = Number of hosts known
# MonthHostsUnKnown = Number of hosts unknown
BEGIN_GENERAL 8
LastLine 20180201001146 659 173908 9402618223384
FirstTime 20180120045827
LastTime 20180131235013
LastUpdate 20180201043941 659 0 658 0 0
TotalVisits 183                 
TotalUnique 141                 
MonthHostsKnown 0                   
MonthHostsUnknown 184                 
END_GENERAL

# Misc ID - Pages - Hits - Bandwidth
BEGIN_MISC 10
QuickTimeSupport 0 0 0
JavaEnabled 0 0 0
JavascriptDisabled 0 0 0
PDFSupport 0 0 0
WindowsMediaPlayerSupport 0 0 0
AddToFavourites 0 44 0
RealPlayerSupport 0 0 0
TotalMisc 0 0 0
DirectorSupport 0 0 0
FlashSupport 0 0 0
END_MISC

# Hour - Pages - Hits - Bandwidth - Not viewed Pages - Not viewed Hits - Not viewed Bandwidth
BEGIN_TIME 24
0 16 189 8723749 38 114 1898132
1 11 119 4191028 80 205 5317381
2 6 23 1539228 79 130 1622579
3 3 3 366897 73 179 5429792
4 20 96 3775819 60 149 2704492
5 9 30 1049271 67 154 1153499
6 12 36 1122954 40 72 995063
7 22 94 1551368 66 131 1599875
8 26 179 5513317 55 213 1350262
9 50 247 6182646 54 106 1022915
10 42 246 8113612 32 90 1558137
11 21 168 5853055 46 185 3018188
12 52 273 6983838 41 108 801903
13 15 202 5632806 65 170 806484
14 46 186 4980116 83 121 799296
15 66 369 12798417 52 140 1820892
16 24 194 6091157 52 104 1056102
17 79 342 16888996 76 172 761874
18 33 156 5452908 49 106 1570758
19 41 145 5099876 59 123 2034473
20 75 249 7400898 47 98 1131617
21 108 465 10734881 50 104 1040597
22 28 71 3983852 257 274 4287924
23 15 147 3890961 47 95 1513522
END_TIME

# Domain - Pages - Hits - Bandwidth
# The 10 first Pages must be first (order not required for others)
BEGIN_DOMAIN 1
ip 820 4229 137921650
END_DOMAIN

# Cluster ID - Pages - Hits - Bandwidth
BEGIN_CLUSTER 0
END_CLUSTER

# Login - Pages - Hits - Bandwidth - Last visit
# The 10 first Pages must be first (order not required for others)
BEGIN_LOGIN 0
END_LOGIN

# Robot ID - Hits - Bandwidth - Last visit - Hits on robots.txt
# The 10 first Hits must be first (order not required for others)
BEGIN_ROBOT 18
bot[\s_+:,\.\;\/\\-] 556 16980660 20180131234013 25
yandex 386 8729189 20180131230137 124
googlebot 119 4315178 20180131232518 19
mail\.ru 37 1364478 20180131203901 25
sogou 29 1596696 20180131110218 15
baiduspider 11 1061593 20180131222059 0
phantom 10 301790 20180127065111 0
no_user_agent 8 717327 20180131094544 1
archive\.org_bot 8 1137418 20180120105849 1
wordpress 8 1384 20180120125311 0
core 1 365930 20180131012619 0
ia_archiver 1 1086 20180125094920 1
unknown 7 7602 20180131123245 7
python 4 389688 20180131100607 0
favicon 1 7709 20180127054547 0
discovery 1 176 20180131231959 0
wget 1 558 20180122015038 0
crawl 4 560099 20180131023717 2
END_ROBOT

# Worm ID - Hits - Bandwidth - Last visit
# The 5 first Hits must be first (order not required for others)
BEGIN_WORMS 0
END_WORMS

# EMail - Hits - Bandwidth - Last visit
# The 20 first Hits must be first (order not required for others)
BEGIN_EMAILSENDER 0
END_EMAILSENDER

# EMail - Hits - Bandwidth - Last visit
# The 20 first hits must be first (order not required for others)
BEGIN_EMAILRECEIVER 0
END_EMAILRECEIVER

# Files type - Hits - Bandwidth - Bandwidth without compression - Bandwidth after compression
BEGIN_FILETYPES 12
eot 3 206625 0 0
css 1039 32657161 0 0
png 1055 10219877 0 0
woff2 14 713663 0 0
php 446 18175459 0 0
html 290 39058822 0 0
js 948 30121616 0 0
jpg 93 454310 0 0
jpeg 109 752320 0 0
Unknown 67 1151955 0 0
gif 26 3595597 0 0
svg 139 814245 0 0
END_FILETYPES

# Downloads - Hits - Bandwidth
BEGIN_DOWNLOADS 1
/robots.txt 220 0 236469
END_DOWNLOADS

# OS ID - Hits
BEGIN_OS 13
linuxandroid 506
winlong 6
winxp 150
win2000 1
winnt 2185
linux 3
winvista 83
win7 936
win16 13
macosx 199
wince 1
win2003 1
Unknown 145
END_OS

# Browser ID - Hits
BEGIN_BROWSER 57
msie6.0 4
firefox57.0 1211
safari7.0 52
chrome36.0.841.0 1
opera9.49 1
chrome52.0.2743.116 13
safari11.0 15
firefox3.6 2
android 37
chrome63.0.3223.8 5
chrome56.0.2924.87 69
firefox54.0 1
chrome36.0.1985.125 44
curl 3
chrome57.0.2987.98 1
opera9.80 40
chrome58.0.3029.110 145
chrome63.0.3239.84 1
chrome37.0.819.0 1
iphone 10
msie8.0 80
chrome51.0.2704.81 43
chrome61.0.3163.100 3
firefox0.10.1 3
chrome53.0.2785.146 90
chrome53.0.2785.89 1
msie7.0 6
chrome34.0.1847.116 2
chrome27.0.1453.90 1
chrome49.0.2623.112 87
Unknown 75
chrome60.0.3112.116 75
chrome57.0.2987.137 51
netscape 24
chrome59.0.3071.115 41
firefox50.0 2
firefox32.0 3
firefox32.1 5
chrome63.0.3239.111 87
chrome64.0.3282.123 11
chrome34.0.1847.131 2
safari10.0 10
chrome64.0.3282.119 10
chrome63.0.3239.132 1022
firefox58.0 505
chrome62.0.3202.94 106
chrome10.0.612.1 1
safari9.0 1
mozilla 65
firefox25.0 1
chrome51.0.2704.106 83
netscape5.0 7
chrome40.0.2214.89 11
chrome57.0.2987.133 1
msie10.0 55
chrome41.0.2228.0 2
firefox35.0 1
END_BROWSER

# Screen size - Hits
BEGIN_SCREENSIZE 0
END_SCREENSIZE

# Unknown referer OS - Last visit date
BEGIN_UNKNOWNREFERER 9
Mozilla 20180123203419
Mozilla/5.0_(compatible;_evc-batch/2.0) 20180131152131
}__test|O:21:\ 20180122220937
PycURL/7.43.0_libcurl/7.38.0_OpenSSL/1.0.1_zlib/1.2.3.4_c-ares/1.7.5_libidn/1.23_libssh2/1.2.8_librtmp/2.3 20180129234052
okhttp/3.3.0 20180125134103
Mozilla/5.0_zgrab/0.x 20180131222406
1C_Enterprise/8.3 20180125030421
Opera/9.80_(Android;_Opera_Mini/32.0.2254/85.61;_U;_ru)_Presto/2.12.423_Version/12.16 20180131204401
Opera/9.80_(Android;_Opera_Mini/32.0.2254/83.113;_U;_uk)_Presto/2.12.423_Version/12.16 20180129074205
END_UNKNOWNREFERER

# Unknown referer Browser - Last visit date
BEGIN_UNKNOWNREFERERBROWSER 3
okhttp/3.3.0 20180125134103
}__test|O:21:\ 20180122220937
1C_Enterprise/8.3 20180125030421
END_UNKNOWNREFERERBROWSER

# Origin - Pages - Hits 
BEGIN_ORIGIN 6
From0 281 342
From1 3 3
From2 82 82
From3 4 4
From4 450 3798
From5 0 0
END_ORIGIN

# Search engine referers ID - Pages - Hits
BEGIN_SEREFERRALS 2
google 55 55
yandex 27 27
END_SEREFERRALS

# External page referers - Pages - Hits
# The 10 first Pages must be first (order not required for others)
BEGIN_PAGEREFS 4
http://away.vk.com/away.php 1 1
https://yandex.fr/clck/jsredir 1 1
https://zpua.com.ua 1 1
http://l.instagram.com 1 1
END_PAGEREFS

# Search keyphrases - Number of search
# The 10 first number of search must be first (order not required for others)
BEGIN_SEARCHWORDS 0
END_SEARCHWORDS

# Search keywords - Number of search
# The 10 first number of search must be first (order not required for others)
BEGIN_KEYWORDS 0
END_KEYWORDS

# Errors - Hits - Bandwidth
BEGIN_ERRORS 6
403 4 1479
503 5 80529
302 79 31739
500 8 3201
301 12 5300
404 1921 7219482
END_ERRORS

# URL with 404 errors - Hits - Last URL referer
BEGIN_SIDER_404 291
/blog/wp-includes/wlwmanifest.xml 1 -
/brands/ 3 http://www.autoopora.com/index.php
/vakansii/ 4 https://www.google.com.ua/
/vakansii 2 -
/site/wp-includes/wlwmanifest.xml 1 -
/http://autoopora.com/catalog/view/theme/default/stylesheet/new/swiper.min.css 1 http://autoopora.com/
/avtozapchasti/zapchasti-na-legkovye-avtomobil/zapchasti-na-legkovye-avtomobili-saab/ 1 -
/zapchasti-na-kommercheskuyu-texniku/zapchasti-na-tyagachi/ 1 -
/wp-content/themes/autoopora_1_3_4/jquery.js 6 http://autoopora.com/tag/zapchasti-dlya-legkovyx-inomarok/page/2/
/xmlrpc.php 5 -
/fckeditor/editor/filemanager/connectors/php/upload.php 1 -
/avtozapchasti/zapchasti-na-legkovye-avtomobil/zapchasti-na-legkovye-avtomobili-subaru/ 1 -
/wp-content/uploads/2017/01/Idea-1.png 1 -
/wolk 1 -
/wp-content/plugins/ubh/up.php 1 http://autoopora.com/wp-content/plugins/ubh/up.php
/wp-content/uploads/2017/05/3jGxubuTNyY.jpg 1 -
/zapchasti_na_kommercheskie_avtomobili_SINOTRUK_CNHTC 1 -
/wp-content/plugins/dzs-videogallery/admin/upload.php 2 -
/carbase/ 6 -
/path/to/image.jpg 2 -
/http://autoopora.com/catalog/view/javascript/new/common.js 1 http://autoopora.com/
/wp-content/uploads/2017/02/unnamed-file.jpg 2 -
/.git/info/refs 1 -
/avtozapchasti/zapchasti-na-legkovye-avtomobil/zapchasti-na-legkovye-avtomobili-fiat/ 1 -
/kolesa 1 -
/wp-content/uploads/2017/02/%D0%BB%D0%BE%D0%B3%D0%BE%D1%82%D0%B8%D0%BF_%D0%B1%D0%B5%D0%B7_%D1%84%D0%BE%D0%BD%D0%B0.png 2 -
/wp-content/plugins/linklove/linklove.php 1 http://autoopora.com/wp-content/plugins/linklove/linklove.php
/http://autoopora.com/catalog/view/javascript/new/product_empty_order.js 1 http://autoopora.com/
/voprosi-i-otveti 7 http://www.autoopora.com/
/wp-login.php 263 -
/wp-content/plugins/content-views-query-and-display-post-page/public/assets/css/cv.css 21 http://autoopora.com/
/wp-content/plugins/dzs-portfolio/upload.php 5 -
/js/common.js 142 -
/akkumulyatory-2 2 -
/js/checkout.js 139 -
/avtozapchasti/zapchasti-na-kommercheskuyu-texniku/zapchasti-na-kommercheskuyu-texniku_renault-trucks/zapchasti-na_renault-trucks_d-serie/zapchasti-na_renault-trucks-d-serie-14-kp-250/ 2 -
/wp-content/plugins/project.ziplast/uploader/server/php/files/ 1 http://autoopora.com/wp-content/plugins/project.ziplast/uploader/server/php/files/
/wheel_calc 2 -
/img/directions-material.png 1 http://autoopora.com/css/main.min.css
/wp-content/plugins/reflex-gallery/admin/scripts/FileUploader/php.php 2 -
/components/com_adsmanager/js/noconflict.js 1 -
/header.min.css 114 http://autoopora.com/
/wp-content/plugins/product-enquiry-for-woocommerce/js/wdm_jquery.validate.min.js 2 http://autoopora.com/
/wp-admin 3 -
/oils_catalog 1 -
/avtozapchasti/zapchasti-na-kommercheskuyu-texniku/zapchasti-na-kommercheskuyu-texniku_daf/zapchasti-na_daf_f-1300/zapchasti-na_daf-f-1300-fa-1300-dt-b/ 3 -
/css/custom.css 1 http://autoopora.com/
/css/fonts.min.css 1 http://autoopora.com/
/avtozapchasti/zapchasti-na-legkovye-avtomobil/zapchasti-na-legkovye-avtomobili-mitsubishi/zapchasti-na-legkovye-avtomobili-mitsubishi_cordia-a21_a-ab/ 2 -
/rabotaem-kruglosutochno/ 3 -
/legkovie-import 2 http://www.autoopora.com/
/zapchasti-na-legkovye-avtomobil/zapchasti-na-legkovye-avtomobili-cadillac/ 2 -
/masla-i-texnicheskie-zhidkosti/ 5 -
/avtozapchasti/zapchasti-na-legkovye-avtomobil/zapchasti-na-legkovye-avtomobili-ssangyong/ 1 -
/wp-content/plugins/contact-form-7/includes/css/styles.css 20 http://autoopora.com/
/masla-i-texnicheskie-zhidkosti/masla 3 -
/avtozapchasti/zapchasti-na-kommercheskuyu-texniku/zapchasti-na-kommercheskuyu-texniku_gaz/ 1 -
/wp-content/themes/autoopora_1_3_4/script.responsive.js 6 http://autoopora.com/tag/zapchasti-dlya-legkovyx-inomarok/page/2/
/wp-content/plugins/codecanyon-157782-video-gallery-wordpress-plugin-w-youtube-vimeo-/upload.php 3 -
/zakazat-zvonok/ 6 -
/avtozapchasti/zapchasti-na-legkovye-avtomobil/zapchasti-na-legkovye-avtomobili-cadillac/ 1 -
/wp-content/uploads/2016/12/gif_300-250.gif 7 https://www.google.kz/
/kontakty 1 -
/wordpress/wp-includes/wlwmanifest.xml 1 -
/wp-content/plugins/maxbuttons/assets/libraries/font-awesome/css/font-awesome.min.css 32 http://autoopora.com/
/wp-content/uploads/2017/01/%D0%BD%D0%B0-%D0%B3%D1%80%D1%83%D0%B7%D0%BE%D0%B2%D1%8B%D0%B5-%D0%B0%D0%B2%D1%82%D0%BE%D0%BC%D0%BE%D0%B1%D0%B8%D0%BB%D0%B8.png 2 -
/readme.html 1 -
/shiny-diski/diski 1 -
/wp-content/uploads/2017/05/%D0%B4%D0%B8%D0%B0%D0%B3%D0%BD%D0%BE%D1%81%D1%82%D0%B8%D0%BA%D0%B0-%D0%B0%D0%BA%D0%BA%D1%83%D0%BC%D1%83%D0%BB%D1%8F%D1%82%D0%BE%D1%80%D0%BE%D0%B2.jpg 3 -
/kruglosutochnyj-avtomagazin-v-zaporozhe/ 18 -
/wp-content/plugins/custom-background/readme.txt 1 http://autoopora.com/wp-content/plugins/custom-background/readme.txt
/avtozapchasti/zapchasti-na-legkovye-avtomobil/zapchasti-na-legkovye-avtomobili-land-rover/zapchasti-na-legkovye-avtomobili-land-rover_88-109-hardtop-lr_/ 2 -
/pays 2 http://www.autoopora.com/
/avtozapchasti/zapchasti-na-legkovye-avtomobil/ 2 -
/avtozapchasti/zapchasti-na-legkovye-avtomobil/zapchasti-na-legkovye-avtomobili-lexus/ 1 -
/wp-admin/admin-post.php 3 -
/modules/pk_vertflexmenu/ajax/upload.php 1 -
/shiny-diski/ 3 -
/libs/bootstrap/js/bootstrap.min.js 1 http://autoopora.com/
/wp-content/themes/autoopora_1_3_4/style.responsive.css 31 http://autoopora.com/page/3/
/feed/ 2 -
/wp-content/uploads/2017/02/%D0%96%D0%B8%D0%B4%D0%BA%D0%BE%D1%81%D1%82%D1%8C-AdBlue-%D0%B4%D0%BB%D1%8F-%D1%81%D0%BD%D0%B8%D0%B6%D0%B5%D0%BD%D0%B8%D1%8F-%D0%B2%D1%8B%D0%B1%D1%80%D0%BE%D1%81%D0%BE%D0%B2-%D0%BE%D0%BA%D1%81%D0%B8%D0%B4%D0%BE%D0%B2-%D0%B0%D0%B7 1 -
/avtozapchasti/zapchasti-na-legkovye-avtomobil/zapchasti-na-legkovye-avtomobili-fiat/zapchasti-na-legkovye-avtomobili-fiat_128-familiare-128_/ 2 -
/avtoelektrika/idea-2/ 1 -
/postavka 2 -
/wp-content/plugins/content-views-query-and-display-post-page/public/assets/js/cv.js 2 http://autoopora.com/
/upload/server/php/ 1 http://autoopora.com/upload/server/php/
/wp-content/plugins/page-google-maps/pr.php 1 -
/avtozapchasti/zapchasti-na-legkovye-avtomobil/zapchasti-na-legkovye-avtomobili-opel/ 1 -
/image/cache/placeholder-238x238.png 1 -
/avtozapchasti/zapchasti-na-legkovye-avtomobil/zapchasti-na-legkovye-avtomobili-mazda/ 1 -
/carbase 1 -
/wp-content/plugins/Tevolution/tmplconnector/monetize/templatic-custom_fields/single-upload.php 2 -
/avtozapchasti/zapchasti-na-kommercheskuyu-texniku/zapchasti-na-kommercheskuyu-texniku_vw/ 1 -
/wp-content/plugins/wp-handy-lightbox/begin.php 1 -
/http://autoopora.com/catalog/view/theme/default/stylesheet/tltslideshow.css 1 http://autoopora.com/
/wp-content/themes/autoopora_1_3_4/style.css 10 http://autoopora.com/
//wp-content/plugins/dzs-portfolio/admin/upload.php 1 -
/avtozapchasti/zapchasti-na-kommercheskuyu-texniku/zapchasti-na-kommercheskuyu-texniku_renault-trucks/zapchasti-na_renault-trucks_major/zapchasti-na_renault-trucks-major-r-385ti-19-r-380-19/ 2 -
/avtozapchasti/zapchasti-na-legkovye-avtomobil/zapchasti-na-legkovye-avtomobili-chevrolet/ 1 -
//wp-content/plugins/cherry-plugin/admin/import-export/upload.php 1 -
/modules/wdoptionpanel/wdoptionpanel_ajax.php 2 -
/arenda-ofisa/ 3 -
/avtozapchasti/zapchasti-na-kommercheskuyu-texniku/zapchasti-na-kommercheskuyu-texniku_setra/ 1 -
/modules/attributewizardpro/file_upload.php 1 -
/avtozapchasti/zapchasti-na-kommercheskuyu-texniku/zapchasti-na-kommercheskuyu-texniku_isuzu/ 1 -
/css/main.min.css 1 http://autoopora.com/
/assets/global/plugins/jquery-file-upload/server/node/server.js 2 -
/avtozapchasti/zapchasti-na-kommercheskuyu-texniku/zapchasti-na-kommercheskuyu-texniku_temsa/ 1 -
/avtozapchasti/zapchasti-na-legkovye-avtomobil/zapchasti-na-legkovye-avtomobili-vw/zapchasti-na-legkovye-avtomobili-volkswagen_golf-vii-5g1-be1/ 3 -
/avtozapchasti/zapchasti-na-legkovye-avtomobil/zapchasti-na-legkovye-avtomobili-land-rover/zapchasti-na-legkovye-avtomobili-land-rover_range-rover-iv-lg_/ 3 -
/sitemap3.xml 1 -
/tag/zapchasti-dlya-kommercheskix-avtomobilej/ 1 -
/http://autoopora.com/catalog/view/javascript/bootstrap/js/bootstrap.min.js 1 http://autoopora.com/
/zakazat-zvonok 1 -
/page/2/ 38 -
/shiny-diski/shiny 1 -
/cms/wp-includes/wlwmanifest.xml 1 -
/zapchasti_na_kommercheskie_avtomobili_DAF_45 1 -
/wp-includes/js/wp-emoji-release.min.js 9 http://autoopora.com/
/contacts/ 1 -
/wp-content/uploads/2017/02/%D0%BB%D0%B3%D0%BE%D1%82%D0%B8%D0%BF-%D0%BC%D0%B0%D0%B3%D0%B0%D0%B7%D0%B8%D0%BD%D0%B0-%D0%B7%D0%B0%D0%BF%D1%87%D0%B0%D1%81%D1%82%D0%B5%D0%B9-%D0%B2-%D0%A3%D0%BA%D1%80%D0%B0%D0%B8%D0%BD%D0%B5.jpg 4 -
/zapchasti-na-legkovye-avtomobil/zapchasti-na-legkovye-avtomobili-porsche/ 3 -
/avtozapchasti/zapchasti-na-legkovye-avtomobil/zapchasti-na-legkovye-avtomobili-nissan/ 4 -
/http://autoopora.com/catalog/view/javascript/jquery/jquery-2.1.1.min.js 1 http://autoopora.com/
/avtozapchasti/zapchasti-na-kommercheskuyu-texniku/zapchasti-na-kommercheskuyu-texniku_daf/zapchasti-na_daf_cf/zapchasti-na_daf-cf-fan-400-fag-400/ 3 -
/tyres_catalog 2 -
/arenda-boksa-pod-sto/ 10 http://yandex.ru/clck/jsredir
/wp-content/uploads/2017/01/%D0%B4%D0%BB%D1%8F-%D1%81%D0%B2%D1%8F%D0%B7%D0%B8.png 9 http://autozapchasti.prof.company/wp-admin/post.php
/avtozapchasti-kruglosutochno-v-zaporozhe/ 5 -
/wp-content/uploads/2017/05/SLQHFXVmBdI.jpg 1 -
//wp-content/plugins/uploader/uploadify/uploadify.php 1 -
/avtozapchasti-v-zaporozhe-kruglosutochno/ 2 -
/avtozapchasti/ 3 -
/wp-content/plugins/gallery-plugin/upload/php.php 1 -
/wp-content/plugins/php-event-calendar/server/file-uploader/ 3 -
/avtozapchasti/zapchasti-na-kommercheskuyu-texniku/zapchasti-na-kommercheskuyu-texniku_man/zapchasti-na_man_tgs/zapchasti-na_man-tgs-18-540-fls-fls-m-flrs-flrs-m-flls-flls-n-fllrs/ 2 -
/avtozapchasti/zapchasti-na-legkovye-avtomobil/zapchasti-na-legkovye-avtomobili-seat/ 1 -
//wp-content/plugins/formcraft/file-upload/server/content/upload.php 1 -
/avtozapchasti/zapchasti-na-legkovye-avtomobil/zapchasti-na-legkovye-avtomobili-toyota_bb-i-ncp3_/zapchasti-na-legkovye-avtomobili-toyota_duet-m11_-m10_/ 3 -
/wp-content/plugins/cardoza-facebook-like-box/custom-css/xo.php 1 -
/avtozapchasti/zapchasti-na-kommercheskuyu-texniku/zapchasti-na-kommercheskuyu-texniku_mercedes-benz/zapchasti-na_mercedes-benz_o-402/ 2 -
/image/cache/no_image-238x238.png 1 -
/shiny-diski/diski/ 1 -
/als-shini-otech--legkovie 2 http://www.autoopora.com/
/img/logo-autoopora-comingsoon.png 2 http://autoopora.com/
/avtozapchasti/zapchasti-na-legkovye-avtomobil/zapchasti-na-legkovye-avtomobili-mercedes-benz/zapchasti-na-legkovye-avtomobili-mercedes-benz_e-class-t-model-s212/ 2 -
/delivery 4 http://www.autoopora.com/
/.git/HEAD 4 -
/akkumulyatornyj-servis/akkumulyatory-2/ 7 -
/akkumulyatornyj-servis 1 -
/wp-content/plugins/wp-symposium/server/php/index.php 1 -
/nalichie/ 13 http://www.autoopora.com/
/kontakty/ 2 -
/http://autoopora.com/image/catalog/demo_avtoopora/footer-logogroup.png 1 http://autoopora.com/
/wp-content/plugins/mailpress/mp-includes/action.php 2 -
/avtozapchasti/zapchasti-na-legkovye-avtomobil/zapchasti-na-legkovye-avtomobili-renault/ 1 -
/zapchasti-na-legkovye-avtomobil/zapchasti-na-legkovye-avtomobili-subaru/ 2 -
/avtozapchasti/zapchasti-na-legkovye-avtomobil/zapchasti-na-legkovye-avtomobili-audi/zapchasti-na-legkovye-avtomobili-audi_q3-8u/ 1 -
/wp-content/plugins/simple-dropbox-upload-form/dragup/ 2 -
/avtozapchasti/zapchasti-na-legkovye-avtomobil/zapchasti-na-legkovye-avtomobili-honda/ 1 -
/avtozapchasti/zapchasti-na-legkovye-avtomobil/zapchasti-na-legkovye-avtomobili-citroen/ 1 -
/wp-admin/post.php 1 -
/plugins/community/uploadify/uploadify.css 1 -
/zapchast-na-italianskie-avtomobili 1 -
/wp-includes/js/comment-reply.min.js 6 http://autoopora.com/avtozapchasti/zapchasti-na-legkovye-avtomobil/zapchasti-na-legkovye-avtomobili-mercedes-benz/zapchasti-na-legkovye-avtomobili-mercedes-benz_c-class-w205/
/http://autoopora.com/catalog/view/javascript/bootstrap/css/bootstrap.min.css 1 http://autoopora.com/
/wp-content/plugins/google-maps-by-daniel-martyn/inuse.php 2 -
/wp-content/uploads/2017/01/unnamed-file.png 2 -
/avtozapchasti/zapchasti-na-kommercheskuyu-texniku/zapchasti-na-kommercheskuyu-texniku_daf/zapchasti-na_daf_f-800/zapchasti-na_daf-f-800-fa-800-cn/ 1 -
/vinquery 2 -
/wp-content/uploads/2017/01/%D0%BD%D0%B0-%D0%BB%D0%B5%D0%B3%D0%BA%D0%BE%D0%B2%D1%8B%D0%B5-%D0%B0%D0%B2%D1%82%D0%BE%D0%BC%D0%BE%D0%B1%D0%B8%D0%BB%D0%B8.png 2 -
/http://autoopora.com/catalog/view/javascript/common.js 1 http://autoopora.com/
/rabotaem-kruglosutochno 1 -
/privacy 5 http://www.autoopora.com/
/reg 2 -
/wp-includes/js/wp-embed.min.js 6 http://autoopora.com/tag/zapchasti-dlya-legkovyx-inomarok/page/2/
/wp-content/plugins/traffic-counter-widget/wtc-styles.css 31 http://autoopora.com/page/3/
/js/swiper.min.js 140 -
//wp-content/plugins/dzs-videogallery/admin/upload.php 1 -
/avtozapchasti/zapchasti-na-kommercheskuyu-texniku/ 4 -
/o_nas 1 -
/avtozapchasti/zapchasti-na-legkovye-avtomobil/zapchasti-na-legkovye-avtomobili-skoda/ 1 -
/wp-content/uploads/2017/01/1.png 1 -
/wp-content/themes/version.php 1 -
/avtozapchasti/zapchasti-na-legkovye-avtomobil/zapchasti-na-legkovye-avtomobili-fiat/zapchasti-na-legkovye-avtomobili-fiat_fullback-pikap-502_-503_/ 3 -
/wp-includes/wlwmanifest.xml 6 -
/wp-admin/admin-ajax.php 12 -
/wp-content/uploads/2017/01/24_7.png 11 http://autozapchasti.prof.company/wp-admin/post.php
/http://autoopora.com/catalog/view/javascript/font-awesome/css/font-awesome.min.css 1 http://autoopora.com/
/http://autoopora.com/catalog/view/javascript/new/swiper.min.js 1 http://autoopora.com/
/wp-content/plugins/sfwd-lms/assets/js/sfwd-admin-groups.js 1 -
/avtozapchasti/zapchasti-na-kommercheskuyu-texniku/zapchasti-na-kommercheskuyu-texniku_daf/zapchasti-na_daf_cf/zapchasti-na_daf-cf-far-290-fas-290/ 2 -
/avtozapchasti/zapchasti-na-legkovye-avtomobil/zapchasti-na-legkovye-avtomobili-ford/ 1 -
/avtozapchasti/zapchasti-na-kommercheskuyu-texniku/zapchasti-na-kommercheskuyu-texniku_daf/ 1 -
/wp-content/uploads/2017/02/battery_6.png 2 -
/akkumulyatornyj-servis/ 8 -
/wp-content/plugins/php-event-calendar/js/file-uploader/jquery.fileupload.js 1 -
/avtozapchasti/zapchasti-na-legkovye-avtomobil/zapchasti-na-legkovye-avtomobili-chrysler/ 1 -
/avtozapchasti/zapchasti-na-kommercheskuyu-texniku/zapchasti-na-kommercheskuyu-texniku_renault-trucks/zapchasti-na_renault-trucks_t-serie/zapchasti-na_renault-trucks-t-serie-480p-480p-low/ 3 -
/avtozapchasti/zapchasti-na-kommercheskuyu-texniku/zapchasti-na-kommercheskuyu-texniku_volvo/ 1 -
/wp-content/uploads/2017/05/3aaFsGyxA9Q.jpg 3 -
/zapchasti-na-gruzoviki/ 5 -
/http://autoopora.com/catalog/view/javascript/new/swiper.settings.js 1 http://autoopora.com/
/personal_cabinet 2 -
/js/grid_checker.js 141 -
/http://autoopora.com/catalog/view/javascript/jquery.mask.min.js 1 http://autoopora.com/
/zapchast-na-koreyskie-avtomobili 2 -
/avtozapchasti/zapchasti-na-legkovye-avtomobil/zapchasti-na-legkovye-avtomobili-subaru/zapchasti-na-legkovye-avtomobili-subaru_impreza-sedan-gc/ 3 -
/wp-content/themes/autoopora_1_3_4/images/logo_zaglushka.png 1 http://autoopora.com/
/avtozapchasti/zapchasti-na-legkovye-avtomobil/zapchasti-na-legkovye-avtomobili-hummer/ 1 -
/http://autoopora.com/catalog/view/javascript/buyoneclick.js 1 http://autoopora.com/
/zapchasti-na-legkovye-avto 1 -
/zakazat-avtozapchast/ 4 -
/masla-i-texnicheskie-zhidkosti/texnicheskie-zhidkosti 1 -
/wp-content/plugins/font-uploader/font-upload.php 3 -
/sitemap.xml 1 -
/avtozapchasti/zapchasti-na-legkovye-avtomobil/zapchasti-na-legkovye-avtomobili-dodge/ 1 -
/avtozapchasti/zapchasti-na-kommercheskuyu-texniku/zapchasti-na-kommercheskuyu-texniku_renault-trucks/zapchasti-na_renault-trucks_midlum/zapchasti-na_renault-trucks-midlum-270-18d/ 3 -
/akcii-ot-avtoopory/ 4 -
/about_us 8 http://www.autoopora.com/
//wp-admin/admin-ajax.php 3 -
//modules/homepageadvertise2/uploadimage.php 1 -
/wp-content/uploads/2017/02/3_%D0%B3%D0%B8%D1%84.gif 5 -
/als-shini-import-legkovoj 2 http://www.autoopora.com/
/vinqu 1 -
/avtozapchasti/zapchasti-na-kommercheskuyu-texniku/zapchasti-na-kommercheskuyu-texniku_kamaz/ 1 -
/whcatalog/ 4 -
/http://autoopora.com/image/catalog/demo_avtoopora/liqpay-logo.png 1 http://autoopora.com/
/wp-content/plugins/product-enquiry-for-woocommerce/js/contact.js 2 http://autoopora.com/
/zapchasti-na-kommercheskuyu-texniku/zapchasti-na-gruzoviki 1 -
/wp-content/plugins/product-enquiry-for-woocommerce/css/wdm-jquery-ui.css 2 http://autoopora.com/
/wp-json/ 1 -
/avtozapchasti/zapchasti-na-legkovye-avtomobil/zapchasti-na-legkovye-avtomobili-vw/ 1 -
/avtozapchasti/zapchasti-na-kommercheskuyu-texniku/zapchasti-na-kommercheskuyu-texniku_man/zapchasti-na_man_tga/zapchasti-na_man-tga-18-310-fac-farc/ 1 -
/http://autoopora.com/catalog/view/theme/default/stylesheet/new/fonts.min.css 1 http://autoopora.com/
/avtozapchasti/zapchasti-na-legkovye-avtomobil/zapchasti-na-legkovye-avtomobili-land-rover/ 1 -
/KlfhsYYs 1 -
/.well-known/security.txt 1 -
/tag/avtomasla/feed/ 2 -
/avtoelektrika/ 4 -
/wp-content/plugins/sharexy/ajaxresponder.php 1 -
/avtozapchasti/zapchasti-na-legkovye-avtomobil/zapchasti-na-legkovye-avtomobili-jaguar/ 1 -
/wp-content/plugins/contact-form-7/includes/js/jquery.form.min.js 6 http://autoopora.com/avtozapchasti/zapchasti-na-legkovye-avtomobil/zapchasti-na-legkovye-avtomobili-porsche/zapchasti-na-legkovye-avtomobili-porsche_911-991/
/tag/avtomasla/ 1 -
/avtozapchasti/zapchasti-na-legkovye-avtomobil/zapchasti-na-legkovye-avtomobili-bmw/ 1 -
/avtozapchasti/zapchasti-na-legkovye-avtomobil/zapchasti-na-legkovye-avtomobili-renault/zapchasti-na-legkovye-avtomobili-renault_19-i-bc53_/ 3 -
/wp-content/plugins/traffic-counter-widget/wp-wtc-ajax.js 6 http://autoopora.com/tag/zapchasti-dlya-legkovyx-inomarok/page/2/
/als-shini-rosava-belshina 2 http://www.autoopora.com/
/wp-content/plugins/contact-form-7/includes/js/scripts.js 8 http://autoopora.com/
/http://autoopora.com/catalog/view/javascript/bootstrap/css/bootstrap-theme.min.css 1 http://autoopora.com/
/wp-content/plugins/wpstorecart/php/upload.php 3 -
/magazin-avtozapchastej-v-zaporozhe/ 3 -
/page/5/ 2 -
/wp-admin/plugin-editor.php 3 -
/css/swiper.min.css 1 http://autoopora.com/
/avtozapchasti/zapchasti-na-legkovye-avtomobil/zapchasti-na-legkovye-avtomobili-suzuki/ 1 -
/page/4/ 1 -
/wp-content/plugins/maxbuttons/js/min/front.js 2 http://autoopora.com/
/als-shini-otech-- 4 http://www.autoopora.com/
/libs/bootstrap/css/bootstrap.min.css 1 http://autoopora.com/
/wp-content/uploads/2017/01/unnamed-file-6.png 8 http://autozapchasti.prof.company/wp-admin/post.php
/avtozapchasti/zapchasti-na-kommercheskuyu-texniku/zapchasti-na-kommercheskuyu-texniku_daf/zapchasti-na_daf_xf-105/zapchasti-na_daf-xf-105-fan-105-410/ 2 -
/modules/pk_flexmenu/ajax/upload.php 1 -
/libs/bootstrap/css/bootstrap-theme.min.css 1 http://autoopora.com/
/masla-i-texnicheskie-zhidkosti/masla/ 2 -
/wp-content/uploads/2017/01/unnamed-file-15.png 2 -
/category/kruglosutochnyj-avtomagazin-v-zaporozhe/ 6 https://www.google.com.ua/
/wp-content/themes/autoopora_1_3_4/script.js 6 http://autoopora.com/tag/zapchasti-dlya-legkovyx-inomarok/page/2/
/onlajn-pomoshh-avtolyubitelyam/ 6 -
//wp-admin/admin-post.php 1 -
/wp-content/plugins/gallery-slider/launch.php 1 -
/http://autoopora.com/catalog/view/theme/default/stylesheet/new/custom.css 1 http://autoopora.com/
/zapchasti-na-kommercheskuyu-texniku/zapchasti-na-samosvaly/ 1 -
//modules/vtemslideshow/uploadimage.php 1 -
/avtozapchasti/zapchasti-na-legkovye-avtomobil/zapchasti-na-legkovye-avtomobili-hyundai/ 1 -
/avtozapchasti/zapchasti-na-kommercheskuyu-texniku/zapchasti-na-kommercheskuyu-texniku_renault-trucks/zapchasti-na_renault-trucks_d-serie/zapchasti-na_renault-trucks-d-serie-14-p-250-14-kp-250/ 3 -
/wp-content/uploads/2017/01/unnamed-file-9.png 2 -
/masla-i-texnicheskie-zhidkosti 2 -
/wp/wp-includes/wlwmanifest.xml 1 -
/page/3/ 8 -
/avtozapchasti/zapchasti-na-kommercheskuyu-texniku/zapchasti-na-kommercheskuyu-texniku_daf/zapchasti-na_daf_95-xf/zapchasti-na_daf-95-xf-ftp-95-xf-430/ 3 -
/catalog/view/javascript/new/swiper.setting.js 4 http://autoopora.com/index.php
/wp-content/uploader.php 1 http://autoopora.com/wp-content/uploader.php
/remindpass 1 -
/avtozapchasti/zapchasti-na-kommercheskuyu-texniku/zapchasti-na-kommercheskuyu-texniku_renault-trucks/zapchasti-na_renault-trucks_maxter/zapchasti-na_renault-trucks-maxter-g-340ti-32a-g-340ti-32b-g-340ti-32c-2/ 2 -
/http://autoopora.com/catalog/view/theme/default/stylesheet/new/main.min.css 1 http://autoopora.com/
/wp-content/plugins/dzs-portfolio/admin/upload.php 1 -
/index.php 152 -
/avtozapchasti/zapchasti-na-kommercheskuyu-texniku/zapchasti-na-kommercheskuyu-texniku_fiat/ 1 -
/img/favicon/apple-touch-icon-114x114.png 1 -
END_SIDER_404

# Host - Pages - Hits - Bandwidth - Last visit date - [Start date of last visit] - [Last page of last visit]
# [Start date of last visit] and [Last page of last visit] are saved only if session is not finished
# The 10 first Hits must be first (order not required for others)
BEGIN_VISITOR 184
91.218.97.119 225 1092 34892130 20180131154707
89.162.172.110 75 137 2196933 20180131104628
46.119.238.44 52 299 4864623 20180127181455
104.192.74.21 48 48 1481564 20180123203419
134.249.115.148 43 211 7871858 20180131184651
134.249.134.29 32 154 4955869 20180131155156
188.163.98.26 31 100 3495832 20180122204315
192.40.95.38 28 28 124936 20180120100254
95.85.127.25 24 97 2433078 20180122091031
80.84.176.70 23 83 3320791 20180123105028
95.84.207.142 2 14 716956 20180127054434
34.209.213.146 1 1 7709 20180125055546
188.163.96.147 2 11 309499 20180126150835
199.30.25.249 0 1 88679 
95.24.16.51 1 1 59636 20180120084758
188.163.108.217 1 1 132831 20180121152432
131.253.27.52 0 1 19963 
65.55.210.38 0 1 138 
199.30.24.168 0 1 26711 
38.99.62.93 1 1 370467 20180131152131
220.181.165.198 1 1 7709 20180128075249
134.249.31.127 1 43 1170240 20180131153427
50.113.182.85 1 1 366227 20180131163523
193.28.177.117 1 10 301790 20180126124620
46.101.137.125 1 1 132831 20180122015042
107.167.106.57 0 27 511014 
92.112.180.78 1 34 910152 20180121175354
93.175.216.244 1 3 22715 20180129174415
207.154.226.205 1 11 327127 20180129111938
92.113.12.143 1 34 969027 20180123200006
46.42.174.102 0 24 477415 
5.3.239.217 1 17 597141 20180123113231
65.55.210.137 0 1 254 
93.183.87.224 1 1 226083 20180122220149
5.164.106.232 0 24 477415 
67.207.82.238 2 2 484 20180128112436
94.27.59.162 1 10 301790 20180124154812
89.184.80.162 1 1 132831 20180121005619
107.170.213.98 1 1 365930 20180131035432
65.55.210.202 0 1 17760 
134.249.224.27 1 36 1765054 20180120113621
194.187.110.38 1 1 132831 20180122191416
110.44.113.182 1 1 226083 20180122220236
131.253.25.176 0 2 117150 
199.30.24.50 0 2 20359 
88.99.141.3 1 1 7730 20180125144129
40.78.146.128 1 1 4007 20180131185624
131.253.27.86 0 2 35523 
46.133.224.205 1 43 1174480 20180131133356
131.253.27.90 0 1 71 
94.178.211.111 1 6 212786 20180126102353
195.114.136.187 1 11 327127 20180129004106
185.82.217.187 2 46 1119183 20180122215048
38.99.62.92 1 41 1165579 20180130231111
212.8.50.99 1 25 132540 20180122132155
95.24.146.125 1 18 777121 20180123160245
178.140.25.174 1 1 7709 20180129233952
94.23.47.8 2 2 732454 20180131141902
180.97.106.137 1 1 226083 20180122220135
199.30.24.82 0 6 171724 
77.93.52.61 1 11 327127 20180126194815
65.55.210.8 1 1 7709 20180126210136
131.253.25.153 0 1 35452 
77.121.138.173 1 10 301790 20180127075829
40.77.177.114 0 18 552248 
131.253.27.120 0 1 19963 
146.185.144.64 1 1 7709 20180130135922
217.147.169.228 1 1 132831 20180122103738
95.108.141.81 1 34 910152 20180121133647
131.253.27.100 0 1 117150 
128.72.208.183 1 1 7709 20180129234052
188.68.48.243 1 1 120089 20180131081242
185.202.103.30 2 2 265371 20180122003500
37.73.246.76 1 10 301790 20180129095204
88.99.144.66 1 1 366561 20180131044136
95.24.29.180 1 18 743213 20180124023144
109.161.87.86 1 10 301790 20180127212133
131.253.25.191 0 1 254 
92.113.61.74 3 27 1160744 20180120222506
199.30.24.59 0 4 118793 
192.40.95.32 16 16 71392 20180120131816
93.170.1.208 4 55 1363370 20180131235013
131.253.27.4 0 2 35523 
188.165.128.69 1 1 4968 20180120051126
34.206.121.152 1 1 226083 20180122220937
46.119.175.108 1 6 212786 20180128103740
46.175.253.217 6 31 651915 20180130164913
104.45.18.178 2 2 140540 20180127193832
199.30.24.22 0 1 71 
172.16.3.1 2 35 910613 20180120151733
31.128.94.202 2 32 550410 20180120102634
51.254.147.50 1 1 101257 20180130015332
131.253.25.172 0 1 0 
46.119.209.216 1 6 212786 20180125173204
109.173.63.65 0 21 476709 
128.72.107.149 1 8 286784 20180129212923
65.55.210.13 0 2 19963 
31.170.151.83 2 11 309499 20180130085750
109.188.83.198 1 1 132831 20180122185547
46.72.10.70 1 10 301790 20180125120133
199.30.24.24 0 1 328 
178.140.15.136 8 112 5205964 20180130010820
46.133.86.56 1 34 911429 20180122150917
131.253.27.112 0 1 14752 
95.110.186.48 1 1 7709 20180125011503
131.253.27.125 0 3 106439 
178.171.52.185 1 1 7709 20180125063358
91.217.58.8 1 10 301790 20180130151618
131.253.27.56 0 1 254 
195.242.80.32 1 1 7709 20180126011939
46.46.71.25 1 10 301790 20180128213806
95.221.203.132 0 10 429332 
178.136.180.141 1 11 327127 20180125170812
94.179.132.34 1 10 301790 20180126102312
93.170.1.196 2 35 1045700 20180121164018
93.77.204.59 19 64 3044024 20180125081931
131.253.27.45 0 1 14752 
213.160.149.210 2 20 603580 20180130110237
93.190.140.123 1 1 7709 20180128140955
45.55.193.52 2 2 267170 20180120171432
88.198.22.8 1 1 23301 20180131134144
65.55.210.206 0 2 50204 
211.103.218.83 1 1 7709 20180129193237
23.101.61.176 1 1 4007 20180131154814
181.112.37.38 1 1 226083 20180122220144
91.223.136.249 1 35 1759348 20180120081051
47.52.222.165 1 1 7709 20180127010523
188.163.96.128 1 34 910152 20180120211925
178.210.217.164 2 35 923610 20180122164056
190.114.255.36 1 1 102589 20180131162015
5.153.182.200 7 40 1352237 20180121183321
199.30.24.17 0 1 110965 
35.190.221.180 2 2 732454 20180131120338
185.182.81.56 0 9 254 
188.163.99.91 3 3 163150 20180121112609
95.72.120.223 1 1 7709 20180128162215
129.78.110.124 2 2 732454 20180131150729
107.167.107.18 2 13 398178 20180129074205
35.153.157.107 1 1 7709 20180129114722
199.30.24.4 0 1 258 
106.38.241.102 0 5 243623 
91.214.30.136 1 10 301790 20180129170712
77.93.37.172 1 12 352464 20180125134024
131.253.27.74 0 1 88679 
185.183.96.68 1 1 366561 20180131072935
104.209.188.207 1 1 4007 20180131154818
91.214.29.39 1 27 1030059 20180123094154
101.201.79.172 1 1 7709 20180128075335
89.184.80.165 2 2 140540 20180125111429
128.204.56.157 1 18 777121 20180123113228
185.182.81.41 0 7 0 
168.235.205.181 1 34 910152 20180121112514
178.165.116.31 4 42 1452290 20180123171304
178.137.17.67 1 1 7709 20180129232824
178.136.70.111 0 22 477040 
37.113.12.166 5 5 796015 20180131023928
2.92.32.178 8 112 5204152 20180130010820
103.55.69.242 1 1 226083 20180122220144
94.178.138.117 1 10 301790 20180126092616
89.178.91.242 1 1 226083 20180122233722
91.195.91.252 3 51 1160812 20180122205454
37.144.72.66 2 14 716955 20180127164602
213.136.85.29 1 1 7709 20180125113212
199.30.25.115 0 1 0 
91.213.59.20 1 6 212786 20180127195948
109.110.70.146 1 1 7709 20180128014610
77.93.44.50 1 6 212786 20180124155245
46.164.134.234 1 10 301790 20180125111919
37.204.28.254 2 14 716961 20180130043011
213.239.205.118 1 1 366227 20180131123900
177.142.21.20 1 1 191997 20180124014238
65.55.210.10 0 1 501 
131.253.25.214 0 2 35520 
80.254.5.134 1 25 895664 20180122103840
141.212.122.144 1 1 366227 20180131222406
109.174.113.224 1 10 301790 20180129113613
188.163.96.213 5 49 1668176 20180131200406
178.137.112.236 1 10 301790 20180127172051
94.153.211.174 1 10 301790 20180126101937
185.182.81.93 0 1 254 
141.212.122.48 1 1 366227 20180131222403
188.165.4.128 10 10 1115362 20180130183629
13.56.229.65 2 2 253559 20180123181439
114.221.127.170 1 1 228587 20180123044451
END_VISITOR

# Date - Pages - Hits - Bandwidth - Visits
BEGIN_DAY 12
20180120 117 497 13940189 15
20180121 17 200 6109453 8
20180122 191 753 21113467 29
20180123 176 750 27082663 15
20180124 62 330 6317865 12
20180125 20 102 3306080 14
20180126 18 142 4769028 13
20180127 18 112 3354482 10
20180128 11 50 1298664 10
20180129 15 112 2955254 14
20180130 80 583 22292983 14
20180131 95 598 25381522 29
END_DAY

# Session range - Number of visits
BEGIN_SESSION 7
1h+ 5
5mn-15mn 13
15mn-30mn 6
30s-2mn 9
2mn-5mn 3
0s-30s 141
30mn-1h 6
END_SESSION

# URL - Pages - Bandwidth - Entry - Exit
# The 10 first Pages must be first (order not required for others)
BEGIN_SIDER 24
/ 259 38487121 147 136
/admin/index.php 191 13800200 13 10
/index.php 131 3847333 3 12
/export/exchange1c.php 70 38941 6 6
/wp-login.php 45 201296 3 3
/admin/ 21 83702 7 4
/about_us 14 213605 0 2
/admin/view/javascript/font-awesome/fonts/fontawesome-webfont.woff2 13 646820 0 1
/delivery 11 225132 1 2
/voprosi-i-otveti 11 168855 0 0
/admin/view/javascript/font-awesome/fonts/fontawesome-webfont.eot 3 206625 0 3
/akkumulyatornyj-servis/ 1 30621 1 0
/als-shini-otech--legkovie 2 28508 0 0
/brands/ 7 411151 0 0
/kontakty/ 1 21924 0 1
/send-order.php 3 486 0 0
/als-shini-otech-- 5 69931 0 0
/als-shini-import-legkovoj 2 28518 0 0
/privacy 10 192403 0 0
/pays 10 196493 0 1
/catalog/view/theme/default/stylesheet/fonts/fontawesome-webfont.woff2 1 66843 0 0
/contacts/ 1 24303 0 0
/phpinfo.php 6 287203 2 2
/als-shini-rosava-belshina 2 28510 0 0
END_SIDER
