AWSTATS DATA FILE 7.0 (build 1.971)
# If you remove this file, all statistics for date 201809 will be lost/reset.
# Last config file used to build this data file was /etc/awstats/awstats.autoopora.com.conf.

# Position (offset in bytes) in this file for beginning of each section for
# direct I/O access. If you made changes somewhere in this file, you should
# also remove completely the MAP section (AWStats will rewrite it at next
# update).
BEGIN_MAP 27
POS_GENERAL 1993                
POS_TIME 2679                
POS_VISITOR 34903               
POS_DAY 56974               
POS_DOMAIN 3681                
POS_LOGIN 3916                
POS_ROBOT 4141                
POS_WORMS 5070                
POS_EMAILSENDER 5201                
POS_EMAILRECEIVER 5344                
POS_SESSION 57919               
POS_SIDER 58134               
POS_FILETYPES 5479                
POS_DOWNLOADS 5816                
POS_OS 5890                
POS_BROWSER 6087                
POS_SCREENSIZE 8635                
POS_UNKNOWNREFERER 8709                
POS_UNKNOWNREFERERBROWSER 9656                
POS_ORIGIN 9870                
POS_SEREFERRALS 10019               
POS_PAGEREFS 10191               
POS_SEARCHWORDS 10829               
POS_KEYWORDS 11010               
POS_MISC 2343                
POS_ERRORS 11100               
POS_CLUSTER 3772                
POS_SIDER_404 11262               
END_MAP

# LastLine    = Date of last record processed - Last record line number in last log - Last record offset in last log - Last record signature value
# FirstTime   = Date of first visit for history file
# LastTime    = Date of last visit for history file
# LastUpdate  = Date of last update - Nb of parsed records - Nb of parsed old records - Nb of parsed new records - Nb of parsed corrupted - Nb of parsed dropped
# TotalVisits = Number of visits
# TotalUnique = Number of unique visitors
# MonthHostsKnown   = Number of hosts known
# MonthHostsUnKnown = Number of hosts unknown
BEGIN_GENERAL 8
LastLine 20181001001943 1540 426161 11362865843653
FirstTime 20180901000000
LastTime 20180930231854
LastUpdate 20181001043257 1540 0 1539 0 0
TotalVisits 1969                
TotalUnique 391                 
MonthHostsKnown 0                   
MonthHostsUnknown 617                 
END_GENERAL

# Misc ID - Pages - Hits - Bandwidth
BEGIN_MISC 10
QuickTimeSupport 0 0 0
JavaEnabled 0 0 0
JavascriptDisabled 0 0 0
PDFSupport 0 0 0
WindowsMediaPlayerSupport 0 0 0
AddToFavourites 0 0 0
RealPlayerSupport 0 0 0
TotalMisc 0 0 0
DirectorSupport 0 0 0
FlashSupport 0 0 0
END_MISC

# Hour - Pages - Hits - Bandwidth - Not viewed Pages - Not viewed Hits - Not viewed Bandwidth
BEGIN_TIME 24
0 147 721 12773914 702 794 7838672
1 71 164 5649992 635 752 7147742
2 70 258 7094724 981 1144 11832185
3 74 163 4460392 619 736 6272765
4 74 312 7541096 551 639 4759034
5 82 305 6883448 535 623 5818524
6 177 796 13738082 498 712 7965738
7 197 1320 19518185 654 852 9123372
8 408 2260 29972166 527 619 6147160
9 313 2603 35921564 598 806 4824355
10 770 2885 39511330 655 723 10735334
11 411 1934 28134877 536 652 5799448
12 314 2433 42641515 631 876 8874549
13 299 1862 31223594 495 653 6858312
14 636 4059 62985222 681 844 7449858
15 191 1416 23807895 10351 10633 29483005
16 304 2203 33305167 1496 1729 22233122
17 341 2128 31027784 683 1005 12962571
18 282 1670 23406544 710 857 8322133
19 139 1127 20567311 630 764 8202289
20 1250 3021 29922919 595 816 7783746
21 157 1658 27723495 554 698 5485036
22 221 1105 17672254 637 740 5730907
23 274 1109 18231451 486 678 9499409
END_TIME

# Domain - Pages - Hits - Bandwidth
# The 10 first Pages must be first (order not required for others)
BEGIN_DOMAIN 1
ip 7202 37512 573714921
END_DOMAIN

# Cluster ID - Pages - Hits - Bandwidth
BEGIN_CLUSTER 0
END_CLUSTER

# Login - Pages - Hits - Bandwidth - Last visit
# The 10 first Pages must be first (order not required for others)
BEGIN_LOGIN 2
exchange 2340 2340 1432770 20180930230011
"" 1 1 29263 20180924013209
END_LOGIN

# Robot ID - Hits - Bandwidth - Last visit - Hits on robots.txt
# The 10 first Hits must be first (order not required for others)
BEGIN_ROBOT 21
googlebot 3912 40063672 20180930221521 112
yandex 3602 47282379 20180930215436 450
bot[\s_+:,\.\;\/\\-] 778 19087742 20180930203508 57
sogou 544 5992431 20180930190449 79
seznambot 333 1734485 20180929184038 154
facebook 240 4237762 20180927231958 0
mail\.ru 139 893451 20180930124653 96
baiduspider 123 22172086 20180930220912 0
phantom 96 1339887 20180906164624 0
no_user_agent 93 5624193 20180927001837 0
ia_archiver 11 12562 20180929192315 11
spider 1 29202 20180904214731 0
java\/[0-9] 1 586 20180922144948 0
unknown 35 25710 20180930192658 35
robot 41 1677219 20180930163515 18
python 17 2566378 20180930071209 1
favicon 68 1371665 20180930220517 0
cfnetwork 8 171340 20180917110959 0
lwp\-request 1 590 20180903165741 0
netcraft 3 1705063 20180909104617 0
crawl 13 179835 20180930204420 0
END_ROBOT

# Worm ID - Hits - Bandwidth - Last visit
# The 5 first Hits must be first (order not required for others)
BEGIN_WORMS 0
END_WORMS

# EMail - Hits - Bandwidth - Last visit
# The 20 first Hits must be first (order not required for others)
BEGIN_EMAILSENDER 0
END_EMAILSENDER

# EMail - Hits - Bandwidth - Last visit
# The 20 first hits must be first (order not required for others)
BEGIN_EMAILRECEIVER 0
END_EMAILRECEIVER

# Files type - Hits - Bandwidth - Bandwidth without compression - Bandwidth after compression
BEGIN_FILETYPES 13
css 3840 123901343 0 0
png 14673 163308760 0 0
woff 3 188296 0 0
woff2 22 1371288 0 0
map 6 548040 0 0
php 4432 12036592 0 0
html 2646 93487210 0 0
js 3886 139611140 0 0
jpg 6663 29091118 0 0
jpeg 260 2883552 0 0
Unknown 93 874291 0 0
gif 47 41180 0 0
svg 941 6372111 0 0
END_FILETYPES

# Downloads - Hits - Bandwidth
BEGIN_DOWNLOADS 1
/robots.txt 1013 0 913186
END_DOWNLOADS

# OS ID - Hits
BEGIN_OS 13
linuxandroid 6958
winlong 161
winxp 1132
unix 710
win2000 3
winnt 7347
winvista 915
linux 1522
win7 12656
macosx 3310
winunknown 96
win2003 110
Unknown 2592
END_OS

# Browser ID - Hits
BEGIN_BROWSER 132
chrome52.0.2743.116 1409
chrome41.0.2272.96 1
chrome69.0.3497.81 407
firefox3.0.1 2
chrome65.0.3325.230 13
chrome60.0.3112.50 4
chrome31.0.1650.57 1
firefox54.0 169
msie11 1
chrome23.0.1271.95 2
msie8.0 40
msie7.0 156
chrome27.0.1453.93 1
firefox52.53.90 1
chrome64.0.3282.137 325
firefox50.0 2
chrome69.0.3464.0 244
chrome37.0.2049.0 2
chrome62.0.3202.94 133
firefox38.0 96
firefox45.60.13 1
firefox33.0 1
netscape5.0 12
safari5.3.7 2
chrome60.0.3112.90 101
chrome41.0.2228.0 2
firefox36.0 2
safari 1276
chrome67.0.3396.87 315
safari7.0 56
safari11.0 559
chrome52.0.2781.60 2
android 137
chrome68.0.3440.75 99
chrome67.0.3396.79 375
firefox52.0 35
opera12.0 1
opera9.80 43
iphone 127
firefox62.0 1772
chrome61.0.3163.100 24
chrome38.0.2125.122 32
chrome34.0.1847.116 5
chrome56.0.2966.53 2
msie9.0 3
firefox32.0 2
chrome39.0.2171.93 62
chrome55.1.6655.0383 1
firefox30.0 2
chrome51.0.2704.79 1
chrome38.0.2125.102 126
firefox61.0 362
chrome45.0.2454.94 1
chrome64.0.3251.0 4
firefox39.0 1
chrome51.0.2704.106 360
chrome68.0.3440.91 1928
chrome54.0.2881.71 2
firefox51.0 3
firefox3.6.12 1
chrome31.0.1650.16 1
chrome69.0.3497.100 4156
chrome66.0.3359.170 40
chrome64.0.3282.140 420
firefox57.0 235
msie6.0 2
chrome69.0.3497.95 143
safari4.0.5 2
firefox34.0 6
curl 2
chrome58.0.3029.110 5
chrome68.0.3440.118 567
chrome63.0.3239.84 5
firefox59.0 2
chrome60.0.3112.101 3
firefox40.1 11
chrome62.0.3202.89 2
chrome66.0.3359.181 174
chrome67.0.3396.103 897
chrome49.0.2623.112 1155
chrome65.0.3325.181 35
chrome55.0.2883.87 109
firefox48.0 2
firefox53.0 3
firefox42.0 407
chrome34.0.1847.131 1
chrome68.0.3440.106 10600
chrome63.0.3239.132 32
firefox21.0 1
firefox44.1 5
firefox3.5.2 7
chrome52.0.2778.75 2
firefox47.0 1
firefox45.0 32
mozilla 569
chrome47.0.2526.106 99
chrome44.0.2403.157 32
chrome68.0.3440.84 31
chrome57.0.2987.133 1
chrome61.0.3163.98 111
chrome40.0.2214.93 1
chrome29.0.1547.2 1
chrome69.0.3497.91 68
chrome55.0.2883.91 196
chrome51.0.2704.108 34
chrome69.0.3497.86 99
chrome56.0.2924.87 124
firefox31.0 1
firefox45.65.18 1
chrome40.0.2214.85 101
chrome66.0.3359.158 229
Unknown 2377
firefox27.0 6
chrome47.0.2526.83 3
chrome30.0.0.0 104
chrome41.0.2272.118 472
firefox58.0 17
chrome69.0.3497.92 886
chrome41.0.2227.0 1
chrome59.0.3071.125 283
chrome51.0.2704.105 2
safari9.0 202
chrome49.0.2658.96 2
chrome67.0.3396.99 109
chrome45.0.2454.101 12
chrome48.0.2564.109 5
chrome44.0.2403.119 1
msie10.0 4
safari5.1 30
firefox6.0 1
chrome65.0.3325.146 1180
chrome65.0.3325.109 203
END_BROWSER

# Screen size - Hits
BEGIN_SCREENSIZE 0
END_SCREENSIZE

# Unknown referer OS - Last visit date
BEGIN_UNKNOWNREFERER 13
Google-Adwords-DisplayAds 20180911121558
GuzzleHttp/6.3.3_curl/7.58.0_PHP/7.2.3-1ubuntu1 20180904045420
}__test|O:21:\ 20180923232600
Mozilla/5.0_zgrab/0.x_(compatible;_Researchscan/t12sns;__http://researchscan.comsys.rwth-aachen.de) 20180923073344
Mozilla/5.0_zgrab/0.x_(compatible;_Researchscan/t12ca;__http://researchscan.comsys.rwth-aachen.de) 20180930201440
Mozilla/5.0 20180917110659
Mozilla/5.0_zgrab/0.x_(compatible;_Researchscan/t13rl;__http://researchscan.comsys.rwth-aachen.de) 20180928110504
Mozilla/5.0,_Google-AdWords-Express 20180928142914
Mozilla/5.0_Firefox/33.0 20180917123623
Mozilla/5.0_(en-us)_AppleWebKit/537.36(KHTML,_like_Gecko;_Google-Adwords-DisplayAds-WebRender;)_Chrome/41.0.2272.118Safari/537.36 20180911121548
Mozilla/5.0_(compatible;_Dataprovider.com) 20180921060623
InetURL:/1.0 20180922113608
1C_Enterprise/8.3 20180930230011
END_UNKNOWNREFERER

# Unknown referer Browser - Last visit date
BEGIN_UNKNOWNREFERERBROWSER 4
Google-Adwords-DisplayAds 20180911121558
}__test|O:21:\ 20180923232600
InetURL:/1.0 20180922113608
1C_Enterprise/8.3 20180930230011
END_UNKNOWNREFERERBROWSER

# Origin - Pages - Hits 
BEGIN_ORIGIN 6
From0 4406 4894
From1 9 9
From2 251 271
From3 27 29
From4 2509 32309
From5 0 0
END_ORIGIN

# Search engine referers ID - Pages - Hits
BEGIN_SEREFERRALS 2
google 235 255
yandex 16 16
END_SEREFERRALS

# External page referers - Pages - Hits
# The 10 first Pages must be first (order not required for others)
BEGIN_PAGEREFS 15
https://eto.lightning.force.com 5 5
https://yandex.ua 5 5
http://m.facebook.com 3 3
https://www.facebook.com 3 3
https://yandex.by 2 2
https://l.facebook.com 2 2
http://lechimmolochnicy.liffa.ru 1 1
http://netmolochnici.liffa.ru 1 1
https://yandex.fr 1 1
https://lm.facebook.com/l.php 1 1
https://yandex.fr/images/search 0 1
https://yandex.kz/images/search 0 1
https://m.vse-sto.com.ua/sto/16116-autoopora/ 1 1
https://googleads.g.doubleclick.net/pagead/ads 1 1
http://l.instagram.com 1 1
END_PAGEREFS

# Search keyphrases - Number of search
# The 10 first number of search must be first (order not required for others)
BEGIN_SEARCHWORDS 1
https+//www.autoopora.com/ 2
END_SEARCHWORDS

# Search keywords - Number of search
# The 10 first number of search must be first (order not required for others)
BEGIN_KEYWORDS 2
https 2
//www.autoopora.com/ 2
END_KEYWORDS

# Errors - Hits - Bandwidth
BEGIN_ERRORS 6
403 73 28548
503 7 3283
302 56 31570
206 26 764089
301 12033 7015257
404 7004 57138281
END_ERRORS

# URL with 404 errors - Hits - Last URL referer
BEGIN_SIDER_404 586
/wp-content/uploads/yml_products.xml 1 -
/export/yml.1.xml 1 -
/searchResults 1 -
/catalog_export/market_full.php 1 -
/market/sell.xml 1 -
/modules/yamarket/yandex_market 1 -
/yml/yml.php 1 -
/wp-content/plugins/wordpress-dev/mini.php 1 -
/xml/yandex_export.yml 1 -
/shop/yandex_market/yandex_export.xml 1 -
/files/vm2_market.php 1 -
/files/yamarket1.xml 1 -
/xmlrpc.php 13 -
/files/feed-yml.xml 1 -
/shop/yandex_market/export.yml 1 -
/shop/yandex_market/ 1 -
/_mod_files/_upload/tmp/yml.xml 1 -
/search 1 -
/image/cache/catalog/demo_avtoopora/oil-img-406x220.png 2 -
/upload/ymarket.xml 1 -
/light 1 -
/Qe32HuJLcyh8KeTTKdqlOOf1fhGlP 1 -
/yandexmarket/vm2_market.php 1 -
/test/ 1 -
/DMJRP.php 1 -
/carbase/ 10 -
/XFVK.php 1 -
/_mod_files/_upload/tmp/yml.1.xml 1 -
/wp-content/uploads/yandex_export.xml 1 -
/zapchast-na-legkovie-avtomobili 1 -
/yandexmarket/ymarket 1 -
/wp-content/themes/Ghost/includes/uploadify/upload_settings_image.php 1 http://autoopora.com/wp-content/themes/Ghost/includes/uploadify/upload_settings_image.php
/main 2 -
/modules/yamarket/yandex_yml.xml 1 -
/upload/yamarket2.php 1 -
/wp-content/plugins/content-views-query-and-display-post-page/public/assets/css/cv.css 9 http://autoopora.com/zakazat-zvonok/
/yml/shop.xml 1 -
/wp-content/plugins/videowhisper-video-presentation/vp/vw_upload.php 1 http://autoopora.com/wp-content/plugins/videowhisper-video-presentation/vp/vw_upload.php
/xml/products.xml 1 -
/files/yandex_yml.xml 1 -
/shop/yandex_market/yandex_market 1 -
/wp-content/plugins/complete-gallery-manager/frames/upload-images.php 1 http://autoopora.com/wp-content/plugins/complete-gallery-manager/frames/upload-images.php
/shop/yandex_market/products.xml 1 -
/wp-content/uploads/yandex_yml.php 1 -
/shop/yandex_market/shop.xml 1 -
/wp-content/plugins/wp-mobile-detector/readme.txt 1 http://autoopora.com/wp-content/plugins/wp-mobile-detector/readme.txt
/yml/yandex_market.php 1 -
/upload/yandex_yml.xml 1 -
/zapchasti_na_kommercheskie_avtomobili_Hyunday/ 1 -
/rabotaem-kruglosutochno/ 1 -
/_mod_files/_upload/tmp/yamarket.yml 1 -
/wp-content/uploads/yamarket.xml 1 -
/wp-content/plugins/mm-forms-community/includes/doajaxfileupload.php 1 http://autoopora.com/wp-content/plugins/mm-forms-community/includes/doajaxfileupload.php
/wp-content/logo_img.php 1 http://autoopora.com/wp-content/logo_img.php
/market/yamarket2.php 1 -
/wp-content/uploads/products.xml 1 -
/files/yandex_market 1 -
/kruglosutochnyj-avtomagazin-v-zaporozhe/ 7 -
/nalichie 1 -
/yandex_tiu.xml 1 -
/bitrix/yml.php 1 -
/files/yml_products.xml 1 -
/avtozapchasti-v-zaporozhe/ 1 -
/modules/yamarket/yandexmarket1.xml 1 -
/wp-content/uploads/feed-yml.xml 1 -
/bitrix/catalog_export/yamarket.yml 1 -
/modules/yamarket/yandex_export.yml 1 -
/wp-content/themes/autoopora_1_3_4/style.responsive.css 10 http://autoopora.com/zakazat-zvonok/
/karta 3 http://away.vk.com/away.php
/new/ 1 -
/catalog_export/yandex_export.xml 1 -
/upload/yandex_tiu.xml 1 -
/wp-content/uploads/ymarket 1 -
/'%20+%20product.url%20+%20' 1 https://autoopora.com/
/market/yandex_yml.php 1 -
/bitrix/catalog_export/market_full.php 2 -
/comments/feed/ 1 -
/postavka 2 -
/modules/yamarket/yml.1.xml 1 -
/xml/export.yml 1 -
/wp-content/uploads/yml.1.xml 1 -
/yandex_market/market_full.php 2 -
/wp-content/plugins/dynamic-featured-image/akismets.php 1 -
/xml/feed-yml.xml 1 -
/nichka 1 -
/carbase 2 -
/wp-content/uploads/export.xml 1 -
/yml/yandex_market/ 1 -
/upload/yml.php 1 -
/modules/yamarket/index.php 1 -
/market/yml.php 1 -
/yandex_market/yml.php 1 -
/xml/yamarket.yml 1 -
/export/yandex_tiu.xml 1 -
/_mod_files/_upload/tmp/ymarket.xml 1 -
/explore/jsys.php 1 -
//wp-content/plugins/formcraft/file-upload/server/php/files/ptseo.php 1 -
/yml/yandex_export.yml 1 -
/catalog_export/yandex_export.yml 1 -
/yml/market_full.php 1 -
/bitrix/catalog_export/yandex.php 1 -
/apple-touch-icon.png 3 -
/modules/yamarket/yml.xml 1 -
/yandex_market/yandex_market.php 2 -
/shop/yandexmarket1.xml 1 -
/console 5 -
/wp-content/themes/ThisWay/includes/uploadify/upload_settings_image.php 1 http://autoopora.com/wp-content/themes/ThisWay/includes/uploadify/upload_settings_image.php
/wp-content/uploads/yamarket1.xml 1 -
/wp-content/plugins/jurig/idx.php 1 -
/export/ymarket.xml 1 -
/page/2/ 1 -
/image/catalog/26E31ACDC36D127E7A79C9DACC0A0839ABA4FA61D5F3C660B3pimgpsh_thumbnail_win_distr.jpg 1 -
/files/yandex_market/ 1 -
/wp/ 3 -
/files/index.php 2 -
/yandex_market/yandex_market/ 2 -
/apple-touch-icon-precomposed.png 3 -
/avtozapchasti-kruglosutochno-v-zaporozhe/ 18 -
/demo/ 1 -
/category/kruglosutochnyj-avtomagazin-v-zaporozhe/page/3/ 1 -
/upload/yml.xml 1 -
/yml/vm2_market.php 1 -
/avtozapchasti-v-zaporozhe-kruglosutochno/ 2 -
/avtozapchasti/ 17 -
/market/feed-yml.xml 1 -
/wp-content/plugins/global-flash-galleries/swfupload.php 1 http://autoopora.com/wp-content/plugins/global-flash-galleries/swfupload.php
/wp-content/plugins/wpstorecart/readme.txt 1 http://autoopora.com/wp-content/plugins/wpstorecart/readme.txt
/wp-content/plugins/gallery-plugin/upload/php.php 1 http://autoopora.com/wp-content/plugins/gallery-plugin/upload/php.php
/pma/scripts/setup.php 9 -
/export/index.php 1 -
/upload/yandex_market.php 1 -
/yml/yamarket2.php 1 -
/upload/yandex_market/ 1 -
/market/yamarket.xml 1 -
/installer.php 1 -
/zapchast-na-japonskie-avtomobili 2 -
/_mod_files/_upload/tmp/products.xml 1 -
/_mod_files/_upload/tmp/yandex_market/ 1 -
/upload/yandex.php 1 -
/nV0DIwdd4km6rJGVB 1 -
/shop/yandex_market/yamarket2.php 1 -
/_mod_files/_upload/tmp/ymarket 1 -
/yml/yamarket.xml 1 -
/akkumulyatornyj-servis 1 -
/nalichie/ 9 -
/V27aEAULPPSd162rUhJOf8 1 -
/wp-content/plugins/a/minibat.php 1 -
/upload/ymarket 1 -
/files/yandexmarket.xml 1 -
/yandex_market/yandex_tiu.xml 1 -
/_mod_files/_upload/tmp/yandex_tiu.xml 1 -
/joomla/robots.txt 1 -
/shop/yandex_market/ymarket.xml 1 -
/files/yandex_market.php 1 -
/shop/index.php 1 -
/v.arabadji@avto-sfera.zp.ua 3 -
/modules/yamarket/yamarket.yml 1 -
/export/yml.xml 1 -
/catalog_export/sell.xml 1 -
/zapchast-na-italianskie-avtomobili 1 -
/wp-includes/js/comment-reply.min.js 6 http://autoopora.com/zakazat-zvonok/
/avtozapchasti/zapchasti-na-legkovye-avtomobil/zapchasti-na-legkovye-avtomobili-bmw/zapchasti-na-legkovye-avtomobili-bmw_6-e24/ 1 -
/yandex_market/yandex_market 2 -
/_mod_files/_upload/tmp/yandex_market 1 -
/wp-includes/logo_img.php 1 http://autoopora.com/wp-includes/logo_img.php
/zapchast-na-shvedskie-avtomobili 1 -
/wp-content/themes/RightNow/includes/uploadify/upload_settings_image.php 2 http://autoopora.com/wp-content/themes/RightNow/includes/uploadify/upload_settings_image.php
/tel:(067)%20613%2030%2036 1 https://autoopora.com/
/yandexmarket/products.xml 1 -
/user/register 1 -
/shop/yandex_market/ymarket 1 -
/yml/export.xml 1 -
/wp-content/uploads/market_full.php 1 -
/wp-content/plugins/yoast/class.aksimet-admin.php 1 -
/export.yml 1 -
/phpMyAdmin/scripts/setup.php 8 -
/market/yamarket.yml 1 -
/export/yandex_market 1 -
/blagotvoritelnost 1 -
/wp-updats.php 3 -
/yandex_market/yamarket.xml 1 -
/avtozapchasti/zapchasti-na-kommercheskuyu-texniku/ 1 -
/o_nas 1 -
/avtozapchasti/zapchasti-na-kommercheskuyu-texniku/zapchasti-na-kommercheskuyu-texniku_daf/zapchasti-na_daf_f-2700/zapchasti-na_daf-f-2700-fab-2700-hs-fag-2700-hs-far-2700-hs/ 6 -
/content-post.php 1 -
/shop/yandex_yml.xml 1 -
/kruglosutochnyj-avtomagazin-v-zaporozhe 1 -
/avtozapchasti-kruglosutochno/feed/ 1 -
/modules/yamarket/yandex_market.php 1 -
/upload/yandexmarket.xml 1 -
/market/yandex_market/ 1 -
/wp-includes/js/jquery/ui/button.min.js 2 http://autoopora.com/zakazat-zvonok/
/wp-admin/admin-ajax.php 1 http://autoopora.com/wp-admin/admin-ajax.php
/shop/yandex_market/market_full.php 2 -
/shop/export.xml 1 -
/avtozapchasti-kruglosutochno/ 2 -
/_mod_files/_upload/tmp/yandex_yml.xml 1 -
/bitrix/yandex_tiu.xml 1 -
/blog/administrator/index.php 1 -
/akkumulyatornyj-servis/ 1 -
/_mod_files/_upload/tmp/yml.php 1 -
/yml/yandex_export.xml 1 -
/modules/yamarket/yml_products.xml 1 -
/yandex_market/yandex_yml.xml 1 -
/wp-content/uploads/index.php 2 -
/wp-content/plugins/wp-property/third-party/uploadify/uploadify.css 1 http://autoopora.com/wp-content/plugins/wp-property/third-party/uploadify/uploadify.css
/zapchasti-na-gruzoviki/ 1 -
/market/yml.1.xml 1 -
/zapchasti_na_legkovie_avtomobili_FORD 1 -
/upload/yandex_market 1 -
/wp-content/themes/Brainstorm/functions/jwpanel/scripts/uploadify/uploadify.css 1 http://autoopora.com/wp-content/themes/Brainstorm/functions/jwpanel/scripts/uploadify/uploadify.css
/zakazat-avtozapchast/ 1 -
/market/yandex_tiu.xml 1 -
/zapchast-na-amerikanskie-avtomobili 1 -
/market_full.php 2 -
/zapchasti_na_kommercheskie_avtomobili_Fiat 1 -
/bitrix/yandex_market.php 1 -
/modules/yamarket/vm2_market.php 1 -
/yandex_market/ymarket.xml 1 -
/wp-includes/js/jquery/ui/core.min.js 2 http://autoopora.com/zakazat-zvonok/
/vinqu 2 -
/magazin-avtozapchastej-v-zaporozhe/feed/ 1 -
/yandexmarket/yamarket.yml 1 -
/wp-content/plugins/product-enquiry-for-woocommerce/js/contact.js 2 http://autoopora.com/zakazat-zvonok/
/wp-json/ 16 -
/bitrix/yml.1.xml 1 -
/xml/yamarket.xml 1 -
/shop/yandex_market/yml.php 1 -
/export/yamarket.xml 1 -
/bitrix/catalog_export/ymarket.xml 1 -
/avtoelektrika/ 6 -
/bitrix/yandexmarket.xml 1 -
/xml/yandex_yml.xml 1 -
/yamarket1.xml 1 -
/blog/wp-login.php 1 -
/files/yamarket.xml 1 -
/shop/yamarket.xml 1 -
/gear_oils_catalog 2 -
/tag/zapchasti-dlya-legkovyx-inomarok/ 1 -
/export/sell.xml 1 -
/xml/yamarket1.xml 1 -
/shop/yml.php 1 -
/yandexmarket/yandexmarket.xml 1 -
/yml/feed-yml.xml 1 -
/wp-query.php 1 -
/.well-known/assetlinks.json 5 -
/shop/yandex_market/yandex_yml.xml 1 -
/wp-content/uploads/yandex_market 1 -
/_mod_files/_upload/tmp/feed-yml.xml 1 -
/phpmyadmin/scripts/setup.php 2 -
/shop/yamarket2.php 1 -
/wp-content/common.php 1 http://autoopora.com/wp-content/common.php
/yml/yml.xml 1 -
/files/export.xml 1 -
/bitrix/catalog_export/yandex_market.php 1 -
/shop/yandex_market/yandex.php 1 -
/shop/yml.1.xml 1 -
/blog/robots.txt 3 -
/market/yandex_market 1 -
/shop/yandex_market 1 -
/upload/yamarket.xml 1 -
/catalog/view/javascript/new/swiper.setting.js 15 https://www.autoopora.com/index.php
/bitrix/yandex_yml.xml 1 -
/catalog_export/yml.1.xml 1 -
/yandexmarket/yandex_export.xml 1 -
/wp-content/uploads/shop.xml 1 -
/page/3 1 -
/shop/yandex_market/yml.1.xml 1 -
/catalog_export/index.php 1 -
/wp-content/themes/brainstorm/functions/jwpanel/scripts/uploadify/uploadify.css 1 http://autoopora.com/wp-content/themes/brainstorm/functions/jwpanel/scripts/uploadify/uploadify.css
/index.php 5935 -
//blog/ 1 http://autoopora.com/
/_mod_files/_upload/tmp/yandex_market.php 1 -
/files/yandex_export.yml 1 -
/QNPpZ/ 4 4playfilm.com
/wp-content/plugins/work-the-flow-file-upload/public/assets/jQuery-File-Upload-9.5.0/server/php/index.php 1 http://autoopora.com/wp-content/plugins/work-the-flow-file-upload/public/assets/jQuery-File-Upload-9.5.0/server/php/index.php
/bitrix/catalog_export/yandex_yml.xml 1 -
/shop/yamarket1.xml 1 -
/wp-includes/js/jquery/ui/widget.min.js 2 http://autoopora.com/zakazat-zvonok/
/wordpress/ 3 -
/wp-includes/js/jquery/ui/dialog.min.js 2 http://autoopora.com/zakazat-zvonok/
/yml/yandex_yml.php 1 -
/zapchast-na-ukrainskie-avtomobili 1 -
/tel:(067)%2061%20777%2019 1 https://autoopora.com/
/export/yandex_export.xml 1 -
/vakansii 1 -
/vakansii/ 1 -
/wp-content/uploads/yandexmarket.xml 1 -
/yandex_market/yandex.php 2 -
/catalog_export/yml.php 1 -
/bitrix/catalog_export/shop.xml 1 -
/groups/ 1 -
/upload/market_full.php 2 -
/shop/sell.xml 1 -
/wp-content/themes/autoopora_1_3_4/jquery.js 10 http://autoopora.com/zakazat-zvonok/
/bitrix/catalog_export/yandex_export.xml 1 -
/files/shop.xml 1 -
/wp-content/plugins/unicode/w.php 1 -
/yandexmarket/yandex_export.yml 1 -
/zapchasti_na_kommercheskie_avtomobili_SINOTRUK_CNHTC 1 -
/bitrix/index.php 1 -
/autoopora.com 1 https://autoopora.com/autoopora.com
/bitrix/yandex_export.xml 1 -
/_mod_files/_upload/tmp/yandex.php 1 -
/yandexmarket/shop.xml 1 -
/catalog_export/export.yml 1 -
/catalog_export/yandex_market 1 -
/yandex_market/sell.xml 2 -
/wp-includes/Text/Tiff.php 1 -
/yandexmarket/yamarket.xml 1 -
/market/yamarket1.xml 1 -
/yandex_market/yamarket1.xml 2 -
/modules/yamarket/ymarket 1 -
/xml/yandex.php 1 -
/wp-content/themes/village/blueprint/gallery/ajaxupload/server/php.php 1 http://autoopora.com/wp-content/themes/village/blueprint/gallery/ajaxupload/server/php.php
/kolesa 2 -
/wp-login.php 5 -
/wp-content/themes/autoopora_1_3_4/form_processing.php 1 -
/tag/zapchasti-dlya-legkovyx-inomarok/feed/ 1 -
/akkumulyatory-2 1 -
/akcii 1 -
/bitrix/catalog_export/vm2_market.php 1 -
/yml/yandex_market 1 -
/zapchasti-na-kommercheskuyu-texniku/zapchasti-na-betonomeshalki/ 1 -
/catalog_export/export.xml 1 -
/wheel_calc 3 -
/vm2_market.php 1 -
/_mod_files/_upload/tmp/market_full.php 1 -
/wp-content/uploads/yamarket.yml 1 -
/zapchasti_na_kommercheskie_avtomobili 1 -
/wp-content/plugins/product-enquiry-for-woocommerce/js/wdm_jquery.validate.min.js 2 http://autoopora.com/zakazat-zvonok/
/oils_catalog 1 -
/wp-content/plugins/mm-forms/includes/doajaxfileupload.php 1 http://autoopora.com/wp-content/plugins/mm-forms/includes/doajaxfileupload.php
/files/yml.1.xml 1 -
/yandex_market/yandex_yml.php 1 -
/upload/feed-yml.xml 1 -
/bitrix/catalog_export/export.yml 1 -
/license.php 1 -
/masla-i-texnicheskie-zhidkosti/ 1 -
/wp-content/plugins/omni-secure-files/plupload/examples/upload.php 1 http://autoopora.com/wp-content/plugins/omni-secure-files/plupload/examples/upload.php
/yandex_export.yml 1 -
/wp-content/plugins/contact-form-7/includes/css/styles.css 9 http://autoopora.com/zakazat-zvonok/
/system/logs/error.php 2 -
/masla-i-texnicheskie-zhidkosti/masla 1 -
/wa.php 1 -
/wp-content/themes/autoopora_1_3_4/script.responsive.js 10 http://autoopora.com/zakazat-zvonok/
/shop/yandex_market/index.php 1 -
/yml/sell.xml 1 -
/xml/yandex_yml.php 1 -
/bitrix/catalog_export/yml_products.xml 1 -
/modules/yamarket/yamarket1.xml 1 -
/wp-content/plugins/maxbuttons/assets/libraries/font-awesome/css/font-awesome.min.css 10 http://autoopora.com/zakazat-zvonok/
/shiny-diski/diski 1 -
/yandex_market/yandexmarket.xml 1 -
/_mod_files/_upload/tmp/shop.xml 1 -
/zapchasti_na_kommercheskie_avtomobili_MAZ-MAN/ 1 -
/zapchasti_na_kommercheskie_avtomobili_Setra 1 -
/avtozapchasti/zapchasti-na-legkovye-avtomobil/ 1 -
//installer-backup.php 1 -
/index 79 -
/yandex_market/ymarket 1 -
/catalog_export/feed-yml.xml 1 -
/zapchasti-na-kommercheskuyu-texniku/zapchasti-na-traktora/ 1 -
/shop/yandex_market/yandexmarket.xml 1 -
/wp-content/themes/purevision/scripts/admin/uploadify/pomo.php 1 http://autoopora.com/wp-content/themes/purevision/scripts/admin/uploadify/pomo.php
/modules/yamarket/feed-yml.xml 1 -
/shiny-diski/ 1 -
/wp-content/uploads/yandex_tiu.xml 1 -
/wp-content/uploads/yamarket2.php 1 -
/yandex_yml.xml 1 -
/feedback 1 -
/wordpress/wp-login.php 1 -
/yandexmarket/yamarket1.xml 1 -
/catalog_export/yml.xml 1 -
/wp-includes/js/jquery/ui/draggable.min.js 2 http://autoopora.com/zakazat-zvonok/
/bitrix/sell.xml 1 -
/wp-content/uploads/export.yml 1 -
/scripts/setup.php 10 -
/wp-content/plugins/content-views-query-and-display-post-page/public/assets/js/cv.js 9 http://autoopora.com/zakazat-zvonok/
/happy.php 2 -
/indo.php 1 -
/xml/yandex_market/ 1 -
/wp-content/themes/autoopora_1_3_4/style.css 7 http://autoopora.com/zakazat-zvonok/
/shop/yandex_market/vm2_market.php 1 -
/export/feed-yml.xml 1 -
/yandexmarket/yandex_yml.xml 1 -
/shop/vm2_market.php 1 -
/zapchasti_na_kommercheskie_avtomobili_Foton/ 1 -
/zapchasti_na_kommercheskie_avtomobili_MAZ 2 -
/wp-content/plugins/wp-formgenerator/uploads/php/ 1 http://autoopora.com/wp-content/plugins/wp-formgenerator/uploads/php/
/bitrix/yamarket.yml 1 -
/yml/yandex_tiu.xml 1 -
/yandex_market.php 1 -
/wp-includes/js/jquery/ui/resizable.min.js 2 http://autoopora.com/zakazat-zvonok/
/yandex_market/vm2_market.php 1 -
/files/ymarket 1 -
/yml/yamarket.yml 1 -
/bitrix/catalog_export/export.xml 1 -
/sitemap3.xml 2 -
/yml/yamarket1.xml 1 -
/yandexmarket/market_full.php 2 -
/market/yandex_yml.xml 1 -
/export/yamarket.yml 1 -
/bitrix/yml.xml 1 -
/.well-known/acme-challenge/9sN9SdZNWRqixOHz-K-O4qpz_nqdcf9_l4e9CTqLxY8 1 -
/wp-content/uploads/2017/05/EeGkl53hLps.jpg 1 -
/goods_info/ 21 -
/blog/ 4 -
/market/yandex_export.xml 1 -
/yml.xml 1 -
/shiny-diski/shiny 1 -
/modules/yamarket/sell.xml 1 -
/wp-includes/js/wp-emoji-release.min.js 9 http://autoopora.com/zakazat-zvonok/
/shop.xml 1 -
/tyres_catalog 1 -
/wp-content/uploads/2017/01/%D0%B4%D0%BB%D1%8F-%D1%81%D0%B2%D1%8F%D0%B7%D0%B8.png 1 -
/yandexmarket/yandex_market.php 1 -
/export/export.yml 1 -
/yml/yandexmarket1.xml 1 -
/zapchast-na-francuzskie-avtomobili 1 -
/status 1 -
/px.php 1 -
/upload/index.php 1 -
/backup/ 1 -
/yandex_market/yml.xml 1 -
/yandex_market/export.yml 1 -
/ymarket.xml 1 -
/STRUTS_STRU 2 -
/xml/shop.xml 1 -
/yandexmarket/feed-yml.xml 1 -
/shop/yandex_market/export.xml 1 -
/wp-content/plugins/c.php 1 -
/yandex_market/ 1 -
/upload/yamarket.yml 1 -
/_mod_files/_upload/tmp/vm2_market.php 1 -
/yandex_market/yandex_export.yml 2 -
/wp-content/uploads/yandex_market/ 1 -
/yandexmarket/yandex_market/ 1 -
/akkumulyatornyj-servis/akkumulyatory-2/ 1 -
/kontakty/ 2 -
/bitrix/catalog_export/yandex_market/ 1 -
/yandex_market/yamarket2.php 2 -
/bitrix/export.xml 1 -
/bitrix/products.xml 1 -
/bitrix/shop.xml 1 -
/bitrix/yandex_market 1 -
/upload/yandex_yml.php 1 -
/xml/market_full.php 1 -
/ymarket 1 -
/disks_catalog 4 -
/bitrix/catalog_export/yamarket.xml 1 -
/modules/yamarket/export.yml 1 -
/xml/index.php 2 -
/market/yml_products.xml 1 -
/shop/shop.xml 1 -
/modules/yamarket/yandex_market/ 1 -
/vinquery 3 -
/zapchasti-na-kommercheskuyu-texniku/zapchasti-na-gruzoviki/ 1 -
/shop/yandexmarket.xml 1 -
/yandex_export.xml 1 -
/reg 2 -
/zapchasti_na_kommercheskie_avtomobili_Iveco 1 -
/joomla/administrator/index.php 1 -
/F10elLa8uZcrxKnEQdjo1X 1 -
/_mod_files/_upload/tmp/export.xml 1 -
/wp-includes/js/wp-embed.min.js 10 http://autoopora.com/zakazat-zvonok/
/wp-content/plugins/traffic-counter-widget/wtc-styles.css 10 http://autoopora.com/zakazat-zvonok/
/market/yml.xml 1 -
/export/yandex_yml.php 1 -
/xml/yandex_market 1 -
/wp-content/plugins/fluid_forms/file-upload/server/php/index.php 1 http://autoopora.com/wp-content/plugins/fluid_forms/file-upload/server/php/index.php
/wp-content/uploads/yml.php 1 -
/export/yandex_export.yml 1 -
/asset.php 1 -
/files/yandex_yml.php 1 -
/yandexmarket.xml 1 -
/market/index.php 2 -
/export/ymarket 1 -
/wp-includes/js/jquery/ui/position.min.js 2 http://autoopora.com/zakazat-zvonok/
/wp-includes/js/jquery/ui/mouse.min.js 2 http://autoopora.com/zakazat-zvonok/
/admin/scripts/setup.php 1 -
/yandex_market/yandexmarket1.xml 2 -
/category/kruglosutochnyj-avtomagazin-v-zaporozhe/page/6/ 1 -
/yandex_market/index.php 3 -
/yml/yandex.php 1 -
/yml_products.xml 1 -
/administrator/index.php 1 -
/akkoma 1 -
/personal_cabinet 2 -
/wp-content/themes/u-design/scripts/admin/uploadify/uploadify.css 1 http://autoopora.com/wp-content/themes/u-design/scripts/admin/uploadify/uploadify.css
/zapchast-na-koreyskie-avtomobili 2 -
/avtozapchasti/zapchasti-na-legkovye-avtomobil 1 -
/zapchasti-na-kommercheskuyu-texniku/zapchasti-na-avtobusy/ 3 -
/bitrix/yamarket1.xml 1 -
//wp-content/plugins/formcraft/file-upload/server/php/ 1 -
/catalog_export/yandex_yml.xml 1 -
/modules/yamarket/yamarket.xml 1 -
/_mod_files/_upload/tmp/yandex_export.xml 1 -
/installer-backup.php 1 -
/yandex_market/export.xml 1 -
/catalog_export/products.xml 1 -
/akcii-ot-avtoopory/ 1 -
/zb.php 1 -
/yandex.php 1 -
/files/yandexmarket1.xml 1 -
/market/products.xml 1 -
/garantija_akkoma%20 1 -
/yandex_market/products.xml 1 -
/yandex_market/yamarket.yml 1 -
/batteries_catalog 1 -
/bitrix/export.yml 1 -
/wp-content/plugins/uploader/uploadify/uploadify.css 1 http://autoopora.com/wp-content/plugins/uploader/uploadify/uploadify.css
/whcatalog/ 14 -
/zapchast-na-nemeckie-avtomobili 1 -
/shop/yandex_yml.php 1 -
/bitrix/catalog_export/yml.php 1 -
/shop/market_full.php 2 -
/upload/export.yml 1 -
/old/ 1 -
/_mod_files/_upload/tmp/yamarket2.php 1 -
/modules/yamarket/yamarket2.php 1 -
/zapchasti-na-kommercheskuyu-texniku/zapchasti-na-gruzoviki 2 -
/wp-content/plugins/product-enquiry-for-woocommerce/css/wdm-jquery-ui.css 2 http://autoopora.com/zakazat-zvonok/
/yandexmarket/export.xml 1 -
/market/ymarket.xml 1 -
/bitrix/catalog_export/yamarket1.xml 1 -
/phpmyadmin/ 3 -
/main/ 1 -
/export/vm2_market.php 1 -
/wp-content/plugins/qtranslate/akismets.php 1 -
/wp-content/uploads/yandex_export.yml 1 -
/yandex_yml.php 1 -
/bitrix/catalog_export/sell.xml 1 -
/yandex_market/shop.xml 1 -
/export/yandex_yml.xml 1 -
/wp-content/plugins/contact-form-7/includes/js/jquery.form.min.js 2 http://autoopora.com/zakazat-zvonok/
/modules/yamarket/products.xml 1 -
/yml/products.xml 1 -
/wp-content/plugins/traffic-counter-widget/wp-wtc-ajax.js 10 http://autoopora.com/zakazat-zvonok/
/modules/yamarket/shop.xml 1 -
/bitrix/yandex_export.yml 1 -
/yandexmarket/index.php 2 -
/_phpMyAdmin/scripts/setup.php 1 -
/wp-content/plugins/contact-form-7/includes/js/scripts.js 9 http://autoopora.com/zakazat-zvonok/
/wp-admin/logo_img.php 1 http://autoopora.com/wp-admin/logo_img.php
/magazin-avtozapchastej-v-zaporozhe/ 1 -
/files/yamarket2.php 1 -
/shiny-diski 1 -
/zapchast-na-rossiyskie-avtomobili 1 -
/als-shini-otech-- 4 -
/wp-content/plugins/maxbuttons/js/min/front.js 7 http://autoopora.com/zakazat-zvonok/
/wp-content/plugins/simple-forum/resources/jscript/ajaxupload/ajaxupload.js 2 http://autoopora.com/wp-content/plugins/simple-forum/resources/jscript/ajaxupload/ajaxupload.js
/bitrix/catalog_export/products.xml 1 -
/site/ 1 -
/jsspwned.php 1 -
/wp-content/themes/qualifire/scripts/admin/uploadify/uploadify.css 1 http://autoopora.com/wp-content/themes/qualifire/scripts/admin/uploadify/uploadify.css
/xml/yamarket2.php 1 -
/%D0%BF%D1%80%D0%B8%D0%BD%D0%B0%D0%B4%D0%BB%D0%B5%D0%B6%D0%B0%D1%82 3 -
/onlajn-pomoshh-avtolyubitelyam/ 1 -
/wp-content/themes/autoopora_1_3_4/script.js 10 http://autoopora.com/zakazat-zvonok/
/shop/yandex_market/yandex_market/ 1 -
/shop/ymarket 1 -
/market/market_full.php 1 -
/yandexmarket/yandex.php 1 -
/yandexmarket/ymarket.xml 1 -
/zapchasti-na-kommercheskuyu-texniku/zapchasti-na-samosvaly/ 1 -
/wp/wp-login.php 1 -
/_mod_files/_upload/tmp/yandex_export.yml 1 -
/market/yandex_market.php 1 -
/catalog_export/yandexmarket1.xml 1 -
/yandex_market/yandex_export.xml 2 -
/wp-content/plugins/videowhisper-video-presentation/vp/translation.php 1 http://autoopora.com/wp-content/plugins/videowhisper-video-presentation/vp/translation.php
/bitrix/catalog_export/index.php 2 -
/user/register/ 1 -
/remindpass 1 -
/magazin-avtozapchastej-v-zaporozhe-avtozapchasti/ 2 -
/wp-content/plugins/simple-forum/resources/jscript/ajaxupload/sf-uploader.php 2 http://autoopora.com/wp-content/plugins/simple-forum/resources/jscript/ajaxupload/sf-uploader.php
/export/yandex_market.php 1 -
/bitrix/market_full.php 2 -
/catalog_export/yamarket.yml 1 -
/_mod_files/_upload/tmp/export.yml 1 -
/sspd.php 1 -
/shop/yandex_market/yml.xml 1 -
/wp-content/uploads/vm2_market.php 1 -
/shop/yml_products.xml 1 -
/wp-content/plugins/videowhisper-video-presentation/vp/flash_detect_min.js 1 http://autoopora.com/wp-content/plugins/videowhisper-video-presentation/vp/flash_detect_min.js
END_SIDER_404

# Host - Pages - Hits - Bandwidth - Last visit date - [Start date of last visit] - [Last page of last visit]
# [Start date of last visit] and [Last page of last visit] are saved only if session is not finished
# The 10 first Hits must be first (order not required for others)
BEGIN_VISITOR 617
89.162.172.110 3179 5591 35016799 20180930230011
149.210.191.5 152 213 1699406 20180912165626
18.223.172.176 135 135 3930407 20180923211232
18.191.165.71 129 129 3756527 20180923111222
52.14.43.100 127 127 3697849 20180923201146
91.218.97.118 125 849 14306615 20180928085834
18.216.137.18 123 123 3581478 20180923164145
18.222.108.192 119 119 3463415 20180923064138
18.188.94.118 113 113 3287622 20180923214138
18.219.142.57 110 110 3203751 20180923204154
217.118.79.40 1 96 1340267 20180911053206
176.114.188.150 0 1 136366 
46.133.124.225 3 105 1611051 20180924085455
93.72.108.25 2 46 1154929 20180927124819
138.246.253.5 3 3 1758 20180927200926
185.19.20.142 2 54 1291440 20180925213400
145.255.168.112 0 31 697948 
40.77.188.132 0 1 258 
194.85.10.121 3 107 1441651 20180918104821
91.214.81.163 0 1 76651 
213.160.149.211 3 101 1416653 20180912145132
66.249.88.177 0 4 20439 
77.93.37.183 1 3 48061 20180925123100
40.77.253.106 0 1 25692 
37.73.28.82 1 101 1510025 20180925160029
40.77.188.186 0 1 35452 
77.222.156.142 1 102 1516833 20180926080613
193.227.119.23 54 161 1682522 20180913151654
109.87.20.225 0 31 697948 
18.216.12.5 1 1 566877 20180917123623
91.215.145.136 0 1 150145 
40.77.192.19 0 1 26711 
212.83.181.36 1 1 569502 20180930054422
213.154.202.154 2 106 1577963 20180927122753
94.200.229.70 0 1 31744 
46.133.229.123 1 102 1523025 20180921144805
95.56.33.234 0 1 116323 
5.228.194.179 0 1 84245 
173.252.95.24 0 8 231975 
91.228.236.174 4 108 1478685 20180918171345
94.179.39.199 1 31 617849 20180912133302
40.77.189.251 0 1 375 
77.111.244.58 6 114 1811139 20180929175248
46.219.121.58 6 111 1495118 20180918201334
195.69.197.156 1 31 617234 20180920160754
52.40.195.23 0 1 17015 
176.96.166.63 0 1 66198 
69.171.251.40 0 1 328 
95.69.128.15 1 69 1037084 20180909142728
46.149.95.129 2 32 623451 20180927094658
93.126.80.113 2 100 1366237 20180913002824
66.102.9.136 0 15 117392 
40.77.188.160 0 2 42650 
94.232.214.171 3 6 204938 20180920145813
45.63.70.152 1 1 29027 20180910053656
66.102.6.175 1 63 1219060 20180911121549
173.252.127.24 1 18 251037 20180909115620
66.102.7.237 1 1 29526 20180928142914
109.174.112.55 1 1 569245 20180929082002
195.238.117.212 1 1 6432 20180913112602
40.77.189.221 0 1 86927 
40.77.188.109 0 1 66413 
52.114.77.26 1 2 584901 20180920152723
91.221.252.9 3 17 343532 20180925193811
40.77.193.166 0 1 19963 
85.95.188.159 0 31 697948 
62.210.142.48 1 1 28914 20180902085623
173.252.95.6 0 32 744374 
194.44.17.239 14 144 2012247 20180917124938
52.114.75.71 1 2 584901 20180920150115
37.204.188.194 0 1 71 
37.52.185.53 0 31 697948 
178.140.85.133 0 1 117150 
64.233.172.242 0 2 111293 
212.90.177.122 0 31 697948 
82.117.249.57 0 31 697948 
46.211.138.207 0 30 686912 
37.73.212.50 7 111 1589041 20180914141954
46.211.153.60 2 101 1419337 20180915153615
23.80.146.126 3 3 87685 20180920030409
40.77.193.118 0 1 17760 
46.46.106.66 4 109 1720682 20180930120345
46.133.69.66 9 112 1520316 20180913145646
188.163.98.17 1 12 444214 20180910234311
91.192.133.225 5 122 2048492 20180929093139
69.171.251.16 1 19 301465 20180905210328
77.222.156.60 1 102 1394592 20180917184431
66.249.83.158 1 11 214980 20180903172007
31.173.119.70 0 1 16511 
217.24.161.42 0 1 68206 
188.230.238.79 8 8 13579 20180927221529
37.73.64.75 2 99 1380220 20180906133214
40.77.192.41 0 1 117150 
93.76.142.48 1 101 1510009 20180923210846
52.41.211.72 6 6 175429 20180914121545
52.14.175.39 107 107 3115325 20180923114152
95.46.85.51 1 81 1304875 20180929171142
144.217.171.224 50 1306 23273940 20180922144945
173.252.127.9 0 16 128357 
178.93.169.131 0 1 136366 
134.249.30.142 24 130 1752324 20180925183643
213.79.121.226 0 1 31744 
69.171.251.3 0 15 232149 
80.91.176.173 0 17 631920 
40.77.193.34 0 2 20034 
64.246.165.190 1 1 29116 20180911001338
40.77.194.122 0 1 16511 
40.77.252.140 0 1 117150 
46.133.73.99 5 107 1476231 20180915232147
176.59.112.176 1 81 1304764 20180915005023
34.254.158.61 1 1 29279 20180925180918
89.252.35.197 2 99 1353266 20180917080725
185.220.101.21 1 1 28914 20180901040248
173.252.127.1 0 8 134579 
69.171.251.38 0 16 91648 
35.195.68.203 3 295 4061602 20180912063719
37.73.123.89 1 96 1339909 20180907212247
89.162.247.173 2 47 1170892 20180925110316
78.111.188.205 1 32 627628 20180912153951
135.23.221.142 1 1 573574 20180922113608
159.65.100.69 4 4 2014 20180913223616
128.75.26.94 1 38 427169 20180903181410
192.162.142.27 1 3 48042 20180924114812
188.79.5.86 23 126 1461817 20180912202735
40.77.189.50 0 3 23896 
69.171.251.25 0 17 225176 
134.249.134.29 82 2356 25139712 20180930111518
31.206.236.72 5 5 21857 20180921083054
18.221.232.130 43 43 1257992 20180930022008
173.252.95.4 0 14 172818 
54.194.58.27 1 1 29171 20180903051133
18.221.45.138 83 83 2428633 20180930202050
91.211.122.130 0 62 1395896 
173.252.95.7 1 20 258403 20180902155103
137.226.113.27 4 4 117662 20180930201440
40.77.188.140 0 1 0 
130.180.220.145 7 7 53866 20180904152821
173.252.127.16 0 8 80262 
46.201.80.108 1 51 1110020 20180911202601
5.153.182.232 2 45 1018030 20180922225304
107.167.108.23 0 37 970605 
37.73.180.210 1 28 606365 20180909124522
46.211.118.81 1 62 1132449 20180907215759
37.204.32.18 0 32 687287 
188.170.80.183 0 1 16511 
130.180.216.23 27 128 1538530 20180924092611
137.74.169.241 1 1 28946 20180907172532
66.249.88.13 1 21 188778 20180903163237
46.211.155.106 0 31 697948 
220.77.227.81 1 1 567183 20180923081506
66.220.149.14 0 1 328 
37.54.98.29 38 96 1391230 20180926143308
37.73.199.111 6 103 1495976 20180904134632
188.32.37.146 0 1 35452 
46.211.103.188 3 102 1452105 20180903141724
164.0.26.139 1 98 1351184 20180906094726
213.154.201.231 1 12 444241 20180913101005
13.57.233.99 10 10 294228 20180929153956
37.73.122.18 1 101 1510039 20180925081927
82.207.108.29 0 31 697948 
194.28.181.70 38 155 2243623 20180929134054
31.41.89.207 1 101 1509849 20180927112930
77.111.244.48 1 2 40228 20180904152635
128.72.44.200 1 91 1142684 20180909023050
173.252.127.3 0 17 231332 
77.52.196.38 0 31 697948 
46.211.42.85 1 1 8914 20180907175331
80.254.6.250 2 13 473036 20180905085500
46.188.71.10 2 177 2525329 20180917035319
66.249.93.40 0 62 808470 
109.63.183.217 0 1 17760 
173.252.87.13 1 15 228950 20180906002224
188.162.201.184 0 1 136366 
188.163.96.130 10 172 2586692 20180922104121
181.215.76.35 1 1 29563 20180927100517
46.119.203.112 1 2 36280 20180911163540
46.211.36.177 2 45 1018082 20180918173726
37.204.43.161 0 1 110965 
35.162.70.167 2 2 58542 20180916110233
69.171.251.2 0 16 145389 
188.163.96.30 8 117 1815345 20180929110330
37.17.50.220 0 1 16511 
40.77.189.233 0 2 9144 
69.171.251.32 0 12 121967 
93.77.200.57 16 125 1682718 20180915104051
134.249.160.243 4 103 1384709 20180903101019
40.77.192.228 0 1 17760 
188.163.98.152 1 12 444242 20180912123720
40.77.194.118 0 1 741 
178.93.127.130 4 110 1581566 20180926154541
111.231.86.179 1 1 567215 20180924133415
173.252.95.21 0 17 165617 
77.37.165.117 0 32 687287 
163.172.4.153 4 4 117053 20180913085743
148.72.202.12 1 1 196 20180923140527
195.208.106.133 2 2 57860 20180902120451
46.101.16.229 1 12 444286 20180915200617
95.69.131.148 2 13 473211 20180909222535
31.163.154.255 2 2 14826 20180915053220
69.171.251.31 0 15 131495 
62.16.29.35 1 101 1510016 20180929180702
40.77.189.138 0 2 9559 
193.17.75.153 19 138 2040749 20180911151731
91.214.29.63 1 102 1394578 20180917162052
176.57.51.236 6 215 3067672 20180923235218
123.126.113.148 0 148 5672268 
66.249.89.136 1 5 158719 20180906215714
91.240.210.194 0 31 697948 
66.249.88.179 0 9 85598 
46.133.165.219 0 31 697948 
40.77.188.213 0 1 9113 
91.90.192.195 1 1 29245 20180928162742
77.220.213.63 2 2 1260 20180907224915
52.53.201.78 14 14 411647 20180929193323
18.216.99.30 45 45 1301003 20180905061510
146.185.158.9 2 46 1154511 20180911115426
66.220.149.30 0 26 257268 
178.214.201.190 51 69 979772 20180919112621
78.154.179.134 2 47 1171040 20180924045748
46.150.1.38 1 101 1509753 20180930135138
18.224.45.232 100 100 2925942 20180930221933
66.220.149.10 0 3 197883 
46.211.124.170 2 98 1345999 20180905214448
40.77.252.150 0 1 16511 
82.145.171.12 1 1 567183 20180923105152
194.28.182.68 1 1 29507 20180927213019
46.42.161.130 0 1 1514 
91.213.59.28 31 234 3179472 20180929181948
164.0.212.152 2 45 1018126 20180918123015
95.28.186.238 0 1 6024 
194.242.103.145 59 163 1495075 20180902205615
209.126.119.175 1 1 29260 20180906090132
176.108.10.249 2 46 1154475 20180920081049
178.94.2.159 0 1 16042 
92.60.20.26 0 1 116323 
31.13.127.9 1 1 29279 20180905205027
66.249.93.38 1 70 973866 20180906205557
5.228.102.211 0 1 96413 
46.211.201.227 2 45 934950 20180925132512
66.102.9.134 0 17 199007 
95.27.227.133 0 1 9113 
40.77.188.227 0 2 127479 
146.120.199.125 0 31 697948 
46.211.156.98 1 99 1358812 20180920100413
77.93.38.179 1 101 1510036 20180924094003
66.249.80.51 2 2 58514 20180906173301
81.23.24.137 0 15 192781 
66.249.84.163 0 24 215106 
188.163.99.217 1 12 444160 20180908120353
77.37.209.152 1 1 29143 20180915072912
195.201.140.167 2 2 1133580 20180904045420
46.219.1.202 0 31 697948 
95.24.7.49 0 1 26711 
81.23.24.141 0 15 181221 
40.77.189.24 0 1 84245 
40.77.189.44 0 3 43558 
194.44.179.117 0 31 697948 
77.93.33.137 40 853 9747404 20180929142749
178.252.127.241 5 5 1214608 20180908185703
35.233.54.1 3 297 4075197 20180911224616
40.77.195.212 0 1 71 
217.19.211.110 18 116 1423292 20180907213525
94.68.27.84 0 31 697948 
188.163.169.62 83 251 3488805 20180928163842
77.111.247.10 0 31 697948 
40.77.192.68 0 1 9514 
37.215.188.37 5 5 1213203 20180903000637
217.118.79.34 0 31 697948 
31.146.9.200 0 1 17760 
40.77.195.229 0 1 110965 
66.220.149.5 0 18 253859 
95.152.63.76 4 4 639774 20180919230552
188.163.99.137 1 3 48013 20180928065350
77.93.54.34 2 104 1458404 20180914235504
212.1.104.196 1 31 616414 20180913100540
66.249.84.166 1 34 592849 20180906215735
95.24.11.245 1 32 605667 20180907000516
36.248.168.209 2 2 1139004 20180928191550
194.24.246.71 0 31 697948 
192.81.57.4 0 1 47568 
195.211.187.14 8 123 1983490 20180918193111
46.211.201.196 0 31 697948 
46.133.72.5 1 101 1510016 20180929173823
37.212.20.241 0 30 686912 
40.77.188.177 0 1 16511 
77.93.54.87 1 98 1351502 20180910100937
176.109.175.83 2 44 1007079 20180905211822
173.252.95.9 0 18 397416 
158.69.225.35 12 12 1992593 20180921060624
92.112.193.183 19 127 1715603 20180908072257
94.153.177.182 60 182 2283336 20180917143357
173.252.127.21 0 15 190905 
52.34.24.33 2 2 58534 20180915103520
85.91.219.48 1 73 1408490 20180930153726
94.23.84.86 3 3 63946 20180912165455
109.254.87.56 8 8 77361 20180916162410
46.248.173.37 1 1 9179 20180901225339
77.37.164.37 1 40 792410 20180903012502
46.164.134.234 1 99 1358401 20180910145316
31.128.73.18 14 123 1760282 20180928083019
40.77.252.200 0 1 3120 
40.77.193.205 0 1 35452 
66.249.83.159 0 9 116048 
94.76.108.39 1 55 1259319 20180930182201
64.246.165.150 1 1 29269 20180929050252
46.211.207.220 5 107 1446882 20180913190127
173.252.127.36 0 1 396 
40.77.193.213 0 6 158103 
77.93.41.46 2 104 1430976 20180910165212
62.149.29.58 1 1 29211 20180918032924
182.151.4.100 1 1 567183 20180924013721
91.219.52.189 1 102 1523029 20180920180105
37.55.3.252 0 31 697948 
77.93.47.202 2 62 58325 20180918085819
69.171.251.29 0 12 81235 
31.202.242.104 25 128 1483483 20180919224157
18.216.84.37 46 73 1239673 20180930071247
213.202.254.136 1 1 29171 20180902015625
142.93.161.24 1 1 29228 20180918185421
66.102.7.239 1 1 29526 20180928142603
69.171.251.22 0 10 40346 
95.24.201.54 0 1 3120 
93.76.51.2 2 46 1154447 20180919160144
51.15.81.222 1 1 29249 20180923125249
173.252.127.30 1 17 445548 20180904054055
194.247.173.79 2 99 1380272 20180908144828
81.90.236.198 31 251 4123044 20180926181553
66.249.88.175 1 18 346393 20180911163644
52.15.193.90 54 54 1561344 20180905071607
193.95.245.91 8 8 13581 20180914011022
46.133.132.165 3 3 27402 20180902075421
58.216.224.59 1 1 563471 20180904110010
91.214.31.226 2 3 1153108 20180926115926
137.226.113.28 4 4 117798 20180926105513
40.77.188.58 0 2 10195 
176.51.227.31 0 31 697948 
66.249.89.132 0 38 516640 
192.42.116.13 1 1 29235 20180918230501
176.105.198.162 5 110 1674687 20180927195953
178.124.159.251 4 50 1176409 20180924101140
40.77.189.210 0 1 4959 
46.101.9.216 5 5 69317 20180917121623
46.98.211.2 1 101 1510016 20180929173759
142.44.232.102 1 1 29271 20180920174436
91.221.252.8 0 12 196610 
194.146.190.166 4 117 1888451 20180930073037
81.23.24.129 1 35 537286 20180910235812
178.133.72.159 1 101 1509718 20180928111042
40.77.253.1 0 1 54470 
176.37.128.165 4 119 2143895 20180912121332
31.128.78.66 27 130 1630225 20180920180916
77.111.247.54 1 101 1510013 20180930073313
212.111.209.19 0 1 25692 
69.28.84.254 1 1 29297 20180925163248
40.77.188.180 0 1 741 
178.22.67.165 1 1 28973 20180905173218
40.77.193.74 0 2 23039 
46.119.192.21 4 108 1527799 20180911064356
40.77.188.199 0 1 1197 
69.171.251.13 0 1 8464 
66.102.9.4 1 13 225067 20180918214314
196.52.84.38 2 2 16227 20180921002843
40.77.252.239 0 2 84245 
37.212.71.60 0 31 697948 
31.131.102.103 4 38 814779 20180910202344
40.77.194.13 0 1 84245 
82.207.57.206 1 98 1351520 20180910151420
46.46.88.244 8 121 1824381 20180912164808
91.213.59.23 1 100 1358635 20180915171100
176.118.48.138 2 46 1154479 20180905195326
95.29.105.161 0 1 19963 
40.77.188.176 0 3 145236 
95.105.171.59 4 4 6798 20180903104521
40.77.192.29 0 1 1514 
81.23.24.139 0 16 208845 
34.219.70.47 0 2 15137 
69.171.251.1 0 16 172226 
178.137.113.144 2 102 1367051 20180911103004
173.252.127.7 0 30 232723 
188.163.97.110 50 273 3906489 20180923140816
46.211.124.229 4 49 1028313 20180907175821
46.211.108.161 1 34 855109 20180924081425
91.217.58.10 1 97 1347422 20180911083421
5.189.156.220 2 2 59012 20180923022853
66.102.6.177 2 82 1252620 20180911121555
62.74.55.168 1 29 617547 20180910120345
91.228.236.140 19 140 2251335 20180909125928
40.77.189.116 0 1 96413 
66.220.149.3 1 16 349653 20180903115501
66.249.93.35 1 62 898480 20180906205556
91.234.226.12 2 4 77345 20180927103841
66.220.149.22 0 18 124720 
54.190.41.88 1 1 29400 20180916160229
69.171.251.8 0 17 436203 
54.160.71.248 1 1 29400 20180913201243
188.163.97.71 2 100 1352171 20180903161556
159.65.181.50 1 1 29097 20180912180636
130.180.210.218 1 101 1509754 20180926151325
40.77.192.141 0 1 110965 
46.119.238.44 4 116 1994847 20180925205508
88.214.96.69 1 28 583818 20180930182215
173.252.127.19 0 1 110965 
92.62.151.189 0 1 68897 
95.153.134.127 1 97 1340085 20180902170417
173.252.87.1 1 9 78283 20180906002306
46.201.98.247 0 31 697948 
77.121.86.193 2 103 1570437 20180921215712
195.211.187.97 37 142 1696084 20180905103443
66.249.84.168 1 32 490270 20180906215745
35.187.53.163 3 294 4053538 20180907123446
46.211.85.147 0 31 697948 
91.195.2.127 2 46 1154474 20180911165210
139.81.249.249 1 1 29491 20180920064443
46.211.153.74 0 31 697948 
13.58.201.75 75 75 2194700 20180930231854
188.163.98.7 5 108 1533257 20180908114706
77.93.39.66 1 3 48013 20180928134717
91.195.231.51 6 55 1212974 20180901104248
46.42.170.121 0 1 741 
66.102.8.19 1 1 29185 20180904132906
193.227.119.22 2 2 1145634 20180915021848
66.249.81.102 0 41 597201 
91.221.252.13 2 16 281604 20180925193751
188.163.102.211 2 46 1154413 20180930212955
40.77.188.78 0 3 155730 
188.163.98.119 8 62 1713736 20180917133340
80.84.178.250 1 12 444242 20180911145248
46.211.77.39 1 63 29333 20180923181841
40.77.188.202 0 1 34966 
40.77.188.64 0 1 3440 
167.99.195.199 4 4 2014 20180907232057
79.139.231.87 4 4 1177890 20180915162324
189.112.231.149 1 1 563484 20180904110251
40.77.193.154 0 2 4959 
46.211.202.19 3 7 252376 20180921174526
52.14.244.52 54 54 1561365 20180905091505
46.200.247.207 61 170 1655178 20180911004101
194.28.103.100 4 65 1564695 20180911074350
91.218.85.246 0 31 697948 
176.105.108.106 0 31 697948 
173.252.95.12 0 8 33430 
89.178.238.106 0 32 687287 
178.158.243.175 1 63 1331169 20180919083027
89.105.249.7 1 26 582388 20180917103038
91.213.59.20 1 12 444021 20180913150107
188.42.35.214 16 133 2199519 20180907222505
173.252.87.7 0 35 689369 
85.100.112.216 0 31 697948 
93.72.43.55 0 31 697948 
46.53.210.104 15 15 3641119 20180909195817
93.85.38.53 1 26 582692 20180902180450
40.77.193.162 0 1 35452 
188.163.96.187 3 3 87551 20180914143218
80.84.181.232 4 127 116189 20180902101345
46.219.206.43 0 31 697948 
213.130.10.179 3 51 1209470 20180923134804
91.214.28.133 2 102 1517474 20180928113529
188.232.119.229 1 32 605796 20180908043933
18.237.101.144 0 1 1514 
80.64.80.86 1 99 1358567 20180918174037
78.46.161.118 1 1 590 20180903165741
197.50.25.197 1 1 563471 20180904110743
40.77.252.119 0 1 39834 
37.144.45.133 0 1 4959 
212.8.50.49 3 123 1627512 20180927234410
37.9.53.12 5 5 9190 20180901174514
95.181.53.226 1 101 1509754 20180927094223
40.77.253.90 0 1 96413 
66.102.9.7 0 17 414758 
172.251.39.172 1 1 28914 20180903033544
188.32.141.220 0 32 687287 
188.162.14.211 1 96 1339961 20180908095352
149.36.64.8 1 1 28916 20180901045414
40.77.189.19 0 1 1514 
185.15.5.114 0 31 697948 
46.98.176.103 8 119 1743976 20180905221815
173.252.127.11 0 47 745844 
180.163.220.3 1 1 29295 20180925140033
37.73.13.91 20 121 1448682 20180905071912
81.23.24.133 0 18 238285 
69.171.251.24 0 4 247677 
193.151.14.72 0 31 697948 
40.77.188.143 0 3 78232 
91.200.57.39 1 12 444134 20180906202418
130.180.211.12 0 21 342302 
188.163.20.50 1 31 616694 20180909205627
134.249.134.8 18 169 3629183 20180917143115
77.121.128.114 2 104 1441828 20180914222016
46.133.45.185 23 127 1555849 20180902074500
46.211.39.92 1 2 29311 20180919165338
46.42.134.39 1 84 1185370 20180926184343
62.122.204.165 13 114 1501293 20180917171052
77.93.46.6 1 12 444366 20180918165614
66.249.83.157 0 11 121206 
77.93.33.245 10 115 1471793 20180914103251
66.102.9.131 0 11 157796 
94.76.108.4 1 25 572407 20180930182200
173.252.127.8 0 1 6400 
31.134.105.199 2 46 1154509 20180910221505
94.74.69.136 9 112 1625820 20180925191540
40.77.188.86 0 1 5914 
40.77.188.192 0 13 518457 
37.54.6.72 4 53 1226395 20180913074922
95.165.254.62 6 6 33786 20180916153142
188.163.168.94 1 88 1325131 20180919162220
46.150.77.37 2 104 1402079 20180907111418
77.222.156.84 1 101 1510016 20180930073433
193.93.217.14 2 46 1154469 20180910233517
193.151.242.230 1 131 2045999 20180917080720
173.252.95.19 1 18 249248 20180905204945
130.180.217.60 1 12 444139 20180906200755
199.15.215.245 1 1 566926 20180923232600
37.145.124.23 0 32 687287 
206.180.165.147 1 1 29232 20180906084836
34.214.92.66 5 31 1300338 20180915221323
66.220.149.7 0 16 167382 
51.15.205.214 1 1 28998 20180907183754
66.249.88.7 1 20 427913 20180904132902
40.77.252.36 0 1 17015 
69.171.251.42 0 15 257898 
66.102.6.179 1 72 1110281 20180911121546
91.234.226.156 1 12 444366 20180918125455
34.220.113.110 0 1 86927 
195.154.183.10 1 1 8195 20180917103628
40.77.194.112 0 1 26711 
69.171.251.23 0 18 138994 
91.210.147.253 1 1 29554 20180925190050
173.252.87.9 0 11 63451 
46.211.42.60 2 100 1387692 20180916101437
167.99.211.55 1 1 29163 20180903201302
146.252.99.129 1 1 29254 20180906045129
194.177.25.16 0 31 697948 
92.100.246.28 2 2 591346 20180928021329
40.77.189.71 0 1 396 
52.53.180.167 1 1 563484 20180906164618
212.8.50.59 0 1 136366 
5.255.181.233 2 46 1154489 20180907082031
91.230.199.167 0 31 697948 
111.19.46.143 101 101 840733 20180927103316
46.201.219.218 2 50 1203160 20180924172916
91.77.30.246 4 4 1188914 20180913060421
178.90.38.138 1 1 29263 20180924013209
202.9.205.11 1 98 1351498 20180909122536
36.248.169.8 2 2 1137766 20180928110817
91.224.254.241 0 31 697948 
46.150.83.27 22 124 1500377 20180909175302
69.171.251.11 2 72 1133570 20180919195126
91.218.97.70 1 3 48115 20180927111102
66.249.81.104 0 31 580906 
191.177.184.177 1 1 29257 20180929214124
18.185.238.137 1 1 630 20180923120007
40.77.188.197 0 1 5991 
46.133.109.146 1 36 1005086 20180910175023
213.159.38.90 5 5 773146 20180926055536
31.202.113.86 0 31 697948 
130.180.209.74 3 44 830518 20180926142403
173.252.95.28 0 19 127226 
54.189.137.93 0 5 224189 
5.254.65.192 2 100 1364842 20180910212438
193.34.217.235 71 403 4876190 20180928163931
64.233.172.240 0 10 333387 
95.28.58.154 1 40 787662 20180911133736
77.111.244.33 1 101 1510016 20180930062945
66.249.88.10 0 21 287774 
173.252.87.3 0 28 319931 
95.28.21.243 1 32 605674 20180904215902
66.249.89.134 0 6 257180 
46.133.67.254 74 192 2160632 20180908083101
176.9.51.70 1 96 1339962 20180910103039
46.149.186.153 0 31 697948 
69.171.251.18 0 19 295001 
209.182.217.180 2 2 16501 20180922151050
69.120.176.45 1 99 1358671 20180912045132
64.233.172.238 1 13 126944 20180917080747
46.133.105.38 1 98 1351154 20180904190316
46.133.11.24 0 1 66198 
40.77.188.91 0 4 17338 
173.252.95.25 0 39 286116 
40.77.192.15 0 1 9113 
137.226.113.26 5 5 146932 20180921014907
95.220.89.185 0 1 1802 
82.207.58.206 0 1 9514 
40.77.190.5 0 2 35523 
46.211.24.232 2 17 352033 20180925164610
66.220.149.8 1 1 29279 20180905210409
91.213.59.22 1 3 48061 20180925100844
173.252.127.18 0 1 7470 
178.62.34.82 1 12 444331 20180916233306
46.211.25.237 1 100 1498980 20180930095714
37.73.253.66 2 45 1018082 20180907083017
91.218.97.80 38 170 2521026 20180920105340
139.81.101.165 1 1 29353 20180913061654
193.28.177.23 0 32 747736 
167.114.228.206 1 1 28920 20180904124744
178.140.119.238 0 1 86927 
95.28.182.4 1 89 1136590 20180917143219
94.240.176.233 1 1 29084 20180906212838
46.175.254.8 1 12 444080 20180907093814
2.134.64.83 0 1 47568 
35.241.135.177 3 294 4054422 20180906095951
35.165.137.171 1 1 29134 20180916081944
46.211.36.115 1 99 1358463 20180914092723
91.219.52.190 15 31 919413 20180916195428
5.137.99.45 2 103 1434226 20180902164721
130.0.36.94 1 39 785923 20180926145933
18.207.208.139 1 1 572552 20180913151624
81.90.235.54 26 130 1607731 20180918130118
18.191.165.198 55 55 1590417 20180905081506
40.77.189.222 0 1 26711 
66.249.81.99 2 33 457493 20180906215810
37.110.210.167 0 1 16511 
178.54.71.230 3 102 1425750 20180913201026
66.102.9.10 0 25 233731 
82.207.91.148 1 32 632997 20180926160243
91.234.226.14 1 101 1510016 20180930101634
193.192.171.10 40 710 11596169 20180929171546
95.47.56.223 2 101 1376548 20180905003826
END_VISITOR

# Date - Pages - Hits - Bandwidth - Visits
BEGIN_DAY 30
20180901 107 250 4822518 54
20180902 190 882 11196751 57
20180903 235 1744 23429913 64
20180904 227 826 16011365 101
20180905 210 1518 22752200 82
20180906 138 1702 25065841 75
20180907 202 1735 25388323 75
20180908 216 826 14401568 60
20180909 144 885 14104004 66
20180910 150 1443 22867660 61
20180911 245 2309 34766677 76
20180912 321 1437 20615046 66
20180913 212 1247 19020037 75
20180914 140 887 13487866 60
20180915 143 787 14385490 60
20180916 146 428 6433275 60
20180917 583 2604 35275023 69
20180918 322 1736 24682513 75
20180919 201 1079 17344500 79
20180920 425 1438 23711498 85
20180921 249 853 16663025 80
20180922 225 1756 30838162 81
20180923 149 609 10777782 82
20180924 126 746 13157016 43
20180925 148 1276 21682861 52
20180926 211 1246 19505773 48
20180927 1108 1968 16474170 44
20180928 138 879 15783750 48
20180929 147 1186 18178970 48
20180930 144 1230 20891344 43
END_DAY

# Session range - Number of visits
BEGIN_SESSION 7
1h+ 68
5mn-15mn 27
2mn-5mn 20
30s-2mn 64
15mn-30mn 99
0s-30s 1525
30mn-1h 166
END_SESSION

# URL - Pages - Bandwidth - Entry - Exit
# The 10 first Pages must be first (order not required for others)
BEGIN_SIDER 28
/export/exchange1c.php 2340 1432770 205 204
/ 2229 89458464 1649 1576
/index.php 1673 8183593 76 95
/admin/index.php 412 2418782 18 23
/masla/ 152 1523098 6 20
/inomarka-legkovaja/ 112 1111172 5 13
/shini-i-diski-kolesnie/ 44 420021 1 3
/akkumuljatori/ 28 269940 1 6
/delivery 25 183326 4 7
/zapchasti-k-otechestvennim-avtomobiljam/ 24 232471 0 3
/catalog/view/javascript/font-awesome/fonts/fontawesome-webfont.woff 1 81284 0 1
/optika--lampi--fonari/ 21 210340 1 2
/about_us 23 205076 0 4
/catalog/view/javascript/bootstrap/fonts/glyphicons-halflings-regular.woff 1 23424 0 0
/admin/view/javascript/font-awesome/fonts/fontawesome-webfont.woff2 16 970230 0 2
/send-order.php 6 1206 0 0
/privacy 13 146200 0 1
/catalog/view/theme/default/stylesheet/fonts/fontawesome-webfont.woff 1 83588 0 0
/catalog/view/theme/default/stylesheet/fonts/fontawesome-webfont.woff2 6 401058 0 2
/pays 16 160573 0 1
/catalog/view/javascript/new/swiper.min.js.map 6 548040 0 1
/uslovija 1 5460 0 0
/legkovie-import 1 7256 0 0
/voprosi-i-otveti 14 166400 0 5
/contacts/ 12 79506 1 0
/admin/ 8 12584 2 0
/inomarka-gruzovaja/ 16 169614 0 0
/mail.php 1 241 0 0
END_SIDER
