AWSTATS DATA FILE 7.0 (build 1.971)
# If you remove this file, all statistics for date 201802 will be lost/reset.
# Last config file used to build this data file was /etc/awstats/awstats.autoopora.com.conf.

# Position (offset in bytes) in this file for beginning of each section for
# direct I/O access. If you made changes somewhere in this file, you should
# also remove completely the MAP section (AWStats will rewrite it at next
# update).
BEGIN_MAP 27
POS_GENERAL 1993                
POS_TIME 2674                
POS_VISITOR 58180               
POS_DAY 78669               
POS_DOMAIN 3660                
POS_LOGIN 3895                
POS_ROBOT 4050                
POS_WORMS 4897                
POS_EMAILSENDER 5028                
POS_EMAILRECEIVER 5171                
POS_SESSION 79503               
POS_SIDER 79714               
POS_FILETYPES 5306                
POS_DOWNLOADS 5638                
POS_OS 5711                
POS_BROWSER 5902                
POS_SCREENSIZE 8390                
POS_UNKNOWNREFERER 8464                
POS_UNKNOWNREFERERBROWSER 9553                
POS_ORIGIN 9880                
POS_SEREFERRALS 10027               
POS_PAGEREFS 10208               
POS_SEARCHWORDS 10642               
POS_KEYWORDS 11033               
POS_MISC 2338                
POS_ERRORS 11341               
POS_CLUSTER 3751                
POS_SIDER_404 11500               
END_MAP

# LastLine    = Date of last record processed - Last record line number in last log - Last record offset in last log - Last record signature value
# FirstTime   = Date of first visit for history file
# LastTime    = Date of last visit for history file
# LastUpdate  = Date of last update - Nb of parsed records - Nb of parsed old records - Nb of parsed new records - Nb of parsed corrupted - Nb of parsed dropped
# TotalVisits = Number of visits
# TotalUnique = Number of unique visitors
# MonthHostsKnown   = Number of hosts known
# MonthHostsUnKnown = Number of hosts unknown
BEGIN_GENERAL 8
LastLine 20180301001656 233 55304 8853574200030
FirstTime 20180201015411
LastTime 20180228203312
LastUpdate 20180301044251 233 0 232 0 0
TotalVisits 600                 
TotalUnique 369                 
MonthHostsKnown 0                   
MonthHostsUnknown 586                 
END_GENERAL

# Misc ID - Pages - Hits - Bandwidth
BEGIN_MISC 10
QuickTimeSupport 0 0 0
JavaEnabled 0 0 0
JavascriptDisabled 0 0 0
PDFSupport 0 0 0
WindowsMediaPlayerSupport 0 0 0
AddToFavourites 0 9 0
RealPlayerSupport 0 0 0
TotalMisc 0 0 0
DirectorSupport 0 0 0
FlashSupport 0 0 0
END_MISC

# Hour - Pages - Hits - Bandwidth - Not viewed Pages - Not viewed Hits - Not viewed Bandwidth
BEGIN_TIME 24
0 116 116 4290286 111 216 8008967
1 98 286 8642979 476 628 16597816
2 100 369 11631156 715 850 18216268
3 89 224 7980506 829 983 16968517
4 114 173 5320421 1039 1227 30848973
5 110 126 1411920 1419 1529 41480746
6 71 88 1234479 454 723 13898512
7 106 240 4253058 436 524 20860524
8 90 473 14324802 777 841 28052412
9 107 568 14785465 116 193 6821536
10 234 935 26032697 151 227 9855536
11 232 733 21134743 122 241 10319484
12 336 1566 49398735 102 186 8558306
13 82 383 10873979 106 172 7200871
14 111 629 17658324 110 228 8708164
15 123 703 21410460 144 239 10141129
16 143 661 19885024 286 371 13322518
17 720 1358 49696827 816 867 31965830
18 260 730 27896536 388 460 13275643
19 132 224 11627631 184 258 8744797
20 120 389 9315375 115 257 13216489
21 133 357 11098285 379 469 8714724
22 150 292 8475270 894 1000 14102365
23 118 321 7582349 94 152 7055646
END_TIME

# Domain - Pages - Hits - Bandwidth
# The 10 first Pages must be first (order not required for others)
BEGIN_DOMAIN 1
ip 3895 11944 365961307
END_DOMAIN

# Cluster ID - Pages - Hits - Bandwidth
BEGIN_CLUSTER 0
END_CLUSTER

# Login - Pages - Hits - Bandwidth - Last visit
# The 10 first Pages must be first (order not required for others)
BEGIN_LOGIN 0
END_LOGIN

# Robot ID - Hits - Bandwidth - Last visit - Hits on robots.txt
# The 10 first Hits must be first (order not required for others)
BEGIN_ROBOT 19
bot[\s_+:,\.\;\/\\-] 4485 157974418 20180228142641 50
crawl 3238 28897926 20180227063225 4
yandex 2134 80618605 20180228232810 379
googlebot 341 47637229 20180228231916 44
sogou 110 10457459 20180228182807 54
phantom 88 2033914 20180224065553 0
mail\.ru 84 2671222 20180228133731 76
no_user_agent 50 6705361 20180227213635 2
facebook 33 693955 20180228225716 0
baiduspider 31 3850247 20180227210110 0
ia_archiver 12 775898 20180226073826 9
unknown 19 19472 20180224072134 19
robot 2 367313 20180201120534 1
python 9 458323 20180227022638 0
surveybot 4 393604 20180224235513 2
archive\.org_bot 1 1086 20180206140824 1
favicon 4 737386 20180221104052 0
wget 1 564 20180209212034 0
netcraft 1 370467 20180203060458 0
END_ROBOT

# Worm ID - Hits - Bandwidth - Last visit
# The 5 first Hits must be first (order not required for others)
BEGIN_WORMS 0
END_WORMS

# EMail - Hits - Bandwidth - Last visit
# The 20 first Hits must be first (order not required for others)
BEGIN_EMAILSENDER 0
END_EMAILSENDER

# EMail - Hits - Bandwidth - Last visit
# The 20 first hits must be first (order not required for others)
BEGIN_EMAILRECEIVER 0
END_EMAILRECEIVER

# Files type - Hits - Bandwidth - Bandwidth without compression - Bandwidth after compression
BEGIN_FILETYPES 13
eot 19 1074545 0 0
css 1808 63030799 0 0
png 3309 34459709 0 0
woff2 8 392414 0 0
map 3 1147452 0 0
php 1222 41713131 0 0
html 2411 155072621 0 0
js 1831 55120686 0 0
jpg 263 1292684 0 0
jpeg 315 4062968 0 0
Unknown 232 5405013 0 0
gif 4 5547 0 0
svg 519 3183738 0 0
END_FILETYPES

# Downloads - Hits - Bandwidth
BEGIN_DOWNLOADS 1
/robots.txt 641 0 679174
END_DOWNLOADS

# OS ID - Hits
BEGIN_OS 13
linuxandroid 1375
winxp 2448
winlong 44
win2000 10
winnt 1610
linuxubuntu 94
winvista 512
linux 333
win7 3844
macosx 934
win95 2
win2003 2
Unknown 736
END_OS

# Browser ID - Hits
BEGIN_BROWSER 130
chrome37.0.2062.117 1
chrome52.0.2743.116 29
chrome34.0.1847.137 3
chrome55.0.2911.34 2
firefox45.61.14 1
chrome63.0.3223.8 5
firefox49.0 8
msie8.0 249
chrome53.0.2789.8 2
chrome50.0.2686.49 2
msie7.0 40
chrome53.7.3607.8970 1
chrome64.0.3282.137 234
firefox50.0 5
firefox45.63.10 2
chrome59.0.3071.92 149
chrome62.0.3202.94 482
chrome56.1.6725.1453 1
chrome54.0.2840.71 17
chrome36.0.1985.143 40
chrome63.0.3239.108 44
firefox33.0 1
netscape5.0 7
firefox45.58.05 1
chrome44.0.2403.89 2
chrome64.0.3282.186 125
chrome41.0.2228.0 1
safari 77
safari7.0 312
safari11.0 66
firefox52.0 15
chrome57.5.0413.6786 1
opera9.68 1
chrome36.0.1985.125 18
chrome51.0.2704.26 2
opera9.80 160
chrome33.0.0.0 1
chrome61.0.3163.100 11
chrome49.0.2651.36 2
chrome53.0.2785.26 2
chrome55.0.2907.73 2
firefox45.66.13 2
chrome11.0.696.3 1
msie5.0 2
msie9.0 3
firefox52.51.08 1
chrome60.0.3112.116 127
firefox32.0 2021
chrome18.0.1025.166 20
chrome64.0.3282.168 29
chrome11.0.686.3 1
opera9.27 3
chrome56.3.7428.2156 1
chrome40.0.802.0 2
firefox56.0 2
chrome45.0.2454.94 1
chrome59.0.3071.71 1
chrome49.0.2655.58 2
chrome50.0.2701.34 2
chrome25.0.1364.172 1
firefox51.0 5
chrome61.0.3116.0 352
chrome39.0.880.0 2
chrome57.4.9275.4547 1
chrome53.8.3160.8432 1
chrome64.0.3282.140 553
firefox57.0 71
msie6.0 1
chrome49.0.2623.110 71
chrome53.0.2836.10 2
safari4.0.5 2
firefox18.0 1
curl 7
firefox34.0 15
chrome51.0.2722.23 2
chrome58.0.3029.110 85
chrome64.0.3282.167 1353
chrome53.0.2785.146 45
firefox40.1 8
chrome50.0.2661.102 61
chrome53.6.0059.5787 1
chrome50.0.2699.15 2
chrome49.0.2623.112 365
chrome62.0.3198.0 6
chrome55.0.2883.87 7
firefox53.0 5
firefox48.0 7
opera8.16 2
firefox42.0 1
wap 10
chrome64.0.3282.119 200
chrome63.0.3239.132 2064
firefox29.0 1
safari6.0 3
firefox3.5.2 3
chrome49.0.2623.75 1
firefox45.0 1
chrome60.0.3112.113 51
firefox47.0 4
chrome46.0.2490.80 43
mozilla 707
chrome57.0.2987.133 1
chrome32.0.1700.76 21
chrome55.0.2917.95 2
chrome40.0.2214.93 1
firefox15.0.1 1
firefox35.0 2
chrome34.0.1866.237 1
chrome56.0.2924.87 68
chrome55.0.2887.41 2
chrome63.0.3205.0 18
chrome51.0.2704.82 2
chrome55.1.5270.0008 1
Unknown 10
chrome56.0.2956.80 2
chrome55.0.2898.81 2
chrome63.0.3239.111 166
chrome41.0.2272.118 352
chrome55.0.5727.0555 1
chrome57.5.1409.6771 1
firefox58.0 510
firefox46.0 8
chrome59.0.3071.125 53
chrome45.0.2454.101 8
safari4.7.2 1
firefox37.0 5
msie10.0 234
safari5.1 1
firefox52.48.95 1
chrome55.1.6218.0946 1
END_BROWSER

# Screen size - Hits
BEGIN_SCREENSIZE 0
END_SCREENSIZE

# Unknown referer OS - Last visit date
BEGIN_UNKNOWNREFERER 18
Ruby 20180217211137
}__test|O:21:\ 20180209175928
Mozilla/5.0_(compatible;_CloudFlare-AlwaysOnline/1.0;__http://www.cloudflare.com/always-online)_AppleWebKit/534.34 20180223233247
Mozilla/5.0_zgrab/0.x 20180206213120
Opera/9.80_(Android;_Opera_Mini/20.0.2254/85.73;_U;_ru)_Presto/2.12.423_Version/12.16 20180205153929
redback/v0-570-g26f8c96 20180212221748
Opera/9.27 20180211220938
Opera/9.80_(Android;_Opera_Mini/31.0.2254/87.4;_U;_ru)_Presto/2.12.423_Version/12.16 20180216140215
Opera/9.80_(Android;_Opera_Mini/32.0.2254/87.26;_U;_ru)_Presto/2.12.423_Version/12.16 20180227075832
Mozilla/5.0_(compatible;_Dataprovider.com;) 20180209222821
curl/7.47.0 20180223133203
Mozilla/4.0_(compatible;_Advanced_Email_Extractor_v2.71) 20180212175254
Mozilla/5.0_(compatible;_ips-agent) 20180203045034
null 20180226133411
Mozilla/5.0_(compatible;_Wappalyzer) 20180220132406
Go-http-client/1.1 20180217211136
NetTrack_Anonymous_Web_Statistics_https://nettrack.info/support.php 20180203045558
404 20180218010908
END_UNKNOWNREFERER

# Unknown referer Browser - Last visit date
BEGIN_UNKNOWNREFERERBROWSER 7
Ruby 20180217211137
Go-http-client/1.1 20180217211136
}__test|O:21:\ 20180209175928
NetTrack_Anonymous_Web_Statistics_https://nettrack.info/support.php 20180203045558
404 20180218010908
redback/v0-570-g26f8c96 20180212221748
null 20180226133411
END_UNKNOWNREFERERBROWSER

# Origin - Pages - Hits 
BEGIN_ORIGIN 6
From0 2915 3269
From1 3 3
From2 156 165
From3 18 18
From4 803 8489
From5 0 0
END_ORIGIN

# Search engine referers ID - Pages - Hits
BEGIN_SEREFERRALS 3
google 104 113
bing 1 1
yandex 51 51
END_SEREFERRALS

# External page referers - Pages - Hits
# The 10 first Pages must be first (order not required for others)
BEGIN_PAGEREFS 7
http://podkapot.com.ua/planner/34752/firm-view/21727/ 9 9
http://away.vk.com/away.php 2 2
http://zaporozhe.spravker.ru/avtoaksessuary/ 2 2
https://yandex.ua 2 2
https://www.yandex.ua/yandsearch 1 1
http://zaporozhe.spravker.ru/avtomagaziny/page-3/ 1 1
http://yandex.by/clck/jsredir 1 1
END_PAGEREFS

# Search keyphrases - Number of search
# The 10 first number of search must be first (order not required for others)
BEGIN_SEARCHWORDS 2
%d0%bc%d0%b0%d0%b3%d0%b0%d0%b7%d0%b8%d0%bd+%d0%b0%d0%b2%d1%82%d0%be%d0%b7%d0%b0%d0%bf%d1%87%d0%b0%d1%81%d1%82%d0%b5%d0%b9+%d0%b2+%d0%b7%d0%b0%d0%bf%d0%be%d1%80%d0%be%d0%b6%d1%8c%d0%b5+%d1%81+%d1%83%d0%bb%d1%96%d1%86%d0%b0%d0%b9 2
amazon 1
END_SEARCHWORDS

# Search keywords - Number of search
# The 10 first number of search must be first (order not required for others)
BEGIN_KEYWORDS 7
%d1%83%d0%bb%d1%96%d1%86%d0%b0%d0%b9 2
%d1%81 2
%d0%b2 2
%d0%bc%d0%b0%d0%b3%d0%b0%d0%b7%d0%b8%d0%bd 2
%d0%b0%d0%b2%d1%82%d0%be%d0%b7%d0%b0%d0%bf%d1%87%d0%b0%d1%81%d1%82%d0%b5%d0%b9 2
%d0%b7%d0%b0%d0%bf%d0%be%d1%80%d0%be%d0%b6%d1%8c%d0%b5 2
amazon 1
END_KEYWORDS

# Errors - Hits - Bandwidth
BEGIN_ERRORS 6
403 23 8800
302 69 28657
206 7 119831
500 14 10052
301 206 107162
404 1720 21877320
END_ERRORS

# URL with 404 errors - Hits - Last URL referer
BEGIN_SIDER_404 536
/avtozapchasti/zapchasti-na-legkovye-avtomobil/zapchasti-na-legkovye-avtomobili-hyundai/zapchasti-na-legkovye-avtomobili-hyundai_grandeur-ii/ 1 -
/avtozapchasti/zapchasti-na-legkovye-avtomobil/zapchasti-na-legkovye-avtomobili-peugeot/zapchasti-na-legkovye-avtomobili-peugeot_205-i-741ac/ 2 -
/avtozapchasti/zapchasti-na-legkovye-avtomobil/zapchasti-na-legkovye-avtomobili-toyota_bb-i-ncp3_/zapchasti-na-legkovye-avtomobili-toyota_noah-voxy-_azr6_/ 1 -
/searchResults 1 -
/avtozapchasti/zapchasti-na-kommercheskuyu-texniku/zapchasti-na-kommercheskuyu-texniku_man/zapchasti-na_man_lion-s-star/zapchasti-na_man-lion-s-star-rh-414-rhs-414/ 1 -
/page/2 1 -
/wp-content/plugins/dzs-videogallery/upload.php 2 -
/autooporacom.zip 1 -
/wp-content/plugins/cardoza-facebook-like-box/cardoza_facebook_like_box.php 1 -
/xmlrpc.php 25 -
/avtozapchasti/zapchasti-na-kommercheskuyu-texniku/zapchasti-na-kommercheskuyu-texniku_man/zapchasti-na_man_m-2000-l/zapchasti-na_man-m-2000-l-14-225-lk-lrk-le220b/ 1 -
/avtozapchasti/zapchasti-na-legkovye-avtomobil/zapchasti-na-legkovye-avtomobili-subaru/ 1 -
/avtozapchasti/zapchasti-na-kommercheskuyu-texniku/zapchasti-na-kommercheskuyu-texniku_daf/zapchasti-na_daf_cf/zapchasti-na_daf-cf-faq-460-fax-460/ 3 -
/light 1 -
/avtozapchasti/zapchasti-na-legkovye-avtomobil/zapchasti-na-legkovye-avtomobili-kia/zapchasti-na-legkovoj-avtomobil-kia_joice/ 1 -
/zapchast-na-legkovie-avtomobili 1 -
/administrator/ 1 -
/1.tar 1 -
/wp-content/uploads/2017/02/unnamed-file.jpg 1 http://go.mail.ru/search_images
/main 1 -
/avtozapchasti/zapchasti-na-kommercheskuyu-texniku/zapchasti-na-kommercheskuyu-texniku_renault-trucks/zapchasti-na_renault-trucks_premium/zapchasti-na_renault-trucks-premium-distribution-320-26d/ 1 -
/avtozapchasti/zapchasti-na-legkovye-avtomobil/zapchasti-na-legkovye-avtomobili-fiat/ 1 -
/avtozapchasti/zapchasti-na-kommercheskuyu-texniku/zapchasti-na-kommercheskuyu-texniku_daf/zapchasti-na_daf_lf/zapchasti-na_daf-lf-fa-310/ 1 -
/wp-content/uploads/2017/02/%D0%BB%D0%BE%D0%B3%D0%BE%D1%82%D0%B8%D0%BF_%D0%B1%D0%B5%D0%B7_%D1%84%D0%BE%D0%BD%D0%B0.png 3 -
/wp-content/plugins/cherry-plugin/admin/import-export/Tn7zm.php 1 -
/avtozapchasti/zapchasti-na-legkovye-avtomobil/zapchasti-na-legkovye-avtomobili-ford/zapchasti-na-legkovoj-avtomobil-ford_c-max-ii-dxa-cb7-dxa-ceu/ 1 -
/wp-content/plugins/content-views-query-and-display-post-page/public/assets/css/cv.css 43 http://autoopora.com/avtozapchasti-kruglosutochno/
/wp-content/plugins/dzs-portfolio/upload.php 3 -
/avtozapchasti/zapchasti-na-kommercheskuyu-texniku/zapchasti-na-kommercheskuyu-texniku_daf/zapchasti-na_daf_xf-95/zapchasti-na_daf-xf-95-fan-95-480/ 1 -
/wp-content/plugins/reflex-gallery/admin/scripts/FileUploader/php.php 1 -
/consystem.php 2 -
/avtozapchasti/zapchasti-na-kommercheskuyu-texniku/zapchasti-na-kommercheskuyu-texniku_daf/zapchasti-na_daf_f-3300/ 1 -
/avtozapchasti/zapchasti-na-kommercheskuyu-texniku/zapchasti-na-kommercheskuyu-texniku_iveco/zapchasti-na_iveco_eurotech-mp/ 1 -
/zapchasti_na_kommercheskie_avtomobili_Ford 1 -
/avtozapchasti/zapchasti-na-legkovye-avtomobil/zapchasti-na-legkovye-avtomobili-peugeot/ 3 -
/avtozapchasti/zapchasti-na-legkovye-avtomobil/zapchasti-na-legkovye-avtomobili-subaru/zapchasti-na-legkovye-avtomobili-subaru_leone-ii/ 1 -
/zapchasti_na_kommercheskie_avtomobili_Hyunday/ 1 -
/rabotaem-kruglosutochno/ 4 -
/backup.sql 1 -
/avtozapchasti/zapchasti-na-legkovye-avtomobil/zapchasti-na-legkovye-avtomobili-chrysler/zapchasti-na-legkovye-avtomobili-chrysler_es/ 1 -
/connectors/system/settings.php 1 -
/avtozapchasti/zapchasti-na-legkovye-avtomobil/zapchasti-na-legkovye-avtomobili-ford/zapchasti-na-legkovoj-avtomobil-ford_transit-tourneo-2/ 1 -
/.hg/hgrc 1 -
/wp-content/plugins/codecanyon-157782-video-gallery-wordpress-plugin-w-youtube-vimeo-/upload.php 2 -
/avtozapchasti/zapchasti-na-legkovye-avtomobil/zapchasti-na-legkovye-avtomobili-cadillac/ 1 -
/wp-content/logo_img.php 1 http://autoopora.com/wp-content/logo_img.php
/avtozapchasti/zapchasti-na-legkovye-avtomobil/zapchasti-na-legkovye-avtomobili-nissan/zapchasti-na-legkovye-avtomobili-nissan_sunny-iii-traveller-y10/ 1 -
/wp-content/uploads/2016/12/gif_300-250.gif 1 -
/kontakty 1 -
/avtozapchasti/zapchasti-na-kommercheskuyu-texniku/zapchasti-na-kommercheskuyu-texniku_daf/zapchasti-na_daf_cf-85/zapchasti-na_daf-cf-85-ftg-85-460/ 1 -
/avtozapchasti/zapchasti-na-kommercheskuyu-texniku/zapchasti-na-kommercheskuyu-texniku_man/zapchasti-na_man_lion-s-comfort/zapchasti-na_man-lion-s-comfort-rn-313/ 1 -
/kruglosutochnyj-avtomagazin-v-zaporozhe/ 12 http://yandex.ru/clck/jsredir
/avtozapchasti/zapchasti-na-kommercheskuyu-texniku/zapchasti-na-kommercheskuyu-texniku_man/zapchasti-na_man_lc/zapchasti-na_man-lc-lc-19-250/ 1 -
/avtozapchasti/zapchasti-na-kommercheskuyu-texniku/zapchasti-na-kommercheskuyu-texniku_man/zapchasti-na_man_tgm/zapchasti-na_man-tgm-13-280-faec-faerc-fal-falc-falrc/ 2 -
/avtozapchasti-v-zaporozhe/ 3 -
/avtozapchasti/zapchasti-na-legkovye-avtomobil/zapchasti-na-legkovye-avtomobili-audi/zapchasti-na-legkovye-avtomobili-audi_100-avant-43-c2/ 1 -
/avtozapchasti/zapchasti-na-legkovye-avtomobil/zapchasti-na-legkovye-avtomobili-ford/zapchasti-na-legkovoj-avtomobil-ford_cougar-ec_/ 1 -
/autoopora-com.zip 1 -
/avtozapchasti/zapchasti-na-kommercheskuyu-texniku/zapchasti-na-kommercheskuyu-texniku_man/zapchasti-na_man_f-2000/zapchasti-na_man-f-2000-27-314-dfk-dflk-dflk-l-df-ki/ 1 -
/wp-admin/admin-post.php 2 -
/wp-content/themes/autoopora_1_3_4/style.responsive.css 54 http://autoopora.com/avtozapchasti-kruglosutochno/
/karta 4 http://away.vk.com/away.php
/downloader/ 2 -
/avtozapchasti/zapchasti-na-kommercheskuyu-texniku/zapchasti-na-kommercheskuyu-texniku_daf/zapchasti-na_daf_lf-45/zapchasti-na_daf-lf-45-fa-45-160-3/ 2 -
/comments/feed/ 3 -
/postavka 1 -
/wp-content/uploads/2018/01/zgepd_oddsd.php 1 http://autoopora.com/wp-content/uploads/2018/01/zgepd_oddsd.php
/avtozapchasti/zapchasti-na-kommercheskuyu-texniku/zapchasti-na-kommercheskuyu-texniku_renault-trucks/zapchasti-na_renault-trucks_d-serie/zapchasti-na_renault-trucks-d-serie-18-access-p-320/ 2 -
/avtozapchasti/zapchasti-na-legkovye-avtomobil/zapchasti-na-legkovye-avtomobili-toyota_bb-i-ncp3_/zapchasti-na-legkovye-avtomobili-toyota_auris-nre15_-zze15_-ade15_-zre15_-nde15_/ 1 -
/avtozapchasti/zapchasti-na-kommercheskuyu-texniku/zapchasti-na-kommercheskuyu-texniku_daf/zapchasti-na_daf_xf-95/zapchasti-na_daf-xf-95-fat-95-430/ 1 https://www.google.com.ua/
/avtozapchasti/zapchasti-na-legkovye-avtomobil/zapchasti-na-legkovye-avtomobili-vw/zapchasti-na-legkovye-avtomobili-volkswagen_caddy-alltrack-universal-sab/ 1 -
/avtozapchasti/zapchasti-na-legkovye-avtomobil/zapchasti-na-legkovye-avtomobili-dodge/zapchasti-na-legkovye-avtomobili-dodge_viper-kupe/ 1 -
/wp-content/themes/gaukingo/dbv.php 1 -
/avtozapchasti/zapchasti-na-legkovye-avtomobil/zapchasti-na-legkovye-avtomobili-kia/zapchasti-na-legkovye-avtomobili-kia_besta-furgon/ 1 -
/avtozapchasti/zapchasti-na-legkovye-avtomobil/zapchasti-na-legkovye-avtomobili-lexus/zapchasti-na-legkovye-avtomobili-lexus_sc-uzz40_/ 1 -
/wp-content/plugins/wp-statment/wp-statment.php 1 -
/avtozapchasti/zapchasti-na-legkovye-avtomobil/zapchasti-na-legkovye-avtomobili-chevrolet/zapchasti-na-legkovye-avtomobili-chevrolet_caprice-classic-sedan-1bl_/ 1 -
/nichka 1 -
/carbase 2 -
/backup.zip 1 -
/wp-content/plugins/Tevolution/tmplconnector/monetize/templatic-custom_fields/single-upload.php 1 -
/avtozapchasti/zapchasti-na-kommercheskuyu-texniku/zapchasti-na-kommercheskuyu-texniku_vw/ 1 -
/avtozapchasti/zapchasti-na-kommercheskuyu-texniku/zapchasti-na-kommercheskuyu-texniku_daf/zapchasti-na_daf_f-1900/zapchasti-na_daf-f-1900-ft-1900-dnsft-1900-ns/ 1 -
/avtozapchasti/zapchasti-na-legkovye-avtomobil/zapchasti-na-legkovye-avtomobili-peugeot/zapchasti-na-legkovye-avtomobili-peugeot_rcz/ 1 -
/avtozapchasti/zapchasti-na-legkovye-avtomobil/zapchasti-na-legkovye-avtomobili-seat/zapchasti-na-legkovye-avtomobili-seat_malaga-023a/ 1 -
/autoopora.sql 1 -
/avtozapchasti/zapchasti-na-kommercheskuyu-texniku/zapchasti-na-kommercheskuyu-texniku_man/zapchasti-na_man_lion-s-city/zapchasti-na_man-lion-s-city-a-23/ 1 -
/avtozapchasti/zapchasti-na-legkovye-avtomobil/zapchasti-na-legkovye-avtomobili-chevrolet/ 2 -
/arenda-ofisa/ 3 -
/avtozapchasti/zapchasti-na-legkovye-avtomobil/zapchasti-na-legkovye-avtomobili-alfa-romeo/zapchasti-na-legkovye-avtomobili-alfa-romeo_8c-920_/ 3 -
/bacot.php 1 -
/avtozapchasti/zapchasti-na-kommercheskuyu-texniku/zapchasti-na-kommercheskuyu-texniku_isuzu/ 2 -
/avtozapchasti/zapchasti-na-kommercheskuyu-texniku/zapchasti-na-kommercheskuyu-texniku_daf/zapchasti-na_daf_cf/zapchasti-na_daf-cf-fat-400-2/ 3 -
/apple-touch-icon.png 6 -
/autoopora-com.sql 1 -
/avtozapchasti/zapchasti-na-kommercheskuyu-texniku/zapchasti-na-kommercheskuyu-texniku_temsa/ 1 -
/avtozapchasti/zapchasti-na-legkovye-avtomobil/zapchasti-na-legkovye-avtomobili-alfa-romeo/ 4 -
/akkumulyatory-2/ 1 -
/wp-content/plugins/twg-members/.conf.php 1 -
/wp-content/themes/twentytwelve/404.php 1 -
/page/2/ 75 -
/wp/ 5 -
/avtozapchasti/zapchasti-na-legkovye-avtomobil/zapchasti-na-legkovye-avtomobili-nissan/zapchasti-na-legkovye-avtomobili-nissan_trade-furgon-3/ 1 -
/wp-content/uploads/2017/02/%D0%BB%D0%B3%D0%BE%D1%82%D0%B8%D0%BF-%D0%BC%D0%B0%D0%B3%D0%B0%D0%B7%D0%B8%D0%BD%D0%B0-%D0%B7%D0%B0%D0%BF%D1%87%D0%B0%D1%81%D1%82%D0%B5%D0%B9-%D0%B2-%D0%A3%D0%BA%D1%80%D0%B0%D0%B8%D0%BD%D0%B5.jpg 3 -
/autoopora.rar 1 -
/avtozapchasti/zapchasti-na-legkovye-avtomobil/zapchasti-na-legkovye-avtomobili-nissan/ 1 -
/classwp-updater.php 1 -
/avtozapchasti/zapchasti-na-kommercheskuyu-texniku/zapchasti-na-kommercheskuyu-texniku_daf/zapchasti-na_daf_f-2700/zapchasti-na_daf-f-2700-fab-2700-hs-fag-2700-hs-far-2700-hs-2/ 1 -
/apple-touch-icon-precomposed.png 6 -
/avtozapchasti/zapchasti-na-legkovye-avtomobil/zapchasti-na-legkovye-avtomobili-mercedes-benz/zapchasti-na-legkovye-avtomobili-mercedes-benz_e-class-kupe-c207/ 1 -
/avtozapchasti-kruglosutochno-v-zaporozhe/ 27 -
/category/kruglosutochnyj-avtomagazin-v-zaporozhe/page/3/ 1 -
/1.zip 1 -
/avtozapchasti/zapchasti-na-kommercheskuyu-texniku/zapchasti-na-kommercheskuyu-texniku_man/zapchasti-na_man_tgs/zapchasti-na_man-tgs-26-440-fdk-fdlk-2/ 1 -
/avtozapchasti-v-zaporozhe-kruglosutochno/ 8 https://www.google.de/
/wp-content/plugins/formcraft/file-upload/server/content/upload.php 2 -
/wp-content/plugins/contus-hd-flv-player/uploadVideo.php 1 -
/avtozapchasti/ 29 -
/avtozapchasti/zapchasti-na-kommercheskuyu-texniku/zapchasti-na-kommercheskuyu-texniku_daf/zapchasti-na_daf_75-cf/zapchasti-na_daf-75-cf-fan-75-cf-250/ 1 -
/avtozapchasti/zapchasti-na-legkovye-avtomobil/zapchasti-na-legkovye-avtomobili-ford/zapchasti-na-legkovoj-avtomobil-ford_ka-ru8/ 1 -
/wp-content/plugins/gallery-plugin/upload/php.php 1 -
/wp-content/plugins/php-event-calendar/server/file-uploader/ 1 -
/avtozapchasti/zapchasti-na-kommercheskuyu-texniku/zapchasti-na-kommercheskuyu-texniku_man/zapchasti-na_man_tgs/zapchasti-na_man-tgs-26-400-fdak-fdalk-fdhlk-fdhk/ 1 -
/rep.php 1 -
/avtozapchasti/zapchasti-na-legkovye-avtomobil/zapchasti-na-legkovye-avtomobili-seat/ 1 -
/avtozapchasti/zapchasti-na-legkovye-avtomobil/zapchasti-na-legkovye-avtomobili-toyota_bb-i-ncp3_/zapchasti-na-legkovye-avtomobili-toyota_celsior-ucf3_/ 1 -
/avtozapchasti/zapchasti-na-legkovye-avtomobil/zapchasti-na-legkovye-avtomobili-citroen/zapchasti-na-legkovye-avtomobili-citroen_xm-break-y3/ 2 -
/shiny-diski/diski/ 4 -
/zapchast-na-cheshskie-avtomobili 1 -
/avtozapchasti/zapchasti-na-kommercheskuyu-texniku/zapchasti-na-kommercheskuyu-texniku_man/zapchasti-na_man_tgm/zapchasti-na_man-tgm-26-280-fd-tm-fdr-tm/ 2 -
/avtozapchasti/zapchasti-na-kommercheskuyu-texniku/zapchasti-na-kommercheskuyu-texniku_daf/zapchasti-na_daf_f-2700/zapchasti-na_daf-f-2700-fa-2700-hs/ 1 -
/tag/zapchasti-dlya-legkovyx-inomarok/page/3/ 1 -
/akkumulyatornyj-servis 1 -
/wp-content/plugins/simple-dropbox-upload-form/dragup 1 176.114.1.30
/nalichie/ 17 http://www.autoopora.com/
/autoopora.tar.gz 1 -
/avtozapchasti/zapchasti-na-kommercheskuyu-texniku/zapchasti-na-kommercheskuyu-texniku_man/zapchasti-na_man_ng/zapchasti-na_man-ng-ng-262-ng-272/ 2 -
/joomla/robots.txt 1 -
/avtozapchasti/zapchasti-na-kommercheskuyu-texniku/zapchasti-na-kommercheskuyu-texniku_man/zapchasti-na_man_m-2000-l/zapchasti-na_man-m-2000-l-18-224-18-225-l-ko-lr-ko/ 1 -
/wp-content/plugins/mailpress/mp-includes/action.php 1 -
/avtozapchasti/zapchasti-na-legkovye-avtomobil/zapchasti-na-legkovye-avtomobili-nissan/zapchasti-na-legkovye-avtomobili-nissan_vanette-cargo-avtobus-hc-23/ 2 -
/.svn/wc.db 1 -
/avtozapchasti/zapchasti-na-legkovye-avtomobil/zapchasti-na-legkovye-avtomobili-renault/zapchasti-na-legkovye-avtomobili-renault_laguna-kupe-dt0-1/ 1 -
/avtozapchasti/zapchasti-na-kommercheskuyu-texniku/zapchasti-na-kommercheskuyu-texniku_daf/zapchasti-na_daf_xf-95/zapchasti-na_daf-xf-95-ftp-95-530/ 1 -
/autoopora.zip 1 -
/wp-includes/js/comment-reply.min.js 25 http://autoopora.com/avtozapchasti-kruglosutochno/
/avtozapchasti/zapchasti-na-legkovye-avtomobil/zapchasti-na-legkovye-avtomobili-bmw/zapchasti-na-legkovye-avtomobili-bmw_6-e24/ 1 -
/avtozapchasti/zapchasti-na-kommercheskuyu-texniku/zapchasti-na-kommercheskuyu-texniku_daf/zapchasti-na_daf-95/zapchasti-na_daf-95-fa-95-360/ 1 -
/avtozapchasti/zapchasti-na-kommercheskuyu-texniku/zapchasti-na-kommercheskuyu-texniku_renault-trucks/zapchasti-na_renault-trucks_midlum/zapchasti-na_renault-trucks-midlum-240-18/ 1 -
/wp-content/plugins/php-event-calendar/css/file-uploader/jquery.fileupload.css 1 -
/avtozapchasti/zapchasti-na-kommercheskuyu-texniku/zapchasti-na-kommercheskuyu-texniku_man/zapchasti-na_man_tgs/zapchasti-na_man-tgs-26-400-fdac-fdalc-fdhlc-fdhlcm/ 1 -
/avtozapchasti/zapchasti-na-legkovye-avtomobil/zapchasti-na-legkovye-avtomobili-hummer/zapchasti-na-legkovye-avtomobili-hummer_h1-vezdexod/ 1 -
/avtozapchasti/zapchasti-na-kommercheskuyu-texniku/zapchasti-na-kommercheskuyu-texniku_man/zapchasti-na_man_cla/zapchasti-na_man-cla-26-280-fdk-fdrk/ 2 -
/wp-content/plugins/google-maps-by-daniel-martyn/inuse.php 1 -
/avtozapchasti/zapchasti-na-kommercheskuyu-texniku/zapchasti-na-kommercheskuyu-texniku_daf/zapchasti-na_daf_f-800/zapchasti-na_daf-f-800-fa-800-cn/ 1 -
/category/kruglosutochnyj-avtomagazin-v-zaporozhe/page/4/ 1 -
/tag/avtomasla/page/2/ 1 -
/rabotaem-kruglosutochno 2 -
/avtozapchasti/zapchasti-na-legkovye-avtomobil/zapchasti-na-legkovye-avtomobili-audi/zapchasti-na-legkovye-avtomobili-audi_tt-fv3/ 1 -
/avtozapchasti/zapchasti-na-kommercheskuyu-texniku/zapchasti-na-kommercheskuyu-texniku_daf/zapchasti-na_daf-95/zapchasti-na_daf-95-ftg-95-330-2/ 1 -
/.ssh/id_rsa 1 -
/wp-content/plugins/wp-file-manager/js/fm_script.js 1 -
/avtozapchasti/zapchasti-na-kommercheskuyu-texniku/ 1 -
/avtozapchasti/zapchasti-na-kommercheskuyu-texniku/zapchasti-na-kommercheskuyu-texniku_man/zapchasti-na_man_em/zapchasti-na_man-em-em-192/ 1 -
/avtozapchasti/zapchasti-na-kommercheskuyu-texniku/zapchasti-na-kommercheskuyu-texniku_iveco/ 2 -
/avtozapchasti/zapchasti-na-kommercheskuyu-texniku/zapchasti-na-kommercheskuyu-texniku_daf/zapchasti-na_daf_f-2700/zapchasti-na_daf-f-2700-fab-2700-hs-fag-2700-hs-far-2700-hs/ 1 -
/avtozapchasti/zapchasti-na-kommercheskuyu-texniku/zapchasti-na-kommercheskuyu-texniku_daf/zapchasti-na_daf_xf-95/zapchasti-na_daf-xf-95-ftr-95-430/ 1 -
/wp-content/plugins/cherry-plugin/admin/import-export/eoDTt.php 1 -
/kruglosutochnyj-avtomagazin-v-zaporozhe 1 -
/avtozapchasti/zapchasti-na-kommercheskuyu-texniku/zapchasti-na-kommercheskuyu-texniku_mitsubishi/zapchasti-na_mitsubishi_fuso/ 1 -
/wp-content/themes/version.php 4 -
/avtozapchasti/zapchasti-na-legkovye-avtomobil/zapchasti-na-legkovye-avtomobili-mitsubishi/zapchasti-na-legkovye-avtomobili-mitsubishi_lancer-iii-c1_a-c6_a/ 1 -
/avtozapchasti/zapchasti-na-legkovye-avtomobil/zapchasti-na-legkovye-avtomobili-jeep/ 3 -
/autooporacom.tar.gz 1 -
/wp-admin/admin-ajax.php 18 -
/page/4 1 -
/avtozapchasti-kruglosutochno/ 1 -
/avtozapchasti/zapchasti-na-legkovye-avtomobil/zapchasti-na-legkovye-avtomobili-suzuki/zapchasti-na-legkovye-avtomobili-suzuki_swift-iii-mz-ez/ 1 -
/avtozapchasti/zapchasti-na-legkovye-avtomobil/zapchasti-na-legkovye-avtomobili-ford/ 1 -
/1.sql 1 -
/blog/administrator/index.php 1 -
/avtozapchasti/zapchasti-na-legkovye-avtomobil/zapchasti-na-legkovye-avtomobili-nissan/zapchasti-na-legkovye-avtomobili-nissan_nv300-kombi-x82/ 1 -
/wp-content/plugins/cherry-plugin/admin/import-export/LubdH.php 1 -
/akkumulyatornyj-servis/ 6 -
/wp-content/plugins/cacheformwp.php 1 -
/wp-content/plugins/wp-property/third-party/uploadify/uploadify.php 1 -
/zapchasti-na-gruzoviki/ 7 -
/avtozapchasti/zapchasti-na-kommercheskuyu-texniku/zapchasti-na-kommercheskuyu-texniku_man/zapchasti-na_man_em/zapchasti-na_man-em-em-223/ 2 -
/avtozapchasti/zapchasti-na-legkovye-avtomobil/zapchasti-na-legkovye-avtomobili-renault/zapchasti-na-legkovye-avtomobili-renault_estafette-213_/ 1 -
/public.rar 1 -
/zapchasti_na_legkovie_avtomobili_FORD 1 -
/avtozapchasti/zapchasti-na-legkovye-avtomobil/zapchasti-na-legkovye-avtomobili-mercedes-benz/zapchasti-na-legkovye-avtomobili-mercedes-benz_c-class-w202/ 1 -
/zapchasti-na-legkovye-avto 2 -
/public_html.zip 1 -
/avtozapchasti/zapchasti-na-kommercheskuyu-texniku/zapchasti-na-kommercheskuyu-texniku_ford/ 2 -
/avtozapchasti/zapchasti-na-kommercheskuyu-texniku/zapchasti-na-kommercheskuyu-texniku_daf/zapchasti-na_daf_95-xf/zapchasti-na_daf-95-xf-ftt-95-xf-530-2/ 1 -
/zakazat-avtozapchast/ 4 -
/avtozapchasti/zapchasti-na-kommercheskuyu-texniku/zapchasti-na-kommercheskuyu-texniku_man/zapchasti-na_man_tga/zapchasti-na_man-tga-18-380-flrc/ 1 -
/avtozapchasti/zapchasti-na-legkovye-avtomobil/zapchasti-na-legkovye-avtomobili-dodge/ 1 -
/avtoelektrika 2 -
/avtozapchasti/zapchasti-na-legkovye-avtomobil/zapchasti-na-legkovye-avtomobili-dodge/zapchasti-na-legkovye-avtomobili-dodge_challenger-kupe/ 1 -
/avtozapchasti/zapchasti-na-kommercheskuyu-texniku/zapchasti-na-kommercheskuyu-texniku_daf/zapchasti-na_daf_85/zapchasti-na_daf-85-ftg-85-400/ 1 -
/vinqu 1 -
/avtozapchasti/zapchasti-na-kommercheskuyu-texniku/zapchasti-na-kommercheskuyu-texniku_kamaz/ 2 -
/controller.php 1 -
/sftp_config.json 1 -
/avtozapchasti/zapchasti-na-kommercheskuyu-texniku/zapchasti-na-kommercheskuyu-texniku_renault-trucks/zapchasti-na_renault-trucks_c/zapchasti-na_renault-trucks-c-clm-320-25-t/ 1 -
/avtozapchasti/zapchasti-na-legkovye-avtomobil/zapchasti-na-legkovye-avtomobili-audi/zapchasti-na-legkovye-avtomobili-audi_a6-avant-4f5-c6/ 1 -
/klient 1 -
/wp-content/w0.php 1 -
/wp-content/plugins/product-enquiry-for-woocommerce/js/contact.js 8 http://autoopora.com/masla-i-texnicheskie-zhidkosti/texnicheskie-zhidkosti/
/avtozapchasti/zapchasti-na-kommercheskuyu-texniku/zapchasti-na-kommercheskuyu-texniku_daf/zapchasti-na_daf_45/zapchasti-na_daf-45-fa-45-130-c08/ 1 -
/wp-json/ 7 -
/avtozapchasti/zapchasti-na-legkovye-avtomobil/zapchasti-na-legkovye-avtomobili-vw/ 2 -
//wp-content/plugins/mailpress/mp-includes/action.php 1 -
/avtozapchasti/zapchasti-na-kommercheskuyu-texniku/zapchasti-na-kommercheskuyu-texniku_man/zapchasti-na_man_f-2000/zapchasti-na_man-f-2000-24-463-fnllc/ 1 -
/wp-content/uploads/user_uploads/0qUEe.php.png 1 -
/avtozapchasti/zapchasti-na-legkovye-avtomobil/zapchasti-na-legkovye-avtomobili-vw/zapchasti-na-legkovye-avtomobili-volkswagen_caddy-iii-furgon-2ka-2kh-2ca-2ch/ 1 -
/wp-content/plugins/wp-support-plus-responsive-ticket-system/lang/README.md 1 -
/avtozapchasti/zapchasti-na-legkovye-avtomobil/zapchasti-na-legkovye-avtomobili-mitsubishi/zapchasti-na-legkovye-avtomobili-mitsubishi_colt-iv-ca_a/ 1 -
/avtoelektrika/ 9 -
/autooporacom.sql 1 -
/wp-content/plugins/sharexy/ajaxresponder.php 1 -
/avtozapchasti/zapchasti-na-legkovye-avtomobil/zapchasti-na-legkovye-avtomobili-lada/ 3 -
/avtozapchasti/zapchasti-na-kommercheskuyu-texniku/zapchasti-na-kommercheskuyu-texniku_daf/zapchasti-na_daf_95-xf/zapchasti-na_daf-95-xf-ftg-95-xf-380/ 1 -
/avtozapchasti/zapchasti-na-legkovye-avtomobil/zapchasti-na-legkovye-avtomobili-jaguar/ 2 -
/public.tar.gz 1 -
/wp-content/plugins/codecanyon-157782-video-gallery-wordpress-plugin-w-youtube-vimeo-/admin/upload.php 2 -
/avtozapchasti/zapchasti-na-legkovye-avtomobil/zapchasti-na-legkovye-avtomobili-bmw/ 2 -
/gear_oils_catalog 3 -
/avtozapchasti/zapchasti-na-kommercheskuyu-texniku/zapchasti-na-kommercheskuyu-texniku_renault-trucks/zapchasti-na_renault-trucks_d-serie/zapchasti-na_renault-trucks-d-serie-14-p-280-14-kp-280/ 2 -
/wp-content/plugins/xcloner-backup-and-restore/readme.txt 1 -
/wp-content/wp-caches.php 1 http://autoopora.com/wp-content/wp-caches.php
/wp-content/plugins/gallery-plugin/upload/files/neTyr.php.png 2 -
/wp-content/plugins/wpstorecart/php/upload.php 3 -
/wp-admin/plugin-editor.php 1 -
/avtozapchasti/zapchasti-na-legkovye-avtomobil/zapchasti-na-legkovye-avtomobili-suzuki/ 2 -
/avtozapchasti/zapchasti-na-kommercheskuyu-texniku/zapchasti-na-kommercheskuyu-texniku_man/zapchasti-na_man_nm/zapchasti-na_man-nm-nm-182-nm-192/ 2 -
/avtozapchasti/zapchasti-na-legkovye-avtomobil/zapchasti-na-legkovye-avtomobili-nissan/zapchasti-na-legkovye-avtomobili-nissan_datsun-120/ 1 -
/masla-i-texnicheskie-zhidkosti/texnicheskie-zhidkosti/ 1 -
/wp-content/plugins/analytic/js/luc.ajax.datepicker.js 1 -
/wp-content/common.php 1 http://autoopora.com/wp-content/common.php
/zapchasti-na-kommercheskuyu-texniku/ 2 -
/base64s.php 1 -
/avtozapchasti/zapchasti-na-legkovye-avtomobil/zapchasti-na-legkovye-avtomobili-fiat/zapchasti-na-legkovye-avtomobili-fiat_ducato-furgon-280_/ 1 -
/avtozapchasti/zapchasti-na-legkovye-avtomobil/zapchasti-na-legkovye-avtomobili-vw/zapchasti-na-legkovye-avtomobili-volkswagen_golf-iii-cabriolet-1e7/ 1 -
/blog/robots.txt 6 -
/avtozapchasti/zapchasti-na-legkovye-avtomobil/zapchasti-na-legkovye-avtomobili-lexus/zapchasti-na-legkovye-avtomobili-lexus_rx-mhu3_-gsu3_-mcu3_/ 1 -
/avtozapchasti/zapchasti-na-kommercheskuyu-texniku/zapchasti-na-kommercheskuyu-texniku_man/zapchasti-na_man_tga/zapchasti-na_man-tga-18-480-fhlk-fhlkm/ 1 -
/avtozapchasti/zapchasti-na-kommercheskuyu-texniku/zapchasti-na-kommercheskuyu-texniku_daf/zapchasti-na_daf_f-2800/zapchasti-na_daf-f-2800-fac-2803-dkse/ 1 -
/catalog/view/javascript/new/swiper.setting.js 4 http://autoopora.com/index.php
/far.php 1 -
/wp-content/uploader.php 1 http://autoopora.com/wp-content/uploader.php
/wp-admin/wp-ps.php 1 -
/avtozapchasti/zapchasti-na-kommercheskuyu-texniku/zapchasti-na-kommercheskuyu-texniku_man/zapchasti-na_man_f-2000/zapchasti-na_man-f-2000-19-343-fas/ 1 -
/autoopora.com.rar 1 -
/page/3 1 -
/wp-content/plugins/dzs-portfolio/admin/upload.php 1 -
/avtozapchasti/zapchasti-na-legkovye-avtomobil/zapchasti-na-legkovye-avtomobili-nissan/zapchasti-na-legkovye-avtomobili-nissan_patrol-vi-y62/ 1 -
/avtozapchasti/zapchasti-na-kommercheskuyu-texniku/zapchasti-na-kommercheskuyu-texniku_man/zapchasti-na_man_hocl/zapchasti-na_man-hocl-11-150-hocl/ 1 -
/autooporacom.rar 1 -
/index.php 43 -
/avtozapchasti/zapchasti-na-legkovye-avtomobil/zapchasti-na-legkovye-avtomobili-kia/ 3 -
/wordpress/ 5 -
/admin.php 1 -
/wp-content/plugins/up.php 1 http://autoopora.com/wp-content/plugins/up.php
/zapchast-na-ukrainskie-avtomobili 1 -
/tag/zapchasti-dlya-kommercheskix-avtomobilej/page/6/ 1 -
/vakansii/ 4 -
/vakansii 1 -
/avtozapchasti/zapchasti-na-legkovye-avtomobil/zapchasti-na-legkovye-avtomobili-saab/ 2 -
/wp-content/themes/autoopora_1_3_4/jquery.js 20 http://autoopora.com/avtozapchasti/zapchasti-na-kommercheskuyu-texniku/zapchasti-na-kommercheskuyu-texniku_renault-trucks/zapchasti-na_renault-trucks_premium/zapchasti-na_renault-trucks-premium-distribution-320-26d/
/autoopora_com.zip 1 -
/wp-content/plugins/cherry-plugin/admin/import-export/QEGox.php 1 -
/autoopora_com.sql 1 -
/zapchasti_na_kommercheskie_avtomobili_SINOTRUK_CNHTC 1 -
/public_html.tar.gz 1 -
/avtozapchasti/zapchasti-na-kommercheskuyu-texniku/zapchasti-na-kommercheskuyu-texniku_man/zapchasti-na_man_nm/zapchasti-na_man-nm-nm-222-nm-223/ 2 -
/avtozapchasti/zapchasti-na-legkovye-avtomobil/zapchasti-na-legkovye-avtomobili-daewoo/ 2 -
/zapchasti-na-legkovye-avtomobil/ 1 -
/wp-content/plugins/dzs-videogallery/admin/upload.php 1 -
/site/CHANGELOG.txt 1 -
/avtozapchasti/zapchasti-na-kommercheskuyu-texniku/zapchasti-na-kommercheskuyu-texniku_man/zapchasti-na_man_e-2000/zapchasti-na_man-e-2000-50-460-vfvk-vfvk-hk-vfv-g/ 2 -
/kolesa 2 -
/wp-content/plugins/cherry-plugin/admin/css/cherry-admin-plugin.css 2 -
/wp-login.php 99 -
/avtozapchasti/zapchasti-na-kommercheskuyu-texniku/zapchasti-na-kommercheskuyu-texniku_renault-trucks/zapchasti-na_renault-trucks_c-serie/zapchasti-na_renault-trucks-c-serie-440p-440pk-3/ 1 -
/akkumulyatory-2 3 -
/avtozapchasti/zapchasti-na-kommercheskuyu-texniku/zapchasti-na-kommercheskuyu-texniku_daf/zapchasti-na_daf_lf-55/zapchasti-na_daf-lf-55-fa-55-250-6/ 1 -
/akcii 2 -
/avtozapchasti/zapchasti-na-legkovye-avtomobil/zapchasti-na-legkovye-avtomobili-ford/zapchasti-na-legkovoj-avtomobil-ford_transit-courier-furgon/ 1 -
/page/5 1 -
/avtozapchasti/zapchasti-na-kommercheskuyu-texniku/zapchasti-na-kommercheskuyu-texniku_renault-trucks/zapchasti-na_renault-trucks_k-serie/zapchasti-na_renault-trucks-k-serie-380t-medium-380t-heavy-3/ 1 -
/tag/kruglosutochnyj-avtomagazin-v-zaporozhe/ 11 -
/zapchasti_na_kommercheskie_avtomobili 2 -
//wp-content/plugins/codecanyon-157782-video-gallery-wordpress-plugin-w-youtube-vimeo-/upload.php 1 -
/blog/xmlrpc.php 2 -
/wp-content/plugins/product-enquiry-for-woocommerce/js/wdm_jquery.validate.min.js 9 http://autoopora.com/avtozapchasti-kruglosutochno/
/oils_catalog 2 -
/avtozapchasti/zapchasti-na-legkovye-avtomobil/zapchasti-na-legkovye-avtomobili-citroen/zapchasti-na-legkovye-avtomobili-citroen_jumpy-furgon-2/ 1 -
/avtozapchasti/zapchasti-na-legkovye-avtomobil/zapchasti-na-legkovye-avtomobili-jaguar/zapchasti-na-legkovye-avtomobili-jaguar_xk-kabrio-qq6_/ 1 -
/blog/CHANGELOG.txt 1 -
/masla-i-texnicheskie-zhidkosti/ 7 -
/avtozapchasti/zapchasti-na-legkovye-avtomobil/zapchasti-na-legkovye-avtomobili-ssangyong/ 1 -
/wp-content/plugins/contact-form-7/includes/css/styles.css 43 http://autoopora.com/avtozapchasti-kruglosutochno/
/masla-i-texnicheskie-zhidkosti/masla 1 -
/wp-content/themes/autoopora_1_3_4/script.responsive.js 20 http://autoopora.com/avtozapchasti/zapchasti-na-kommercheskuyu-texniku/zapchasti-na-kommercheskuyu-texniku_renault-trucks/zapchasti-na_renault-trucks_premium/zapchasti-na_renault-trucks-premium-distribution-320-26d/
/zakazat-zvonok/ 8 -
/avtozapchasti/zapchasti-na-kommercheskuyu-texniku/zapchasti-na-kommercheskuyu-texniku_gaz/ 1 -
/avtozapchasti/zapchasti-na-legkovye-avtomobil/zapchasti-na-legkovye-avtomobili-mercedes-benz/zapchasti-na-legkovye-avtomobili-mercedes-benz_100-bortovoj-631/ 1 -
/wp-content/plugins/maxbuttons/assets/libraries/font-awesome/css/font-awesome.min.css 54 http://autoopora.com/avtozapchasti-kruglosutochno/
/avtozapchasti/zapchasti-na-legkovye-avtomobil/zapchasti-na-legkovye-avtomobili-toyota_bb-i-ncp3_/zapchasti-na-legkovye-avtomobili-toyota_yaris-scp1_-nlp1_-ncp1_/ 1 -
/avtozapchasti/zapchasti-na-kommercheskuyu-texniku/zapchasti-na-kommercheskuyu-texniku_mercedes-benz/zapchasti-na_mercedes-benz_actros-mp4/ 1 -
/shiny-diski/diski 1 -
/wp-content/uploads/ 10 http://autoopora.com/wp-content/uploads/
/tag/avtoopora/page/6/ 1 https://www.google.com.ua/
/zapchasti_na_kommercheskie_avtomobili_MAZ-MAN/ 1 -
/avtozapchasti/zapchasti-na-kommercheskuyu-texniku/zapchasti-na-kommercheskuyu-texniku_man/zapchasti-na_man_tgs/zapchasti-na_man-tgs-18-440-fls-flsm-fls-ts-flrs-flrsm-flls-fllsn-fllrs/ 1 -
/.idea/WebServers.xml 1 -
/avtozapchasti/zapchasti-na-legkovye-avtomobil/ 5 -
/wp-content/uploads/wpstorecart/NAppV.php 1 -
/avtozapchasti/zapchasti-na-legkovye-avtomobil/zapchasti-na-legkovye-avtomobili-lexus/ 2 -
/avtozapchasti/zapchasti-na-legkovye-avtomobil/zapchasti-na-legkovye-avtomobili-toyota_bb-i-ncp3_/zapchasti-na-legkovye-avtomobili-toyota_1000-kp30_/ 1 -
/avtozapchasti/zapchasti-na-legkovye-avtomobil/zapchasti-na-legkovye-avtomobili-audi/zapchasti-na-legkovye-avtomobili-audi_q2/ 1 -
/avtozapchasti/zapchasti-na-legkovye-avtomobil/zapchasti-na-legkovye-avtomobili-audi/ 2 -
/avtozapchasti/zapchasti-na-legkovye-avtomobil/zapchasti-na-legkovye-avtomobili-bmw/zapchasti-na-legkovye-avtomobili-bmw_x4-f26/ 1 -
/avtozapchasti/zapchasti-na-kommercheskuyu-texniku/zapchasti-na-kommercheskuyu-texniku_renault-trucks/zapchasti-na_renault-trucks_magnum/zapchasti-na_renault-trucks-magnum-dxi-12-440-26/ 1 -
/avtozapchasti/zapchasti-na-legkovye-avtomobil/zapchasti-na-legkovye-avtomobili-toyota_bb-i-ncp3_/zapchasti-na-legkovye-avtomobili-toyota_town-ace-avtobus/ 1 -
/shiny-diski/ 2 -
/feed/ 2 autoopora.com
/shop/CHANGELOG.txt 1 -
/feedback 1 -
/avtozapchasti/zapchasti-na-kommercheskuyu-texniku/zapchasti-na-kommercheskuyu-texniku_man/zapchasti-na_man_tgs/zapchasti-na_man-tgs-19-480-fs-m-ww-frs-m-ww-fls-m-ww-flrs-m-ww/ 2 -
/forum/CHANGELOG.txt 1 -
/avtozapchasti/zapchasti-na-legkovye-avtomobil/zapchasti-na-legkovye-avtomobili-vw/zapchasti-na-legkovye-avtomobili-volkswagen_lt-28-35-i-furgon-281-363/ 1 -
/.git/config 1 -
/public.zip 1 -
/wp-content/plugins/content-views-query-and-display-post-page/public/assets/js/cv.js 17 http://autoopora.com/page/2/
/wp-content/plugins/page-google-maps/pr.php 2 -
/avtozapchasti/zapchasti-na-legkovye-avtomobil/zapchasti-na-legkovye-avtomobili-opel/ 2 -
/avtozapchasti/zapchasti-na-legkovye-avtomobil/zapchasti-na-legkovye-avtomobili-mazda/ 2 -
/drupal/CHANGELOG.txt 1 -
/avtozapchasti/zapchasti-na-legkovye-avtomobil/zapchasti-na-legkovye-avtomobili-peugeot/zapchasti-na-legkovye-avtomobili-peugeot_expert-furgon-222/ 1 -
/avtozapchasti/zapchasti-na-kommercheskuyu-texniku/zapchasti-na-kommercheskuyu-texniku_man/zapchasti-na_man_l-2000/zapchasti-na_man-l-2000-8-163-laek-laek-l-laerk-laerk-l-lak-lak-l-lark-lark-l/ 1 -
/page/6/ 2 -
/avtozapchasti/zapchasti-na-kommercheskuyu-texniku/zapchasti-na-kommercheskuyu-texniku_nissan/zapchasti-na_nissan_eco-t/ 1 -
/avtozapchasti/zapchasti-na-kommercheskuyu-texniku/zapchasti-na-kommercheskuyu-texniku_renault-trucks/zapchasti-na_renault-trucks_d-serie/ 1 -
/shiny-diski/shiny/ 2 -
/wp-content/themes/autoopora_1_3_4/style.css 23 http://autoopora.com/category/kruglosutochnyj-avtomagazin-v-zaporozhe/page/3/
/fghhgfs.php 1 -
/avtozapchasti/zapchasti-na-kommercheskuyu-texniku/zapchasti-na-kommercheskuyu-texniku_man/ 2 -
/zapchasti_na_kommercheskie_avtomobili_Foton/ 2 -
/backup.tar.gz 1 -
/wp-content/plugins/cherry-plugin/admin/import-export/upload.php 2 -
/autoopora-com.tar.gz 1 -
/wp-content/themes/twentyeleven/404.php 1 -
/avtozapchasti/zapchasti-na-kommercheskuyu-texniku/zapchasti-na-kommercheskuyu-texniku_setra/ 1 -
/autoopora.com.tar.gz 1 -
/avtozapchasti/zapchasti-na-kommercheskuyu-texniku/zapchasti-na-kommercheskuyu-texniku_daf/zapchasti-na_daf_f-2100/zapchasti-na_daf-f-2100-fag-2100-dhrfag-2105-dhrfag-2100-dhtd/ 1 -
/avtozapchasti/zapchasti-na-legkovye-avtomobil/zapchasti-na-legkovye-avtomobili-mercedes-benz/zapchasti-na-legkovye-avtomobili-mercedes-benz_gls-x166/ 1 -
/administrator/components/com_joomlaupdate/restore.php 2 -
/wp-content/themes/twentythirteen/404.php 1 -
/tag/zapchasti-dlya-kommercheskix-avtomobilej/ 2 -
/avtozapchasti/zapchasti-na-kommercheskuyu-texniku/zapchasti-na-kommercheskuyu-texniku_renault-trucks/zapchasti-na_renault-trucks_d-serie/zapchasti-na_renault-trucks-d-serie-18-access-p-280/ 1 -
/avtozapchasti/zapchasti-na-legkovye-avtomobil/zapchasti-na-legkovye-avtomobili-toyota_bb-i-ncp3_/zapchasti-na-legkovye-avtomobili-toyota_opa-zct1_-act1_/ 1 -
/wp-content/uploads/2017/05/EeGkl53hLps.jpg 1 -
/blog/ 5 -
/avtozapchasti/zapchasti-na-kommercheskuyu-texniku/zapchasti-na-kommercheskuyu-texniku_daf/zapchasti-na_daf_f-1000/zapchasti-na_daf-f-1000-fa-1000-cn/ 1 -
/zakazat-zvonok 2 -
/avtozapchasti/zapchasti-na-kommercheskuyu-texniku/zapchasti-na-kommercheskuyu-texniku_renault-trucks/zapchasti-na_renault-trucks_midliner/zapchasti-na_renault-trucks-midliner-m-180-12c-btp/ 1 -
/avtozapchasti/zapchasti-na-legkovye-avtomobil/zapchasti-na-legkovye-avtomobili-nissan/zapchasti-na-legkovye-avtomobili-nissan_370-z-kupe-z34/ 1 -
/avtozapchasti/zapchasti-na-kommercheskuyu-texniku/zapchasti-na-kommercheskuyu-texniku_tata/ 2 -
/wp-includes/js/wp-emoji-release.min.js 21 http://autoopora.com/avtozapchasti/zapchasti-na-legkovye-avtomobil/zapchasti-na-legkovye-avtomobili-hyundai/zapchasti-na-legkovye-avtomobili-hyundai_grandeur-tg/
/tyres_catalog 2 -
/avtozapchasti/zapchasti-na-kommercheskuyu-texniku/zapchasti-na-kommercheskuyu-texniku_man/zapchasti-na_man_f-90-unterflur/zapchasti-na_man-f-90-unterflur-24-362-unl24-362-unll/ 1 -
/autoopora_com.rar 1 -
/arenda-boksa-pod-sto/ 11 -
/tag/zapchasti-dlya-legkovyx-inomarok/page/2/ 1 -
/wp-content/uploads/2017/05/SLQHFXVmBdI.jpg 3 -
/avtozapchasti/zapchasti-na-legkovye-avtomobil/zapchasti-na-legkovye-avtomobili-ford/zapchasti-na-legkovoj-avtomobil-ford_transit-furgon-v_-_/ 1 -
/avtozapchasti/zapchasti-na-legkovye-avtomobil/zapchasti-na-legkovye-avtomobili-hyundai/zapchasti-na-legkovye-avtomobili-hyundai_porter-pikap/ 1 -
/avtozapchasti/zapchasti-na-legkovye-avtomobil/zapchasti-na-legkovye-avtomobili-fiat/zapchasti-na-legkovye-avtomobili-fiat_palio-weekend-178_/ 1 -
/store/CHANGELOG.txt 1 -
/avtozapchasti/zapchasti-na-legkovye-avtomobil/zapchasti-na-legkovye-avtomobili-chevrolet/zapchasti-na-legkovye-avtomobili-chevrolet_tahoe-gmt400/ 1 -
/avtozapchasti/zapchasti-na-legkovye-avtomobil/zapchasti-na-legkovye-avtomobili-opel/zapchasti-na-legkovye-avtomobili-opel_gt-kabrio/ 1 -
/wp-content/scodby.php 1 -
/wp-content/plugins/cardoza-facebook-like-box/custom-css/xo.php 3 -
/wp-content/plugins/wp-support-plus-responsive-ticket-system/readme.txt 1 -
/sftp-config.json 1 -
/wp-content/uploads/2017/01/unnamed-file-1.png 1 -
/akkumulyatornyj-servis/akkumulyatory-2/ 6 -
/avtozapchasti/zapchasti-na-kommercheskuyu-texniku/zapchasti-na-kommercheskuyu-texniku_foton/ 2 -
/wp-content/plugins/fluid_forms/file-upload/server/node/server.js 1 -
/wp-content/plugins/wp-symposium/server/php/index.php 2 -
/kontakty/ 8 -
/avtozapchasti/zapchasti-na-kommercheskuyu-texniku/zapchasti-na-kommercheskuyu-texniku_man/zapchasti-na_man_m-2000-l/zapchasti-na_man-m-2000-l-18-255-lk-lk-l-llk-llk-lllrk-lrk/ 1 -
/Pamelas.php 1 -
/avtozapchasti/zapchasti-na-legkovye-avtomobil/zapchasti-na-legkovye-avtomobili-vw/zapchasti-na-legkovye-avtomobili-volkswagen_golf-vi-kabrio-517/ 1 -
/avtozapchasti/zapchasti-na-legkovye-avtomobil/zapchasti-na-legkovye-avtomobili-nissan/zapchasti-na-legkovye-avtomobili-nissan_vanette-avtobus-kc120/ 1 -
/avtozapchasti/zapchasti-na-legkovye-avtomobil/zapchasti-na-legkovye-avtomobili-opel/zapchasti-na-legkovye-avtomobili-opel_adam/ 1 -
/avtozapchasti/zapchasti-na-legkovye-avtomobil/zapchasti-na-legkovye-avtomobili-renault/ 3 -
/wp-content/plugins/simple-dropbox-upload-form/dragup/ 1 -
/avtozapchasti/zapchasti-na-legkovye-avtomobil/zapchasti-na-legkovye-avtomobili-honda/ 4 -
/avtozapchasti/zapchasti-na-legkovye-avtomobil/zapchasti-na-legkovye-avtomobili-citroen/ 3 -
/wp-admin/post.php 2 -
/disks_catalog 1 -
/avtozapchasti/zapchasti-na-kommercheskuyu-texniku/zapchasti-na-kommercheskuyu-texniku_renault-trucks/zapchasti-na_renault-trucks_midliner/zapchasti-na_renault-trucks-midliner-m-200-12c/ 2 -
/GWwuf_.php 1 -
/avtozapchasti/zapchasti-na-kommercheskuyu-texniku/zapchasti-na-kommercheskuyu-texniku_man/zapchasti-na_man_tga/zapchasti-na_man-tga-18-410-18-420-fk-fk-l-flk-flrk/ 2 -
/avtozapchasti/zapchasti-na-legkovye-avtomobil/zapchasti-na-legkovye-avtomobili-porsche/ 3 -
/avtozapchasti/zapchasti-na-kommercheskuyu-texniku/zapchasti-na-kommercheskuyu-texniku_daf/zapchasti-na_daf_cf-85/zapchasti-na_daf-cf-85-fat-85-510-2/ 1 -
/avtozapchasti 4 -
/avtozapchasti/zapchasti-na-legkovye-avtomobil/zapchasti-na-legkovye-avtomobili-infiniti/ 3 -
/vinquery 2 -
/zapchasti-na-kommercheskuyu-texniku/zapchasti-na-gruzoviki/ 1 -
/wp-content/plugins/woocommerce-catalog-enquiry/assets/admin/css/chosen.css 1 -
/predlozhenija 1 -
/avtozapchasti/zapchasti-na-kommercheskuyu-texniku/zapchasti-na-kommercheskuyu-texniku_daf/zapchasti-na_daf_cf-85/zapchasti-na_daf-cf-85-fad-85-510-5/ 1 -
/wp-content/themes/sketch/system.php 1 -
/reg 1 -
/zapchasti_na_kommercheskie_avtomobili_Iveco 1 -
/joomla/administrator/index.php 1 -
/avtozapchasti/zapchasti-na-legkovye-avtomobil/zapchasti-na-legkovye-avtomobili-subaru/zapchasti-na-legkovye-avtomobili-subaru_mv-as_/ 1 -
/wp-includes/js/wp-embed.min.js 21 http://autoopora.com/avtozapchasti/zapchasti-na-kommercheskuyu-texniku/zapchasti-na-kommercheskuyu-texniku_renault-trucks/zapchasti-na_renault-trucks_premium/zapchasti-na_renault-trucks-premium-distribution-320-26d/
/1.tar.gz 1 -
/wp-content/plugins/traffic-counter-widget/wtc-styles.css 54 http://autoopora.com/avtozapchasti-kruglosutochno/
/avtozapchasti/zapchasti-na-kommercheskuyu-texniku/zapchasti-na-kommercheskuyu-texniku_ford/zapchasti-na_ford_6000-serie/ 1 -
/avtozapchasti/zapchasti-na-kommercheskuyu-texniku/zapchasti-na-kommercheskuyu-texniku_man/zapchasti-na_man_tgs/zapchasti-na_man-tgs-28-350-fnlrs-fnls/ 1 -
/autoopora.com.sql 1 -
/zapchasti_na_legkovie_avtomobili 1 -
/wp-content/plugins/wordpress-forms/css/frontend.form.css 1 -
/avtozapchasti/zapchasti-na-legkovye-avtomobil/zapchasti-na-legkovye-avtomobili-skoda/ 2 -
/avtozapchasti/zapchasti-na-kommercheskuyu-texniku/zapchasti-na-kommercheskuyu-texniku_renault-trucks/zapchasti-na_renault-trucks_c/zapchasti-na_renault-trucks-c-cbh-385-34-t/ 1 -
/wp-includes/wlwmanifest.xml 7 -
/wp-content/uploads/2017/01/24_7.png 2 -
/zapchasti-na-legkovye-avtomobil/zapchasti-na-legkovye-avtomobili-nissan/ 1 -
/wp-content/plugins/social-mobile-messaging-bar/assets/js/main.js 1 -
/wp-content/plugins/newsletters-lite/js/colorbox.js 1 -
/avtozapchasti/zapchasti-na-legkovye-avtomobil/zapchasti-na-legkovye-avtomobili-fiat/zapchasti-na-legkovye-avtomobili-fiat_doblo-ven-119_-223_/ 1 -
/wp-content/uploads/maink.php 1 -
/avtozapchasti/zapchasti-na-kommercheskuyu-texniku/zapchasti-na-kommercheskuyu-texniku_daf/ 2 -
/wp-content/uploads/2017/02/battery_6.png 1 http://go.mail.ru/search_images
/w0.php 1 -
/avtozapchasti/zapchasti-na-legkovye-avtomobil/zapchasti-na-legkovye-avtomobili-infiniti/zapchasti-na-legkovye-avtomobili-infiniti_ex/ 2 -
/category/kruglosutochnyj-avtomagazin-v-zaporozhe/page/6/ 3 https://www.google.com.ua/
/avtozapchasti/zapchasti-na-legkovye-avtomobil/zapchasti-na-legkovye-avtomobili-chrysler/ 2 -
/web.zip 1 -
/avtozapchasti/zapchasti-na-kommercheskuyu-texniku/zapchasti-na-kommercheskuyu-texniku_volvo/ 2 -
/avtozapchasti/zapchasti-na-legkovye-avtomobil/zapchasti-na-legkovye-avtomobili-toyota_bb-i-ncp3_/zapchasti-na-legkovye-avtomobili-toyota_paseo-kupe-el44_/ 1 -
/wp-content/uploads/2017/05/3aaFsGyxA9Q.jpg 2 -
/administrator/index.php 2 -
/avtozapchasti/zapchasti-na-legkovye-avtomobil/zapchasti-na-legkovye-avtomobili-mercedes-benz/zapchasti-na-legkovye-avtomobili-mercedes-benz_v-class-638_2/ 1 -
/personal_cabinet 1 -
/avtozapchasti/zapchasti-na-legkovye-avtomobil/zapchasti-na-legkovye-avtomobili-mercedes-benz/zapchasti-na-legkovye-avtomobili-mercedes-benz_sprinter-46-t-bortovoj-906/ 1 -
/avtozapchasti/zapchasti-na-kommercheskuyu-texniku/zapchasti-na-kommercheskuyu-texniku_man/zapchasti-na_man_sr/zapchasti-na_man-sr-sr-321-h 1 -
/avtozapchasti/zapchasti-na-legkovye-avtomobil 1 -
/avtozapchasti/zapchasti-na-legkovye-avtomobil/zapchasti-na-legkovye-avtomobili-hummer/ 1 -
/wp-content/themes/twentyfourteen/404.php 1 -
/avtozapchasti/zapchasti-na-legkovye-avtomobil/zapchasti-na-legkovye-avtomobili-bmw/zapchasti-na-legkovye-avtomobili-bmw_6-kabrio-e64/ 1 -
/wp-content/plugins/bibleget-io/js/admin.js 1 -
/wp-content/plugins/cardoza-facebook-like-box/cardozafacebook.js 1 -
/avtozapchasti/zapchasti-na-kommercheskuyu-texniku/zapchasti-na-kommercheskuyu-texniku_man/zapchasti-na_man_f-90-unterflur/zapchasti-na_man-f-90-unterflur-26-372-unl26-372-unll/ 1 -
/avtozapchasti/zapchasti-na-kommercheskuyu-texniku/zapchasti-na-kommercheskuyu-texniku_daf/zapchasti-na_daf_85-cf/zapchasti-na_daf-85-cf-far-85-cf-380/ 2 -
/wp-content/plugins/font-uploader/font-upload.php 2 -
/wp-content/plugins/sfwd-lms/assets/css/style.css 1 -
/test/CHANGELOG.txt 1 -
/akcii-ot-avtoopory/ 5 -
/connectors/security/login.php 1 -
/wp-content/uploads/2017/02/3_%D0%B3%D0%B8%D1%84.gif 5 -
/avtozapchasti/zapchasti-na-legkovye-avtomobil/zapchasti-na-legkovye-avtomobili-mazda/zapchasti-na-legkovoj-avtomobil-mazda_323-p-v-ba/ 1 -
/wp-content/plugins/user-files/style.css 1 -
/avtozapchasti/zapchasti-na-kommercheskuyu-texniku/zapchasti-na-kommercheskuyu-texniku_man/zapchasti-na_man_e-2000/zapchasti-na_man-e-2000-50-410-vfvk-vfv-g-vfvk-hk/ 1 -
/abouts-uis/ 2 -
/batteries_catalog 2 -
/whcatalog/ 1 -
/avtozapchasti/zapchasti-na-legkovye-avtomobil/zapchasti-na-legkovye-avtomobili-great-wall/ 2 -
/zapchasti-na-kommercheskuyu-texniku/zapchasti-na-gruzoviki 1 -
/wp-content/plugins/product-enquiry-for-woocommerce/css/wdm-jquery-ui.css 9 http://autoopora.com/avtozapchasti-kruglosutochno/
/autoopora_com.tar.gz 1 -
/avtozapchasti/zapchasti-na-kommercheskuyu-texniku/zapchasti-na-kommercheskuyu-texniku_renault-trucks/zapchasti-na_renault-trucks_premium/zapchasti-na_renault-trucks-premium-route-385-19t400-19t/ 1 -
/avtozapchasti/zapchasti-na-legkovye-avtomobil/zapchasti-na-legkovye-avtomobili-land-rover/ 2 -
/avtozapchasti/zapchasti-na-legkovye-avtomobil/zapchasti-na-legkovye-avtomobili-fiat/zapchasti-na-legkovye-avtomobili-fiat_ducato-panorama-290_/ 1 -
/wp-content/plugins/cherry-plugin/admin/import-export/download-content.php 1 -
/lfm.php 1 -
/avtozapchasti/zapchasti-na-kommercheskuyu-texniku/zapchasti-na-kommercheskuyu-texniku_daf/zapchasti-na_daf_f-2700/zapchasti-na_daf-f-2700-fat-2700-hs/ 1 -
/avtozapchasti/zapchasti-na-legkovye-avtomobil/zapchasti-na-legkovye-avtomobili-cadillac/zapchasti-na-legkovye-avtomobili-cadillac_escalade/ 1 -
/wp-content/plugins/NCM.php 1 -
/wp-content/plugins/contact-form-7/includes/js/jquery.form.min.js 12 http://autoopora.com/avtozapchasti-kruglosutochno/
/avtozapchasti/zapchasti-na-legkovye-avtomobil/zapchasti-na-legkovye-avtomobili-opel/zapchasti-na-legkovye-avtomobili-opel_karl/ 1 -
/avtozapchasti/zapchasti-na-legkovye-avtomobil/zapchasti-na-legkovye-avtomobili-ford/zapchasti-na-legkovoj-avtomobil-ford_mondeo-iii-sedan-b4y/ 2 -
/avtozapchasti/zapchasti-na-legkovye-avtomobil/zapchasti-na-legkovye-avtomobili-toyota_bb-i-ncp3_/zapchasti-na-legkovye-avtomobili-toyota_land-cruiser-_j6_/ 1 -
/avtozapchasti/zapchasti-na-legkovye-avtomobil/zapchasti-na-legkovye-avtomobili-mitsubishi/zapchasti-na-legkovye-avtomobili-mitsubishi_lancer-sedan-cs_a-ct0/ 1 -
/tag/avtomasla/ 3 https://www.google.com.ua/
/category/kruglosutochnyj-avtomagazin-v-zaporozhe/page/2/ 2 -
/wp-content/plugins/traffic-counter-widget/wp-wtc-ajax.js 21 http://autoopora.com/avtozapchasti/zapchasti-na-kommercheskuyu-texniku/zapchasti-na-kommercheskuyu-texniku_renault-trucks/zapchasti-na_renault-trucks_premium/zapchasti-na_renault-trucks-premium-distribution-320-26d/
/avtozapchasti/zapchasti-na-kommercheskuyu-texniku/zapchasti-na-kommercheskuyu-texniku_renault-trucks/zapchasti-na_renault-trucks_premium-2/zapchasti-na_renault-trucks-premium-2-route-380-19/ 2 -
/replace.php 1 -
/wp-content/uploads/2017/02/3_\xd0\xb3\xd0\xb8\xd1\x84.gif 7 -
/avtozapchasti/zapchasti-na-legkovye-avtomobil/zapchasti-na-legkovye-avtomobili-bmw/zapchasti-na-legkovye-avtomobili-bmw_5-touring-f11/ 1 -
/avtozapchasti/zapchasti-na-legkovye-avtomobil/zapchasti-na-legkovye-avtomobili-nissan/zapchasti-na-legkovye-avtomobili-nissan_trade-bortovoj-2/ 1 -
/wp-content/plugins/contact-form-7/includes/js/scripts.js 26 http://autoopora.com/avtozapchasti-kruglosutochno/
/category/kruglosutochnyj-avtomagazin-v-zaporozhe/page/5/ 2 https://www.google.com.ua/
/wp-admin/logo_img.php 1 http://autoopora.com/wp-admin/logo_img.php
/avtozapchasti/zapchasti-na-kommercheskuyu-texniku/zapchasti-na-kommercheskuyu-texniku_daf/zapchasti-na_daf_cf-75/zapchasti-na_daf-cf-75-fa-75-310/ 1 -
/magazin-avtozapchastej-v-zaporozhe/ 3 -
/avtozapchasti/zapchasti-na-legkovye-avtomobil/zapchasti-na-legkovye-avtomobili-mitsubishi/ 2 -
/page/5/ 1 -
/shiny-diski 3 -
/avtozapchasti/zapchasti-na-legkovye-avtomobil/zapchasti-na-legkovye-avtomobili-suzuki/zapchasti-na-legkovye-avtomobili-suzuki_samurai-sj/ 1 -
/ccontacts 1 http://ya.ru/
/page/4/ 20 -
/autoopora.com.zip 1 -
/category/kruglosutochnyj-avtomagazin-v-zaporozhe/ 5 https://www.google.com/
/masla-i-texnicheskie-zhidkosti/masla/ 4 -
/Babbitts.php 1 -
/onlajn-pomoshh-avtolyubitelyam/ 5 -
/wp-content/themes/autoopora_1_3_4/script.js 21 http://autoopora.com/avtozapchasti/zapchasti-na-kommercheskuyu-texniku/zapchasti-na-kommercheskuyu-texniku_renault-trucks/zapchasti-na_renault-trucks_premium/zapchasti-na_renault-trucks-premium-distribution-320-26d/
/wp-content/plugins/naxmjrt/zfxlozt1.jpg 1 -
/avtozapchasti/zapchasti-na-legkovye-avtomobil/zapchasti-na-legkovye-avtomobili-kia/zapchasti-na-legkovoj-avtomobil-kia_optima-sportswagon/ 1 -
/avtozapchasti/zapchasti-na-legkovye-avtomobil/zapchasti-na-legkovye-avtomobili-hyundai/ 1 -
/avtozapchasti/zapchasti-na-kommercheskuyu-texniku/zapchasti-na-kommercheskuyu-texniku_daf/zapchasti-na_daf-95/zapchasti-na_daf-95-fas-95-400/ 1 -
/wp-content/plugins/tv3/mod_system.php 1 -
/cart 2 -
/masla-i-texnicheskie-zhidkosti 2 -
/page/3/ 21 -
/remindpass 2 -
/magazin-avtozapchastej-v-zaporozhe-avtozapchasti/ 6 -
/avtozapchasti/zapchasti-na-legkovye-avtomobil/zapchasti-na-legkovye-avtomobili-chevrolet/zapchasti-na-legkovye-avtomobili-chevrolet_aveo-hatchback-t200/ 1 -
/autoopora-com.rar 1 -
/wp-content/themes/twentyseventeen/404.php 1 -
/avtozapchasti/zapchasti-na-legkovye-avtomobil/zapchasti-na-legkovye-avtomobili-toyota_bb-i-ncp3_/zapchasti-na-legkovye-avtomobili-toyota_brevis-jcg1_/ 1 -
/favicon.png 1 -
/avtozapchasti/zapchasti-na-legkovye-avtomobil/zapchasti-na-legkovye-avtomobili-hyundai/zapchasti-na-legkovye-avtomobili-hyundai_grace-furgon/ 1 -
/avtozapchasti/zapchasti-na-kommercheskuyu-texniku/zapchasti-na-kommercheskuyu-texniku_daf/zapchasti-na_daf_cf-85/zapchasti-na_daf-cf-85-ftt-85-380/ 2 -
/avtozapchasti/zapchasti-na-legkovye-avtomobil/zapchasti-na-legkovye-avtomobili-opel/zapchasti-na-legkovye-avtomobili-opel_meriva-b/ 1 -
/avtozapchasti/zapchasti-na-kommercheskuyu-texniku/zapchasti-na-kommercheskuyu-texniku_fiat/ 2 -
END_SIDER_404

# Host - Pages - Hits - Bandwidth - Last visit date - [Start date of last visit] - [Last page of last visit]
# [Start date of last visit] and [Last page of last visit] are saved only if session is not finished
# The 10 first Hits must be first (order not required for others)
BEGIN_VISITOR 586
82.117.245.241 520 520 18543755 20180212175254
89.162.172.110 319 951 24833199 20180227090105
23.253.82.146 209 209 898580 20180217125541
190.114.255.36 174 174 14156378 20180221193121
188.163.169.62 121 195 12858305 20180205125856
50.56.234.51 120 120 515844 20180217114607
94.72.104.249 108 108 464280 20180217081543
52.76.200.21 73 73 313475 20180217085251
199.204.248.103 72 72 309504 20180217033608
61.216.28.103 60 60 257878 20180217024824
65.55.213.25 0 1 17015 
104.36.19.17 1 1 20784 20180223021309
109.173.25.162 1 1 45809 20180201024553
183.36.114.161 1 19 938419 20180221104045
65.55.210.34 0 2 876 
199.30.24.130 0 2 21058 
65.55.210.150 0 1 117150 
194.85.94.202 2 2 8599 20180216042751
46.188.32.56 1 10 615107 20180201024553
37.144.154.22 1 14 648193 20180226224904
217.69.143.217 1 1 366334 20180207063426
108.174.149.9 12 12 51638 20180216035943
82.138.95.202 36 36 154760 20180217123827
188.163.173.58 17 83 4021142 20180211191857
217.160.63.32 1 1 366334 20180215174140
109.228.182.92 22 22 77024 20180224091945
77.93.52.28 1 44 1189690 20180206195459
199.30.24.42 0 1 8393 
199.30.24.33 0 1 9741 
199.30.25.232 0 1 9741 
87.117.185.143 1 29 512485 20180224211009
131.253.27.98 0 1 19963 
128.69.225.212 1 11 434754 20180224155527
65.55.210.16 0 1 254 
200.38.55.224 36 36 154818 20180217121952
65.55.210.128 0 1 110965 
46.164.132.10 1 46 847573 20180226164504
153.92.0.2 2 2 32391 20180203192127
81.120.65.55 12 12 51640 20180216090822
77.37.136.195 4 14 594565 20180225143536
82.165.44.245 1 1 366004 20180204000753
87.236.20.48 12 12 51554 20180216163726
199.30.25.143 0 1 84245 
180.96.23.209 23 23 98861 20180215225930
107.167.105.210 7 68 1232247 20180227075830
188.163.98.90 0 22 477040 
116.213.222.10 2 2 733168 20180224032224
46.98.56.45 1 46 1193241 20180220162856
85.26.235.153 0 1 16511 
65.55.210.129 0 1 741 
199.30.24.49 0 1 96413 
91.218.97.119 19 141 3965510 20180216152056
66.249.90.80 1 33 863320 20180225121406
95.24.148.187 1 25 484133 20180226231859
5.165.246.6 1 18 917994 20180217152513
125.209.68.85 1 1 366334 20180213021722
54.91.35.80 2 2 41903 20180201192358
199.30.24.145 0 1 1197 
178.140.25.174 4 21 1077359 20180211190225
94.23.47.8 1 1 366227 20180201220803
46.188.32.25 1 5 216242 20180207185618
92.112.179.62 1 44 1193902 20180216123049
92.113.26.166 1 29 20784 20180226125550
199.30.25.78 0 1 8279 
199.30.25.200 0 2 4784 
5.164.70.90 2 14 716965 20180209204750
220.181.124.72 1 1 20784 20180223172700
194.44.17.239 22 166 3604049 20180223102514
66.102.9.26 3 76 1970626 20180219233226
54.153.101.1 18 18 896186 20180217211146
5.101.156.30 24 24 103120 20180216225809
131.253.27.43 0 2 20704 
212.129.6.191 2 2 733882 20180226104221
95.221.62.224 1 46 1190065 20180206104230
199.30.24.234 0 1 71 
199.30.24.174 0 1 258 
93.76.122.120 1 28 1154295 20180204133336
199.30.24.27 1 1 366452 20180219112815
85.140.4.11 2 2 121843 20180205024914
65.55.210.109 0 1 150145 
199.30.25.106 0 1 16891 
103.208.246.231 1 1 366334 20180215044509
131.253.25.131 0 1 375 
131.253.27.1 0 1 19315 
95.135.242.202 1 29 828167 20180224210247
51.254.147.50 35 35 150531 20180216232343
131.253.27.6 0 1 16511 
104.131.155.48 1 1 366334 20180214230245
131.253.25.217 0 1 172 
131.253.27.117 0 1 71 
66.102.8.214 2 126 2627408 20180225121144
188.163.98.230 1 42 867430 20180227181700
34.227.229.33 1 43 1189451 20180212014016
95.221.253.105 1 18 572000 20180224120125
185.182.57.14 1 1 366334 20180213200342
66.249.84.250 6 51 1016680 20180225121311
168.128.29.75 1 1 366334 20180213192741
95.24.10.74 4 21 1077803 20180217234403
18.144.50.19 1 18 917994 20180217211136
18.219.165.9 1 1 366481 20180217034710
46.133.89.31 2 45 1207995 20180205175233
199.30.24.24 0 2 17015 
5.101.156.156 12 12 51578 20180217020822
199.30.25.223 0 1 1197 
131.253.25.236 0 1 1514 
65.55.210.151 0 1 8464 
131.253.27.114 0 2 24904 
131.253.25.179 0 1 0 
188.163.97.52 1 74 2463436 20180218082027
65.55.210.135 0 1 8279 
92.113.57.252 2 2 41271 20180223141224
131.253.25.231 0 2 7538 
37.204.185.114 0 6 258899 
103.18.246.76 1 1 366334 20180214140032
195.208.3.237 3 3 12912 20180216045528
194.33.82.200 11 11 47286 20180217032012
178.140.176.46 1 18 917550 20180212170736
141.212.122.16 1 1 366227 20180201193902
134.249.134.29 45 304 8325007 20180228203312
62.156.163.5 36 36 154688 20180217045507
103.48.80.212 12 12 51554 20180217000126
5.165.235.82 2 2 49200 20180205101053
131.253.27.127 0 3 13663 
129.78.110.124 1 1 366227 20180204102245
65.55.210.166 0 1 17760 
131.253.25.195 0 2 2649 
87.236.20.165 12 12 51590 20180216214929
199.30.24.4 0 1 71 
66.249.81.118 1 17 369177 20180224125357
178.140.236.40 1 11 434826 20180225185215
65.55.210.4 0 2 46674 
66.102.6.22 0 13 207346 
188.163.97.133 1 33 1185915 20180219104843
23.254.153.203 2 2 732701 20180210083126
199.30.24.182 0 1 741 
65.55.210.136 0 1 6500 
173.83.247.226 1 1 366452 20180220041818
220.181.124.108 1 1 366334 20180208172544
198.1.91.145 24 24 103170 20180216213752
81.30.80.127 24 24 103204 20180216070124
86.110.118.3 1 1 366177 20180209175928
199.30.24.114 0 1 84245 
23.100.69.102 12 12 51578 20180217061248
165.227.195.146 2 2 1136 20180212125606
199.30.25.41 0 5 161093 
65.55.210.58 0 1 8279 
91.221.132.102 1 1 366334 20180212120107
85.159.233.103 1 1 366362 20180206013527
199.30.25.51 0 2 16907 
199.30.24.239 0 1 8393 
134.249.115.208 1 29 828167 20180227110655
5.16.24.39 1 30 496934 20180223082221
144.76.137.87 48 48 206288 20180217013307
199.30.24.238 0 2 1286 
84.111.37.171 2 2 41568 20180226133411
153.120.181.184 1 1 366334 20180212171436
65.55.210.40 0 1 71 
67.23.238.242 1 1 366334 20180214050659
213.154.202.146 1 29 828167 20180221170248
103.255.254.135 1 1 366227 20180204174634
77.93.52.184 10 68 1215024 20180223144517
124.229.230.37 1 1 366474 20180210082937
134.249.115.148 21 228 5423801 20180223213444
46.211.252.63 0 22 477040 
183.36.114.167 1 14 902137 20180219093139
176.118.146.25 8 81 2466344 20180209153858
154.41.66.34 24 24 103144 20180216182459
66.249.88.86 2 16 234968 20180225121312
71.54.130.105 1 1 366474 20180210082953
66.102.9.24 3 64 1140191 20180221104051
89.249.64.246 5 5 555597 20180213152412
37.144.75.29 1 46 844487 20180225025048
199.30.25.25 0 1 2395 
5.164.90.121 1 18 917994 20180217182413
65.55.210.102 0 2 1170 
85.25.49.228 48 48 206372 20180217131231
110.4.45.90 1 1 366334 20180213110256
66.102.6.20 2 20 441514 20180225121311
131.253.25.156 0 1 19315 
128.75.114.195 4 21 1077252 20180203194642
199.30.24.102 0 1 19963 
217.147.169.218 1 1 20787 20180228122355
199.30.24.225 0 3 137113 
65.55.210.199 0 2 35590 
46.149.83.52 2 88 2379324 20180213093412
131.253.27.31 1 2 393073 20180206083032
77.122.64.46 1 1 23879 20180212130726
128.69.234.225 1 30 497004 20180224085317
131.253.27.124 0 1 8279 
199.30.24.246 0 4 70599 
193.17.75.153 5 89 2766759 20180220125315
134.249.133.193 12 55 5216069 20180216121542
68.71.57.172 1 43 1170569 20180202040251
123.126.113.148 0 37 1464582 
202.136.88.141 1 1 366037 20180211112641
165.227.116.223 1 1 366227 20180201175942
199.30.24.201 0 1 396 
91.106.207.104 12 12 51554 20180216184614
40.78.146.128 1 1 4007 20180214104832
188.32.176.159 1 18 917994 20180217182409
54.226.21.203 1 1 366227 20180201174131
46.211.99.103 3 48 1581729 20180219145627
65.55.210.185 0 1 150145 
128.68.220.174 1 30 496932 20180223082223
131.253.25.162 0 1 254 
65.55.210.145 0 1 19963 
81.230.137.192 2 2 3328 20180227205235
188.32.23.204 0 5 33636 
65.55.210.23 0 1 396 
77.93.62.204 3 50 1632728 20180220115148
5.101.156.83 12 12 51554 20180216175319
93.119.142.150 4 61 1603388 20180209200546
77.93.54.88 9 105 2590092 20180223170316
65.55.210.124 0 2 17086 
81.161.59.17 4 4 130249 20180202095159
178.74.215.73 4 54 1679768 20180218163932
131.253.25.245 0 1 84245 
131.253.25.153 0 2 17972 
5.248.61.85 2 49 1246635 20180203125046
199.30.25.245 0 2 35780 
180.247.65.152 1 40 1185180 20180218134319
181.215.74.252 1 1 366227 20180201040950
199.30.24.179 0 1 1514 
131.253.27.89 0 1 396 
109.86.16.151 6 66 1272241 20180219155857
65.55.210.51 0 1 741 
131.253.27.137 0 3 2895 
69.58.178.57 10 10 625661 20180203045034
185.12.6.22 1 1 366334 20180208045747
65.55.210.69 0 1 6500 
65.55.210.98 0 1 117150 
216.74.102.109 1 1 366334 20180214124510
141.212.122.112 1 1 366362 20180206213120
188.32.128.51 4 21 1077359 20180207094427
207.182.134.154 2 2 366791 20180203045558
199.30.24.196 0 1 16511 
208.80.194.31 2 2 736694 20180201025717
104.45.18.178 2 2 8014 20180216150249
95.221.238.96 1 11 436134 20180225025526
199.30.25.208 0 1 6500 
65.55.210.82 0 2 26039 
77.121.85.203 3 50 894527 20180226145852
199.30.24.78 0 1 84245 
131.253.27.67 0 1 96413 
65.55.210.161 0 1 110965 
82.223.71.242 1 1 366037 20180214071331
66.161.247.247 1 1 366941 20180224032224
212.66.32.46 0 1 16511 
183.36.114.98 1 13 897178 20180220092956
188.165.192.220 1 1 366227 20180204000750
45.40.133.155 1 1 366334 20180216024342
131.253.27.22 0 1 9741 
131.253.25.139 0 1 8464 
46.119.15.39 12 62 2159898 20180220173835
199.30.25.211 0 1 84245 
77.93.35.46 4 57 926752 20180225153946
188.163.99.14 2 46 1537289 20180204180813
46.46.79.35 1 33 1186241 20180217145143
144.217.66.151 12 12 1349034 20180209222824
188.40.82.18 36 36 154722 20180217002321
70.20.25.118 8 8 2931616 20180219014240
103.247.11.154 1 1 366778 20180218002925
199.30.25.63 0 1 96413 
131.253.25.155 0 1 9113 
77.93.41.42 12 89 4684468 20180223141141
107.167.105.95 1 46 1201511 20180205153925
66.249.84.226 3 50 857215 20180225121309
94.180.198.146 2 14 714532 20180224115831
199.30.24.245 0 1 501 
138.68.73.215 1 1 366474 20180209212034
77.111.244.56 7 52 1312034 20180206122905
131.253.25.233 0 2 18088 
85.234.120.104 1 44 1193902 20180216105414
183.36.114.126 1 44 1189662 20180209111640
118.70.186.102 1 1 366334 20180212033234
37.204.152.159 1 31 551880 20180201021206
37.110.33.26 1 1 68875 20180226022345
66.102.8.212 6 144 3277704 20180225121145
65.55.210.186 0 1 16511 
217.21.48.139 2 2 732724 20180206140824
131.253.27.11 0 2 10543 
158.69.229.69 1 1 366334 20180216023230
193.226.172.42 1 1 366362 20180206033258
178.137.17.67 5 5 555839 20180212003657
65.55.210.68 0 3 27953 
162.158.64.86 1 1 20807 20180223233247
188.163.96.234 12 71 2119470 20180204154100
65.55.210.232 0 2 32328 
199.30.24.108 0 2 396 
203.81.75.70 1 1 366227 20180202162441
37.55.215.98 1 29 1173717 20180208150441
199.30.25.154 0 1 1197 
46.164.134.234 5 170 4524147 20180223170319
103.196.139.175 1 1 365930 20180203200148
185.86.180.244 1 1 1013 20180211220938
199.30.24.93 0 1 17760 
5.101.156.97 36 36 154698 20180217015531
54.198.61.201 36 36 154858 20180217004616
141.212.122.144 1 1 366362 20180206213118
131.253.25.216 0 1 9741 
51.254.114.91 1 1 371018 20180217093916
66.249.88.84 0 13 511631 
66.249.88.82 2 17 125900 20180225121309
65.55.210.99 1 1 366227 20180203165210
131.253.25.164 0 1 35452 
188.165.4.128 26 26 4112913 20180225142450
58.97.8.10 36 36 154710 20180217062626
176.56.224.115 6 6 2199172 20180223133203
199.30.24.250 0 1 110965 
183.36.114.165 1 16 928087 20180218084738
103.255.254.123 1 1 366227 20180204215107
92.112.60.100 1 46 1190624 20180211021345
65.55.210.132 0 1 150145 
65.55.210.105 0 1 110965 
62.210.73.38 1 1 366941 20180224032150
199.30.24.157 0 1 84245 
199.30.24.200 0 3 1268 
5.228.95.146 0 24 477415 
183.36.114.173 1 43 1194135 20180217085050
65.55.210.170 1 14 963181 20180219112814
185.35.118.50 1 28 515173 20180205122858
90.188.45.122 1 44 1189662 20180215032154
91.214.31.226 6 7 2234525 20180219093442
91.216.107.154 1 1 366452 20180219192043
95.108.244.50 1 44 1189662 20180208142224
66.102.6.18 2 17 348072 20180225121314
176.14.207.97 1 18 917772 20180202041911
103.212.43.8 24 24 103144 20180217052755
199.30.24.129 0 1 4043 
87.252.252.2 0 1 19315 
65.55.210.230 0 3 134693 
82.118.242.19 1 1 366037 20180207193833
199.30.25.180 0 3 50152 
78.25.34.64 1 44 1189662 20180215113912
77.93.60.113 1 46 847573 20180223172408
199.30.25.7 0 2 119697 
52.53.254.138 1 3 413394 20180217211127
199.30.25.38 0 1 17760 
82.80.249.243 1 1 370574 20180214193738
66.249.81.114 1 24 677732 20180224125404
131.253.27.81 0 3 5465 
199.30.25.135 0 1 501 
188.163.99.219 3 49 875412 20180221114852
40.77.177.30 0 43 823328 
50.87.248.161 1 1 366334 20180216113840
94.73.148.128 1 1 366452 20180220132004
65.55.210.187 0 1 96413 
131.253.27.123 0 1 17760 
199.30.24.118 0 2 20338 
95.220.35.59 1 11 475141 20180201140106
199.30.25.236 0 2 143861 
46.46.73.30 1 43 1174480 20180205083459
212.109.221.43 36 36 154844 20180217120328
199.30.24.53 0 1 375 
131.253.25.200 0 1 1032 
65.55.210.104 0 3 9449 
134.249.134.75 1 44 1190106 20180217183010
37.60.19.3 0 22 477040 
46.175.254.64 1 46 1193567 20180217183632
69.28.90.69 1 1 366334 20180214234804
199.30.25.148 0 1 375 
5.101.156.63 1 1 3956 20180227154046
131.253.27.101 0 1 501 
131.253.27.17 0 2 119697 
217.160.62.242 1 1 366334 20180215084245
199.30.25.173 0 2 104208 
199.30.24.211 0 3 30822 
131.253.27.119 0 1 8393 
107.170.96.6 1 1 366334 20180213192522
47.75.36.129 1 1 370574 20180214141404
37.73.193.224 15 51 1501674 20180220141908
66.249.84.253 3 51 1143120 20180225121312
199.30.24.162 0 1 3020 
138.197.26.255 36 36 154698 20180217095147
80.74.143.2 12 12 51578 20180216223729
80.255.7.38 1 1 185 20180227075231
199.30.24.59 0 1 375 
67.225.176.158 12 12 51542 20180217110207
178.218.76.122 17 18 2757297 20180215193139
82.207.108.7 8 62 2577558 20180219111718
199.30.24.96 0 1 3020 
199.30.24.222 0 3 9355 
131.253.27.145 0 1 117150 
77.37.169.25 1 18 572000 20180222063030
65.55.210.228 0 2 586 
199.30.25.128 0 1 16511 
107.167.109.168 1 46 1200109 20180216140212
199.30.24.217 0 2 4784 
131.253.27.94 0 1 96413 
46.242.9.174 1 9 152548 20180226231857
37.144.50.38 1 11 436134 20180223185816
199.30.25.240 0 2 130280 
199.30.24.89 0 1 172 
65.55.210.13 0 1 6024 
106.120.162.111 1 43 1189451 20180211172658
46.211.106.9 7 55 954402 20180225134140
65.55.210.164 0 4 156675 
37.144.44.214 0 24 477415 
199.30.24.183 0 1 172 
77.239.163.213 4 56 986225 20180223112850
212.8.50.52 7 57 2194739 20180208213118
62.75.137.71 1 1 366334 20180213234611
46.119.238.44 1 1 3956 20180207185815
192.169.155.96 1 1 366474 20180209220245
95.24.26.100 1 1 4146 20180203231641
162.214.10.193 1 1 366452 20180220223204
131.253.25.224 0 1 258 
213.227.140.66 1 1 366334 20180208081425
94.153.163.126 1 33 1185797 20180212134128
174.137.191.5 12 12 51592 20180216103658
93.77.203.27 0 22 477040 
5.141.179.119 1 1 366334 20180211172015
95.69.133.241 1 1 53009 20180202220017
62.210.111.28 1 1 564 20180218010908
199.30.24.101 0 5 20735 
131.253.25.193 0 2 13185 
65.55.210.189 0 2 5287 
95.24.7.160 1 41 1156401 20180212033843
131.253.27.13 0 2 724 
199.101.134.195 1 1 366502 20180210191640
209.59.122.108 1 1 366452 20180219005855
131.253.27.2 0 1 3020 
195.181.174.60 0 14 473593 
199.30.25.12 0 3 154446 
158.46.223.85 1 1 20784 20180224234056
46.46.84.159 3 51 1652925 20180207165137
199.30.24.65 0 1 84245 
77.93.42.134 1 29 828167 20180227110437
185.183.96.68 1 1 366334 20180207165055
110.35.172.175 1 1 365930 20180204030536
80.122.98.69 50 50 194324 20180226075335
194.158.223.14 1 29 549128 20180205152936
89.178.92.49 1 14 650519 20180201021202
199.30.25.87 0 1 35452 
131.253.25.235 0 3 155436 
199.30.24.52 0 2 41952 
92.113.38.106 1 29 1173835 20180219165841
65.55.210.84 0 2 4301 
213.163.181.11 1 1 366941 20180224032359
46.133.88.159 10 57 2188539 20180214174402
66.102.8.210 1 129 2385988 20180225121144
199.30.24.110 0 2 138 
141.212.122.32 1 1 366227 20180201225225
65.55.210.188 0 4 10123 
192.187.101.178 5 5 1120541 20180222214812
66.249.91.116 0 2 26782 
77.37.168.184 1 11 434756 20180224155529
85.214.212.241 12 12 51578 20180217132946
176.14.183.145 1 1 18602 20180208221120
46.118.36.178 5 53 907104 20180224075030
65.55.210.54 0 1 9113 
92.112.177.182 2 20 608998 20180225083806
69.39.239.57 36 36 154818 20180216040316
194.110.6.115 1 44 1189662 20180207145535
192.169.235.228 36 36 154724 20180217101130
131.253.27.50 0 2 150403 
199.30.24.57 0 3 17258 
131.253.25.209 0 3 159110 
188.163.96.136 1 30 1176737 20180215123227
96.62.222.33 1 1 366334 20180213192644
131.253.25.147 0 1 16891 
206.190.135.229 12 12 51554 20180215232358
199.30.24.68 1 1 366941 20180225074231
37.204.84.118 1 1 366334 20180209023110
46.211.5.51 1 44 844112 20180224182820
178.140.107.6 2 57 1280411 20180226231857
199.30.24.98 0 1 741 
199.30.25.134 0 2 21292 
194.44.18.4 8 67 955714 20180228175709
5.62.63.125 1 1 366941 20180226185728
65.55.213.27 0 1 172 
85.248.227.164 1 1 199 20180223073343
199.30.25.189 0 1 26711 
199.30.24.127 0 1 16511 
134.249.134.8 2 15 719394 20180214104821
107.161.192.25 1 1 3933 20180212172918
199.30.24.8 0 1 17760 
65.55.210.12 0 3 19881 
86.110.116.119 1 1 366227 20180201170646
199.30.24.199 0 1 150145 
65.55.210.133 0 2 22335 
210.1.225.79 36 36 155468 20180217093159
184.174.56.69 1 1 366362 20180206140942
92.113.19.254 3 67 1700981 20180222152935
65.55.210.41 0 1 16511 
65.55.210.85 0 1 117150 
184.158.50.118 1 1 366334 20180213192015
65.55.210.1 0 1 110965 
66.249.81.116 2 14 112456 20180224125401
5.101.156.86 12 12 51578 20180216190718
185.198.167.29 1 1 20784 20180223232631
188.32.46.243 1 11 434756 20180225200627
87.236.20.169 12 12 51554 20180216162409
217.147.168.22 1 1 366334 20180209021521
70.42.131.170 1 43 1170240 20180201163108
109.236.8.10 2 2 736908 20180212221748
95.69.132.249 1 34 1188817 20180211220905
5.137.168.199 6 65 1189015 20180224203326
131.253.25.252 0 1 375 
37.147.108.24 3 3 415003 20180211201700
46.46.71.154 0 1 9741 
79.165.56.76 1 11 475141 20180217182417
91.189.128.27 1 33 1185797 20180212112656
46.175.253.153 1 44 1189662 20180214093506
131.253.25.160 0 2 9251 
199.30.25.0 0 1 172 
109.63.137.193 1 14 648225 20180225083019
104.238.100.244 36 36 154710 20180217055656
220.181.124.179 1 1 20784 20180224172543
109.254.251.35 0 1 9741 
202.55.74.24 36 36 154712 20180216191722
220.181.132.180 1 18 917550 20180211172648
131.253.25.248 0 4 12111 
54.82.103.107 1 21 935382 20180201174847
65.55.210.114 0 1 35452 
199.30.25.22 0 2 150145 
5.3.159.49 1 25 484217 20180225025048
5.44.168.213 4 50 895737 20180225183057
199.30.25.52 0 1 17015 
131.253.27.111 0 1 368 
89.21.89.19 1 1 76442 20180215231105
46.133.242.62 5 51 1816868 20180208164229
65.55.210.2 0 3 44227 
36.110.175.132 1 1 366474 20180210083117
37.150.137.194 0 1 16511 
203.130.238.146 24 24 103192 20180217035116
65.55.210.11 0 2 18025 
201.236.142.174 36 36 154734 20180217053013
91.214.29.142 1 33 1185797 20180209093116
176.14.143.165 1 13 645625 20180226022310
199.30.25.150 0 2 0 
5.101.156.67 12 12 51566 20180216185541
95.24.5.231 1 11 435909 20180228155636
46.133.175.103 2 16 971966 20180219191028
131.253.27.110 0 1 211 
65.55.210.120 0 2 1593 
99.194.120.104 1 1 366334 20180213191916
131.253.27.35 0 1 1197 
176.14.9.250 1 46 1190481 20180217020745
193.164.132.44 12 12 51554 20180217113119
199.30.24.85 0 1 3020 
45.33.173.56 1 10 624307 20180220132402
199.30.25.18 0 2 20135 
65.55.210.134 0 2 8768 
65.55.210.17 0 1 3020 
46.188.31.59 1 18 917994 20180217031001
46.211.24.196 1 44 1189662 20180215150023
199.30.24.125 0 1 117150 
49.0.1.174 1 1 366941 20180224032421
199.30.24.116 0 1 328 
192.162.238.204 1 44 1189662 20180215122034
199.30.25.140 0 2 35523 
109.248.9.250 2 2 370273 20180220154044
5.101.156.154 12 12 51566 20180216195044
134.249.189.42 1 46 1193241 20180220101254
94.27.58.190 3 45 1902100 20180205083633
200.58.114.34 1 1 366452 20180221074900
212.92.183.38 0 1 19315 
199.30.24.166 0 2 639 
199.30.25.243 0 1 368 
37.73.248.97 17 63 2399724 20180202175420
54.200.71.79 1 1 366481 20180218023441
65.55.210.168 0 2 4217 
188.255.20.224 1 17 581240 20180219054557
66.249.90.82 1 2 21525 20180225121336
82.130.179.248 4 4 1465808 20180219003452
199.30.25.161 0 1 110965 
199.30.24.26 0 1 8279 
163.172.122.20 18 18 440880 20180206200244
199.30.25.119 0 2 44471 
199.30.25.53 0 1 17760 
66.249.91.114 1 12 590731 20180224125458
188.163.171.66 4 55 1679437 20180220163805
52.67.150.108 1 1 366778 20180217101143
199.30.25.5 0 1 328 
199.30.25.94 0 1 150145 
83.142.83.26 2 2 367126 20180228132334
199.30.24.58 0 1 117150 
193.198.4.3 60 60 257918 20180217010848
38.100.21.61 1 1 370692 20180219153238
212.179.162.114 1 1 366941 20180227203350
199.30.25.36 0 1 26711 
66.102.9.28 8 78 2739672 20180219233008
190.96.76.26 60 60 257938 20180217104725
65.55.210.103 0 1 258 
13.56.229.65 10 10 2656371 20180227152958
END_VISITOR

# Date - Pages - Hits - Bandwidth - Visits
BEGIN_DAY 28
20180201 184 482 26499394 23
20180202 35 223 8010532 12
20180203 27 103 4578816 10
20180204 28 173 8630947 14
20180205 151 547 24757873 15
20180206 38 171 7080879 14
20180207 23 184 8231229 13
20180208 22 262 9103079 10
20180209 41 364 13599797 17
20180210 16 24 3324443 10
20180211 36 327 12284452 14
20180212 543 776 28295668 18
20180213 59 327 13491908 21
20180214 154 417 18993137 20
20180215 272 587 16058849 36
20180216 1028 1347 20770046 93
20180217 712 1033 17411618 71
20180218 14 191 7007050 9
20180219 211 880 33647827 28
20180220 50 460 16748390 17
20180221 31 328 8971025 14
20180222 22 259 4118545 10
20180223 48 508 9389697 23
20180224 44 519 13541758 30
20180225 57 822 18406628 25
20180226 18 278 5752467 15
20180227 18 258 5508464 11
20180228 13 94 1746789 7
END_DAY

# Session range - Number of visits
BEGIN_SESSION 7
1h+ 6
5mn-15mn 12
30s-2mn 44
15mn-30mn 4
2mn-5mn 20
0s-30s 502
30mn-1h 12
END_SESSION

# URL - Pages - Bandwidth - Entry - Exit
# The 10 first Pages must be first (order not required for others)
BEGIN_SIDER 26
/admin/ 1890 8112597 159 154
/index.php 936 35551920 29 60
/ 507 146641465 335 290
/admin/index.php 279 6159971 49 47
/about_us 60 1293784 16 17
/delivery 43 887635 2 2
/privacy 41 979963 2 3
/pays 37 1025560 1 1
/voprosi-i-otveti 18 299725 0 3
/legkovie-import 17 746679 0 1
/admin/view/javascript/font-awesome/fonts/fontawesome-webfont.eot 4 275500 1 4
/als-shini-otech--legkovie 2 37436 0 0
/catalog/view/javascript/font-awesome/fonts/fontawesome-webfont.eot 5 344375 0 0
/admin/view/javascript/font-awesome/fonts/fontawesome-webfont.woff2 6 258728 0 1
/img/favicon/site.webmanifest 7 3542 1 4
/send-order.php 6 1041 2 2
/als-shini-otech-- 2 37360 0 0
/als-shini-import-legkovoj 2 37446 0 0
/catalog/view/theme/default/stylesheet/fonts/fontawesome-webfont.eot 5 354035 0 5
/config.php 1 199 1 1
/catalog/view/javascript/bootstrap/fonts/glyphicons-halflings-regular.eot 5 100635 0 0
/catalog/view/theme/default/stylesheet/fonts/fontawesome-webfont.woff2 2 133686 0 1
/catalog/view/javascript/new/swiper.min.js.map 3 1147452 0 0
/uslovija 1 18445 0 0
/contacts/ 14 318559 2 4
/als-shini-rosava-belshina 2 37438 0 0
END_SIDER
