<?xml version="1.0" encoding="UTF-8"?>
<svg width="23px" height="22px" viewBox="0 0 23 22" version="1.1" xmlns="http://www.w3.org/2000/svg" xmlns:xlink="http://www.w3.org/1999/xlink">
    <!-- Generator: Sketch 47 (45396) - http://www.bohemiancoding.com/sketch -->
    <title>icon/core/check-circle</title>
    <desc>Created with Sketch.</desc>
    <defs></defs>
    <g id="Symbols" stroke="none" stroke-width="1" fill="none" fill-rule="evenodd" stroke-linecap="round" stroke-linejoin="round">
        <g id="icon/core/check-circle" stroke="#58A94B" stroke-width="2">
            <g transform="translate(1.000000, 0.000000)" id="Shape">
                <path d="M20,10.07 L20,11 C19.9974678,15.4286859 17.082294,19.328213 12.8353524,20.583901 C8.58841086,21.839589 4.02139355,20.1523121 1.61095509,16.4370663 C-0.799483376,12.7218205 -0.479136554,7.86363898 2.39827419,4.49707214 C5.27568494,1.13050531 10.0247126,0.0575252842 14.07,1.86"></path>
                <polyline points="21 2 10 13 7 10"></polyline>
            </g>
        </g>
    </g>
</svg>