<?xml version="1.0" encoding="UTF-8"?>
<svg width="22px" height="20px" viewBox="0 0 22 20" version="1.1" xmlns="http://www.w3.org/2000/svg" xmlns:xlink="http://www.w3.org/1999/xlink">
    <!-- Generator: Sketch 47 (45396) - http://www.bohemiancoding.com/sketch -->
    <title>icon/core/check-square</title>
    <desc>Created with Sketch.</desc>
    <defs></defs>
    <g id="Symbols" stroke="none" stroke-width="1" fill="none" fill-rule="evenodd">
        <g id="icon/core/check-square" fill-rule="nonzero" fill="#58A94B">
            <g id="Shape">
                <path d="M10,10.5857864 L7.70710678,8.29289322 C7.31658249,7.90236893 6.68341751,7.90236893 6.29289322,8.29289322 C5.90236893,8.68341751 5.90236893,9.31658249 6.29289322,9.70710678 L9.29289322,12.7071068 C9.68341751,13.0976311 10.3165825,13.0976311 10.7071068,12.7071068 L21.7071068,1.70710678 C22.0976311,1.31658249 22.0976311,0.683417511 21.7071068,0.292893219 C21.3165825,-0.0976310729 20.6834175,-0.0976310729 20.2928932,0.292893219 L10,10.5857864 Z"></path>
                <path d="M18,10 L18,17 C18,17.5522847 17.5522847,18 17,18 L3,18 C2.44771525,18 2,17.5522847 2,17 L2,3 C2,2.44771525 2.44771525,2 3,2 L14,2 C14.5522847,2 15,1.55228475 15,1 C15,0.44771525 14.5522847,0 14,0 L3,0 C1.34314575,0 0,1.34314575 0,3 L0,17 C0,18.6568542 1.34314575,20 3,20 L17,20 C18.6568542,20 20,18.6568542 20,17 L20,10 C20,9.44771525 19.5522847,9 19,9 C18.4477153,9 18,9.44771525 18,10 Z"></path>
            </g>
        </g>
    </g>
</svg>